job_id,workload_name,profile,submission_time,requested_number_of_resources,requested_time,success,final_state,starting_time,execution_time,finish_time,waiting_time,turnaround_time,stretch,allocated_resources,consumed_energy,metadata
0,w0,ft.C.8,4.403767,8,-1.000000,1,COMPLETED_SUCCESSFULLY,4.403767,56.001189,60.404956,0.000000,56.001190,1.000000,0-7,-1.000000,""
1,w0,ft.C.16,7.950990,16,-1.000000,1,COMPLETED_SUCCESSFULLY,7.950990,29.985093,37.936083,0.000000,29.985093,1.000000,8-23,-1.000000,""
10,w0,ft.C.8,51.111754,8,-1.000000,1,COMPLETED_SUCCESSFULLY,51.111754,56.001164,107.112919,0.000000,56.001164,1.000000,120-127,-1.000000,""
100,w0,ft.C.8,484.134764,8,-1.000000,1,COMPLETED_SUCCESSFULLY,484.134764,62.463506,546.598270,0.000000,62.463506,1.000000,32-39,-1.000000,""
101,w0,ft.C.32,490.271556,32,-1.000000,1,COMPLETED_SUCCESSFULLY,490.271556,21.159296,511.430852,0.000000,21.159296,1.000000,48-63 72-79 88-95,-1.000000,""
102,w0,ft.C.8,495.457298,8,-1.000000,1,COMPLETED_SUCCESSFULLY,495.457298,66.907178,562.364476,0.000000,66.907178,1.000000,96-103,-1.000000,""
103,w0,ft.C.8,500.460921,8,-1.000000,1,COMPLETED_SUCCESSFULLY,500.460921,56.001189,556.462110,0.000000,56.001190,1.000000,40-47,-1.000000,""
104,w0,ft.C.8,505.148757,8,-1.000000,1,COMPLETED_SUCCESSFULLY,505.148757,56.001189,561.149946,0.000000,56.001189,1.000000,64-71,-1.000000,""
105,w0,ft.C.8,510.414899,8,-1.000000,1,COMPLETED_SUCCESSFULLY,510.414899,56.001189,566.416089,0.000000,56.001189,1.000000,80-87,-1.000000,""
106,w0,ft.C.8,514.834085,8,-1.000000,1,COMPLETED_SUCCESSFULLY,514.834085,56.001189,570.835274,0.000000,56.001189,1.000000,48-55,-1.000000,""
107,w0,ft.C.8,519.821206,8,-1.000000,1,COMPLETED_SUCCESSFULLY,519.821206,56.001186,575.822392,0.000000,56.001186,1.000000,0-7,-1.000000,""
108,w0,ft.C.8,524.133293,8,-1.000000,1,COMPLETED_SUCCESSFULLY,524.133293,56.001184,580.134477,0.000000,56.001184,1.000000,8-15,-1.000000,""
109,w0,ft.C.32,529.525341,32,-1.000000,1,COMPLETED_SUCCESSFULLY,529.525341,22.213905,551.739246,0.000000,22.213905,1.000000,56-63 72-79 88-95 104-111,-1.000000,""
11,w0,ft.C.32,55.248824,32,-1.000000,1,COMPLETED_SUCCESSFULLY,55.248824,24.557904,79.806728,0.000000,24.557904,1.000000,32-47 64-79,-1.000000,""
110,w0,ft.C.8,534.632877,8,-1.000000,1,COMPLETED_SUCCESSFULLY,534.632877,56.001189,590.634066,0.000000,56.001189,1.000000,16-23,-1.000000,""
111,w0,ft.C.16,539.654116,16,-1.000000,1,COMPLETED_SUCCESSFULLY,539.654116,38.821545,578.475661,0.000000,38.821545,1.000000,24-31 112-119,-1.000000,""
112,w0,ft.C.8,544.303976,8,-1.000000,1,COMPLETED_SUCCESSFULLY,544.303976,56.001178,600.305154,0.000000,56.001178,1.000000,120-127,-1.000000,""
113,w0,ft.C.8,549.434842,8,-1.000000,1,COMPLETED_SUCCESSFULLY,549.434842,57.971562,607.406404,0.000000,57.971562,1.000000,32-39,-1.000000,""
114,w0,ft.C.32,554.794891,32,-1.000000,1,COMPLETED_SUCCESSFULLY,554.794891,22.700679,577.495570,0.000000,22.700680,1.000000,56-63 72-79 88-95 104-111,-1.000000,""
115,w0,ft.C.32,559.953041,32,-1.000000,1,COMPLETED_SUCCESSFULLY,577.495621,15.515919,593.011540,17.542581,33.058499,2.130618,40-71,-1.000000,""
116,w0,ft.C.8,565.321982,8,-1.000000,1,COMPLETED_SUCCESSFULLY,577.495621,56.001189,633.496811,12.173639,68.174828,1.217382,0-7,-1.000000,""
117,w0,ft.C.32,568.617392,32,-1.000000,1,COMPLETED_SUCCESSFULLY,577.495621,15.550112,593.045733,8.878229,24.428341,1.570943,72-103,-1.000000,""
118,w0,ft.C.16,573.641539,16,-1.000000,1,COMPLETED_SUCCESSFULLY,578.475709,29.985084,608.460793,4.834170,34.819254,1.161219,104-119,-1.000000,""
119,w0,ft.C.16,578.634311,16,-1.000000,1,COMPLETED_SUCCESSFULLY,578.634311,31.077922,609.712233,0.000000,31.077922,1.000000,24-31 128-135,-1.000000,""
12,w0,ft.C.16,60.678619,16,-1.000000,1,COMPLETED_SUCCESSFULLY,60.678619,43.839715,104.518334,0.000000,43.839715,1.000000,0-7 80-87,-1.000000,""
120,w0,ft.C.32,583.614419,32,-1.000000,1,COMPLETED_SUCCESSFULLY,593.011591,15.516289,608.527881,9.397172,24.913462,1.605633,40-71,-1.000000,""
121,w0,ft.C.8,587.509257,8,-1.000000,1,COMPLETED_SUCCESSFULLY,593.011591,56.001176,649.012767,5.502335,61.503510,1.098254,8-15,-1.000000,""
122,w0,ft.C.8,592.268385,8,-1.000000,1,COMPLETED_SUCCESSFULLY,593.011591,56.001175,649.012767,0.743206,56.744382,1.013271,16-23,-1.000000,""
123,w0,ft.C.8,595.833170,8,-1.000000,1,COMPLETED_SUCCESSFULLY,595.833170,60.574800,656.407970,0.000000,60.574801,1.000000,72-79,-1.000000,""
124,w0,ft.C.32,600.075056,32,-1.000000,1,COMPLETED_SUCCESSFULLY,608.460844,17.701946,626.162790,8.385788,26.087734,1.473721,80-111,-1.000000,""
125,w0,ft.C.8,605.325679,8,-1.000000,1,COMPLETED_SUCCESSFULLY,608.460844,56.077963,664.538807,3.135165,59.213128,1.055907,32-39,-1.000000,""
126,w0,ft.C.8,610.675670,8,-1.000000,1,COMPLETED_SUCCESSFULLY,610.675670,56.001179,666.676849,0.000000,56.001179,1.000000,24-31,-1.000000,""
127,w0,ft.C.16,614.702077,16,-1.000000,1,COMPLETED_SUCCESSFULLY,614.702077,29.985090,644.687167,0.000000,29.985090,1.000000,40-55,-1.000000,""
128,w0,ft.C.16,619.706542,16,-1.000000,1,COMPLETED_SUCCESSFULLY,619.706542,29.985078,649.691620,0.000000,29.985078,1.000000,56-71,-1.000000,""
129,w0,ft.C.8,625.272785,8,-1.000000,1,COMPLETED_SUCCESSFULLY,625.272785,56.001189,681.273974,0.000000,56.001189,1.000000,112-119,-1.000000,""
13,w0,ft.C.16,65.330319,16,-1.000000,1,COMPLETED_SUCCESSFULLY,65.330319,41.801301,107.131620,0.000000,41.801302,1.000000,88-95 128-135,-1.000000,""
130,w0,ft.C.32,630.212147,32,-1.000000,1,COMPLETED_SUCCESSFULLY,630.212147,17.390483,647.602630,0.000000,17.390483,1.000000,80-111,-1.000000,""
131,w0,ft.C.32,634.001200,32,-1.000000,1,COMPLETED_SUCCESSFULLY,647.602681,20.835868,668.438549,13.601481,34.437349,1.652792,80-111,-1.000000,""
132,w0,ft.C.8,638.561509,8,-1.000000,1,COMPLETED_SUCCESSFULLY,647.602681,56.001179,703.603860,9.041172,65.042350,1.161446,0-7,-1.000000,""
133,w0,ft.C.8,643.171115,8,-1.000000,1,COMPLETED_SUCCESSFULLY,647.602681,56.001179,703.603860,4.431566,60.432745,1.079133,40-47,-1.000000,""
134,w0,ft.C.32,647.409276,32,-1.000000,1,COMPLETED_SUCCESSFULLY,656.408021,24.337966,680.745987,8.998745,33.336711,1.369741,48-79,-1.000000,""
135,w0,ft.C.8,652.156068,8,-1.000000,1,COMPLETED_SUCCESSFULLY,656.408021,56.001179,712.409201,4.251953,60.253133,1.075926,8-15,-1.000000,""
136,w0,ft.C.8,657.288660,8,-1.000000,1,COMPLETED_SUCCESSFULLY,657.288660,56.001163,713.289824,0.000000,56.001163,1.000000,16-23,-1.000000,""
137,w0,ft.C.32,662.095147,32,-1.000000,1,COMPLETED_SUCCESSFULLY,668.438600,24.329098,692.767698,6.343453,30.672552,1.260735,80-111,-1.000000,""
138,w0,ft.C.8,666.740818,8,-1.000000,1,COMPLETED_SUCCESSFULLY,668.438600,56.001189,724.439789,1.697782,57.698971,1.030317,24-31,-1.000000,""
139,w0,ft.C.8,670.729781,8,-1.000000,1,COMPLETED_SUCCESSFULLY,670.729781,56.302299,727.032081,0.000000,56.302299,1.000000,32-39,-1.000000,""
14,w0,ft.C.8,71.004578,8,-1.000000,1,COMPLETED_SUCCESSFULLY,71.004578,56.001172,127.005750,0.000000,56.001172,1.000000,24-31,-1.000000,""
140,w0,ft.C.32,675.450002,32,-1.000000,1,COMPLETED_SUCCESSFULLY,680.746038,24.316109,705.062147,5.296036,29.612145,1.217799,48-79,-1.000000,""
141,w0,ft.C.32,680.123232,32,-1.000000,1,COMPLETED_SUCCESSFULLY,692.767749,20.369530,713.137279,12.644517,33.014047,1.620756,80-111,-1.000000,""
142,w0,ft.C.16,685.168330,16,-1.000000,1,COMPLETED_SUCCESSFULLY,692.767749,29.985083,722.752832,7.599419,37.584502,1.253440,112-127,-1.000000,""
143,w0,ft.C.32,690.220193,32,-1.000000,1,COMPLETED_SUCCESSFULLY,705.062198,15.516279,720.578478,14.842005,30.358285,1.956544,40-71,-1.000000,""
144,w0,ft.C.32,695.880099,32,-1.000000,1,COMPLETED_SUCCESSFULLY,713.137330,15.738082,728.875412,17.257231,32.995314,2.096527,72-103,-1.000000,""
145,w0,ft.C.8,700.063472,8,-1.000000,1,COMPLETED_SUCCESSFULLY,713.137330,56.001179,769.138509,13.073858,69.075037,1.233457,0-7,-1.000000,""
146,w0,ft.C.8,705.032119,8,-1.000000,1,COMPLETED_SUCCESSFULLY,713.137330,56.001179,769.138509,8.105211,64.106389,1.144733,8-15,-1.000000,""
147,w0,ft.C.16,709.286597,16,-1.000000,1,COMPLETED_SUCCESSFULLY,720.578529,29.985071,750.563600,11.291932,41.277003,1.376585,40-55,-1.000000,""
148,w0,ft.C.8,713.884443,8,-1.000000,1,COMPLETED_SUCCESSFULLY,720.578529,56.001184,776.579713,6.694086,62.695270,1.119535,16-23,-1.000000,""
149,w0,ft.C.8,717.840909,8,-1.000000,1,COMPLETED_SUCCESSFULLY,720.578529,56.001184,776.579713,2.737620,58.738804,1.048885,56-63,-1.000000,""
15,w0,ft.C.32,76.198702,32,-1.000000,1,COMPLETED_SUCCESSFULLY,82.661930,18.293905,100.955835,6.463229,24.757134,1.353300,32-63,-1.000000,""
150,w0,ft.C.8,722.422016,8,-1.000000,1,COMPLETED_SUCCESSFULLY,722.422016,56.001189,778.423205,0.000000,56.001189,1.000000,64-71,-1.000000,""
151,w0,ft.C.32,727.819405,32,-1.000000,1,COMPLETED_SUCCESSFULLY,727.819405,19.847105,747.666511,0.000000,19.847105,1.000000,24-39 104-119,-1.000000,""
152,w0,ft.C.8,732.992813,8,-1.000000,1,COMPLETED_SUCCESSFULLY,732.992813,57.616558,790.609371,0.000000,57.616558,1.000000,72-79,-1.000000,""
153,w0,ft.C.8,737.344042,8,-1.000000,1,COMPLETED_SUCCESSFULLY,737.344042,56.001189,793.345232,0.000000,56.001189,1.000000,80-87,-1.000000,""
154,w0,ft.C.8,741.988622,8,-1.000000,1,COMPLETED_SUCCESSFULLY,741.988622,56.001189,797.989812,0.000000,56.001189,1.000000,88-95,-1.000000,""
155,w0,ft.C.16,745.846629,16,-1.000000,1,COMPLETED_SUCCESSFULLY,745.846629,34.773695,780.620324,0.000000,34.773695,1.000000,96-103 120-127,-1.000000,""
156,w0,ft.C.8,750.337683,8,-1.000000,1,COMPLETED_SUCCESSFULLY,750.337683,56.001189,806.338872,0.000001,56.001190,1.000000,24-31,-1.000000,""
157,w0,ft.C.8,754.935654,8,-1.000000,1,COMPLETED_SUCCESSFULLY,754.935654,57.867275,812.802929,0.000000,57.867276,1.000000,32-39,-1.000000,""
158,w0,ft.C.8,760.002923,8,-1.000000,1,COMPLETED_SUCCESSFULLY,760.002923,56.001175,816.004098,0.000000,56.001175,1.000000,40-47,-1.000000,""
159,w0,ft.C.32,764.175078,32,-1.000000,1,COMPLETED_SUCCESSFULLY,764.175078,20.616282,784.791361,0.000000,20.616282,1.000000,48-55 104-119 128-135,-1.000000,""
16,w0,ft.C.32,81.029423,32,-1.000000,1,COMPLETED_SUCCESSFULLY,100.955883,17.789271,118.745154,19.926461,37.715732,2.120139,32-63,-1.000000,""
160,w0,ft.C.8,768.923979,8,-1.000000,1,COMPLETED_SUCCESSFULLY,769.138605,56.001178,825.139783,0.214626,56.215804,1.003833,0-7,-1.000000,""
161,w0,ft.C.8,774.028444,8,-1.000000,1,COMPLETED_SUCCESSFULLY,774.028444,56.001179,830.029623,0.000000,56.001180,1.000000,8-15,-1.000000,""
162,w0,ft.C.8,778.684260,8,-1.000000,1,COMPLETED_SUCCESSFULLY,778.684260,56.001189,834.685449,0.000000,56.001189,1.000000,16-23,-1.000000,""
163,w0,ft.C.8,783.811779,8,-1.000000,1,COMPLETED_SUCCESSFULLY,783.811779,56.001181,839.812960,0.000000,56.001182,1.000000,56-63,-1.000000,""
164,w0,ft.C.16,789.288463,16,-1.000000,1,COMPLETED_SUCCESSFULLY,789.288463,29.985082,819.273545,0.000000,29.985082,1.000000,48-55 64-71,-1.000000,""
165,w0,ft.C.8,793.815812,8,-1.000000,1,COMPLETED_SUCCESSFULLY,793.815812,65.315844,859.131656,0.000000,65.315844,1.000000,72-79,-1.000000,""
166,w0,ft.C.16,798.647649,16,-1.000000,1,COMPLETED_SUCCESSFULLY,798.647649,29.985061,828.632710,0.000000,29.985061,1.000000,80-95,-1.000000,""
167,w0,ft.C.32,802.931641,32,-1.000000,1,COMPLETED_SUCCESSFULLY,802.931641,15.516357,818.447999,0.000000,15.516357,1.000000,96-127,-1.000000,""
168,w0,ft.C.8,807.972366,8,-1.000000,1,COMPLETED_SUCCESSFULLY,807.972366,56.001179,863.973545,0.000000,56.001179,1.000000,24-31,-1.000000,""
169,w0,ft.C.8,813.269117,8,-1.000000,1,COMPLETED_SUCCESSFULLY,813.269117,67.942110,881.211227,0.000000,67.942110,1.000000,32-39,-1.000000,""
17,w0,ft.C.32,85.207201,32,-1.000000,1,COMPLETED_SUCCESSFULLY,107.112970,19.986735,127.099705,21.905769,41.892503,2.096015,96-127,-1.000000,""
170,w0,ft.C.32,818.514866,32,-1.000000,1,COMPLETED_SUCCESSFULLY,818.514866,25.244010,843.758877,0.000000,25.244010,1.000000,40-47 96-119,-1.000000,""
171,w0,ft.C.8,822.997643,8,-1.000000,1,COMPLETED_SUCCESSFULLY,822.997643,56.001180,878.998823,0.000000,56.001180,1.000000,48-55,-1.000000,""
172,w0,ft.C.16,828.293868,16,-1.000000,1,COMPLETED_SUCCESSFULLY,828.293868,41.101937,869.395805,0.000000,41.101937,1.000000,0-7 64-71,-1.000000,""
173,w0,ft.C.32,833.116719,32,-1.000000,1,COMPLETED_SUCCESSFULLY,833.116719,27.007907,860.124626,0.000000,27.007907,1.000000,8-15 80-95 120-127,-1.000000,""
174,w0,ft.C.32,836.731974,32,-1.000000,1,COMPLETED_SUCCESSFULLY,860.124674,15.945518,876.070192,23.392701,39.338219,2.467039,72-103,-1.000000,""
175,w0,ft.C.32,841.911250,32,-1.000000,1,COMPLETED_SUCCESSFULLY,860.124674,15.516290,875.640964,18.213424,33.729714,2.173826,104-135,-1.000000,""
176,w0,ft.C.8,845.278460,8,-1.000000,1,COMPLETED_SUCCESSFULLY,860.124674,56.001185,916.125859,14.846214,70.847399,1.265105,8-15,-1.000000,""
177,w0,ft.C.8,850.230530,8,-1.000000,1,COMPLETED_SUCCESSFULLY,860.124674,56.001185,916.125859,9.894144,65.895329,1.176677,16-23,-1.000000,""
178,w0,ft.C.8,854.063439,8,-1.000000,1,COMPLETED_SUCCESSFULLY,860.124674,56.001185,916.125859,6.061235,62.062420,1.108234,40-47,-1.000000,""
179,w0,ft.C.8,858.723956,8,-1.000000,1,COMPLETED_SUCCESSFULLY,860.124674,56.001185,916.125859,1.400719,57.401904,1.025012,56-63,-1.000000,""
18,w0,ft.C.16,90.162254,16,-1.000000,1,COMPLETED_SUCCESSFULLY,107.112970,29.985051,137.098021,16.950716,46.935767,1.565306,0-15,-1.000000,""
180,w0,ft.C.8,863.145680,8,-1.000000,1,COMPLETED_SUCCESSFULLY,863.973593,56.001186,919.974779,0.827914,56.829099,1.014784,24-31,-1.000000,""
181,w0,ft.C.16,867.262491,16,-1.000000,1,COMPLETED_SUCCESSFULLY,875.641015,29.985009,905.626024,8.378524,38.363533,1.279424,104-119,-1.000000,""
182,w0,ft.C.8,871.067721,8,-1.000000,1,COMPLETED_SUCCESSFULLY,875.641015,56.001166,931.642181,4.573294,60.574460,1.081664,0-7,-1.000000,""
183,w0,ft.C.16,875.375111,16,-1.000000,1,COMPLETED_SUCCESSFULLY,875.641015,29.985009,905.626024,0.265904,30.250913,1.008868,120-135,-1.000000,""
184,w0,ft.C.8,879.859844,8,-1.000000,1,COMPLETED_SUCCESSFULLY,879.859844,56.001186,935.861030,0.000000,56.001186,1.000000,48-55,-1.000000,""
185,w0,ft.C.8,884.590165,8,-1.000000,1,COMPLETED_SUCCESSFULLY,884.590165,66.713146,951.303311,0.000000,66.713146,1.000000,32-39,-1.000000,""
186,w0,ft.C.32,889.404939,32,-1.000000,1,COMPLETED_SUCCESSFULLY,889.404939,18.193933,907.598873,0.000000,18.193933,1.000000,64-95,-1.000000,""
187,w0,ft.C.8,894.650507,8,-1.000000,1,COMPLETED_SUCCESSFULLY,894.650507,58.903218,953.553725,0.000000,58.903218,1.000000,96-103,-1.000000,""
188,w0,ft.C.8,899.533097,8,-1.000000,1,COMPLETED_SUCCESSFULLY,905.626126,56.001175,961.627301,6.093029,62.094204,1.108802,104-111,-1.000000,""
189,w0,ft.C.8,903.750524,8,-1.000000,1,COMPLETED_SUCCESSFULLY,905.626126,56.001175,961.627301,1.875602,57.876778,1.033492,112-119,-1.000000,""
19,w0,ft.C.8,95.549805,8,-1.000000,1,COMPLETED_SUCCESSFULLY,107.112970,56.001157,163.114127,11.563165,67.564322,1.206481,16-23,-1.000000,""
190,w0,ft.C.8,907.624731,8,-1.000000,1,COMPLETED_SUCCESSFULLY,907.624731,56.001183,963.625914,0.000000,56.001183,1.000000,64-71,-1.000000,""
191,w0,ft.C.8,913.215153,8,-1.000000,1,COMPLETED_SUCCESSFULLY,913.215153,74.053541,987.268694,0.000000,74.053541,1.000000,72-79,-1.000000,""
192,w0,ft.C.8,918.790628,8,-1.000000,1,COMPLETED_SUCCESSFULLY,918.790628,56.001189,974.791817,0.000000,56.001190,1.000000,8-15,-1.000000,""
193,w0,ft.C.8,923.326437,8,-1.000000,1,COMPLETED_SUCCESSFULLY,923.326437,56.001186,979.327623,0.000000,56.001186,1.000000,16-23,-1.000000,""
194,w0,ft.C.8,927.764435,8,-1.000000,1,COMPLETED_SUCCESSFULLY,927.764435,56.001189,983.765624,0.000000,56.001189,1.000000,24-31,-1.000000,""
195,w0,ft.C.32,931.888885,32,-1.000000,1,COMPLETED_SUCCESSFULLY,931.888885,26.952967,958.841853,0.000000,26.952967,1.000000,0-7 40-47 56-63 80-87,-1.000000,""
196,w0,ft.C.16,937.303838,16,-1.000000,1,COMPLETED_SUCCESSFULLY,937.303838,46.497295,983.801133,0.000000,46.497296,1.000000,48-55 88-95,-1.000000,""
197,w0,ft.C.32,943.076599,32,-1.000000,1,COMPLETED_SUCCESSFULLY,961.627403,21.297038,982.924441,18.550805,39.847842,1.871051,96-127,-1.000000,""
198,w0,ft.C.16,946.556094,16,-1.000000,1,COMPLETED_SUCCESSFULLY,961.627403,33.034747,994.662151,15.071309,48.106056,1.456226,32-47,-1.000000,""
199,w0,ft.C.8,951.528739,8,-1.000000,1,COMPLETED_SUCCESSFULLY,961.627403,56.001151,1017.628554,10.098664,66.099815,1.180330,0-7,-1.000000,""
2,w0,ft.C.8,12.302045,8,-1.000000,1,COMPLETED_SUCCESSFULLY,12.302045,56.001189,68.303234,0.000000,56.001190,1.000000,24-31,-1.000000,""
20,w0,ft.C.16,99.945175,16,-1.000000,1,COMPLETED_SUCCESSFULLY,107.112970,35.689692,142.802662,7.167795,42.857487,1.200837,64-79,-1.000000,""
200,w0,ft.C.8,955.618046,8,-1.000000,1,COMPLETED_SUCCESSFULLY,961.627403,56.001151,1017.628554,6.009358,62.010508,1.107308,56-63,-1.000000,""
201,w0,ft.C.8,961.003996,8,-1.000000,1,COMPLETED_SUCCESSFULLY,961.627403,56.001151,1017.628554,0.623407,56.624558,1.011132,80-87,-1.000000,""
202,w0,ft.C.32,966.196868,32,-1.000000,1,COMPLETED_SUCCESSFULLY,982.924492,15.735849,998.660341,16.727625,32.463473,2.063027,96-127,-1.000000,""
203,w0,ft.C.8,970.747062,8,-1.000000,1,COMPLETED_SUCCESSFULLY,982.924492,56.001183,1038.925675,12.177430,68.178613,1.217450,8-15,-1.000000,""
204,w0,ft.C.16,976.070140,16,-1.000000,1,COMPLETED_SUCCESSFULLY,983.765672,29.985073,1013.750745,7.695532,37.680605,1.256645,16-31,-1.000000,""
205,w0,ft.C.8,981.046143,8,-1.000000,1,COMPLETED_SUCCESSFULLY,983.765672,56.001117,1039.766789,2.719530,58.720646,1.048562,64-71,-1.000000,""
206,w0,ft.C.8,986.082476,8,-1.000000,1,COMPLETED_SUCCESSFULLY,986.082476,56.001189,1042.083665,0.000000,56.001189,1.000000,48-55,-1.000000,""
207,w0,ft.C.16,991.368543,16,-1.000000,1,COMPLETED_SUCCESSFULLY,991.368543,29.985190,1021.353733,0.000000,29.985191,1.000000,72-79 88-95,-1.000000,""
208,w0,ft.C.16,996.560155,16,-1.000000,1,COMPLETED_SUCCESSFULLY,996.560155,29.985093,1026.545248,0.000000,29.985093,1.000000,32-47,-1.000000,""
209,w0,ft.C.8,1001.573476,8,-1.000000,1,COMPLETED_SUCCESSFULLY,1001.573476,56.001185,1057.574661,0.000000,56.001185,1.000000,96-103,-1.000000,""
21,w0,ft.C.8,105.215463,8,-1.000000,1,COMPLETED_SUCCESSFULLY,107.112970,56.001157,163.114127,1.897507,57.898664,1.033883,80-87,-1.000000,""
210,w0,ft.C.16,1005.436445,16,-1.000000,1,COMPLETED_SUCCESSFULLY,1005.436445,29.985093,1035.421538,0.000000,29.985093,1.000000,104-119,-1.000000,""
211,w0,ft.C.8,1009.969088,8,-1.000000,1,COMPLETED_SUCCESSFULLY,1009.969088,56.001183,1065.970271,0.000000,56.001183,1.000000,120-127,-1.000000,""
212,w0,ft.C.32,1015.668586,32,-1.000000,1,COMPLETED_SUCCESSFULLY,1026.545296,18.045303,1044.590600,10.876710,28.922014,1.602745,16-47,-1.000000,""
213,w0,ft.C.8,1019.748008,8,-1.000000,1,COMPLETED_SUCCESSFULLY,1026.545296,56.001179,1082.546475,6.797288,62.798467,1.121378,0-7,-1.000000,""
214,w0,ft.C.8,1024.240349,8,-1.000000,1,COMPLETED_SUCCESSFULLY,1026.545296,56.001179,1082.546475,2.304947,58.306126,1.041159,56-63,-1.000000,""
215,w0,ft.C.8,1029.057997,8,-1.000000,1,COMPLETED_SUCCESSFULLY,1029.057997,59.419944,1088.477941,0.000000,59.419945,1.000000,72-79,-1.000000,""
216,w0,ft.C.8,1033.874398,8,-1.000000,1,COMPLETED_SUCCESSFULLY,1033.874398,56.001189,1089.875587,0.000000,56.001189,1.000000,80-87,-1.000000,""
217,w0,ft.C.8,1037.579193,8,-1.000000,1,COMPLETED_SUCCESSFULLY,1037.579193,56.001189,1093.580382,0.000000,56.001189,1.000000,88-95,-1.000000,""
218,w0,ft.C.8,1041.680024,8,-1.000000,1,COMPLETED_SUCCESSFULLY,1041.680024,56.001189,1097.681213,0.000000,56.001189,1.000000,8-15,-1.000000,""
219,w0,ft.C.8,1045.357805,8,-1.000000,1,COMPLETED_SUCCESSFULLY,1045.357805,56.001189,1101.358994,0.000000,56.001189,1.000000,16-23,-1.000000,""
22,w0,ft.C.8,110.725999,8,-1.000000,1,COMPLETED_SUCCESSFULLY,110.725999,56.001189,166.727188,0.000000,56.001190,1.000000,88-95,-1.000000,""
220,w0,ft.C.8,1049.917102,8,-1.000000,1,COMPLETED_SUCCESSFULLY,1049.917102,56.001172,1105.918274,0.000000,56.001173,1.000000,24-31,-1.000000,""
221,w0,ft.C.8,1054.865096,8,-1.000000,1,COMPLETED_SUCCESSFULLY,1054.865096,59.452050,1114.317146,0.000000,59.452050,1.000000,32-39,-1.000000,""
222,w0,ft.C.8,1059.971148,8,-1.000000,1,COMPLETED_SUCCESSFULLY,1059.971148,56.001189,1115.972337,0.000000,56.001189,1.000000,40-47,-1.000000,""
223,w0,ft.C.8,1064.199215,8,-1.000000,1,COMPLETED_SUCCESSFULLY,1064.199215,56.001189,1120.200404,0.000000,56.001190,1.000000,48-55,-1.000000,""
224,w0,ft.C.16,1068.361735,16,-1.000000,1,COMPLETED_SUCCESSFULLY,1068.361735,31.661844,1100.023579,0.000000,31.661844,1.000000,64-71 96-103,-1.000000,""
225,w0,ft.C.8,1072.642683,8,-1.000000,1,COMPLETED_SUCCESSFULLY,1072.642683,56.001183,1128.643866,0.000000,56.001183,1.000000,104-111,-1.000000,""
226,w0,ft.C.8,1078.017971,8,-1.000000,1,COMPLETED_SUCCESSFULLY,1078.017971,56.001182,1134.019153,0.000000,56.001182,1.000000,112-119,-1.000000,""
227,w0,ft.C.8,1082.863881,8,-1.000000,1,COMPLETED_SUCCESSFULLY,1082.863881,56.001189,1138.865070,0.000000,56.001189,1.000000,0-7,-1.000000,""
228,w0,ft.C.8,1087.627064,8,-1.000000,1,COMPLETED_SUCCESSFULLY,1087.627064,56.001182,1143.628246,0.000000,56.001182,1.000000,56-63,-1.000000,""
229,w0,ft.C.8,1092.597175,8,-1.000000,1,COMPLETED_SUCCESSFULLY,1092.597175,64.888293,1157.485469,0.000000,64.888293,1.000000,72-79,-1.000000,""
23,w0,ft.C.16,115.457999,16,-1.000000,1,COMPLETED_SUCCESSFULLY,118.745202,37.735094,156.480297,3.287203,41.022297,1.087113,32-47,-1.000000,""
230,w0,ft.C.8,1097.795258,8,-1.000000,1,COMPLETED_SUCCESSFULLY,1097.795258,56.001179,1153.796437,0.000000,56.001180,1.000000,8-15,-1.000000,""
231,w0,ft.C.32,1102.335708,32,-1.000000,1,COMPLETED_SUCCESSFULLY,1102.335708,26.628349,1128.964057,0.000000,26.628349,1.000000,16-23 64-71 80-95,-1.000000,""
232,w0,ft.C.16,1107.256313,16,-1.000000,1,COMPLETED_SUCCESSFULLY,1107.256313,40.799622,1148.055935,0.000000,40.799622,1.000000,24-31 96-103,-1.000000,""
233,w0,ft.C.16,1112.530596,16,-1.000000,1,COMPLETED_SUCCESSFULLY,1112.530596,29.985082,1142.515678,0.000000,29.985082,1.000000,120-135,-1.000000,""
234,w0,ft.C.16,1117.563142,16,-1.000000,1,COMPLETED_SUCCESSFULLY,1117.563142,35.331841,1152.894984,0.000000,35.331841,1.000000,32-47,-1.000000,""
235,w0,ft.C.16,1123.085968,16,-1.000000,1,COMPLETED_SUCCESSFULLY,1128.964105,29.985072,1158.949177,5.878137,35.863209,1.196035,80-95,-1.000000,""
236,w0,ft.C.8,1127.484664,8,-1.000000,1,COMPLETED_SUCCESSFULLY,1128.964105,56.001163,1184.965268,1.479441,57.480605,1.026418,16-23,-1.000000,""
237,w0,ft.C.16,1131.218404,16,-1.000000,1,COMPLETED_SUCCESSFULLY,1131.218404,29.985093,1161.203498,0.000000,29.985093,1.000000,48-55 64-71,-1.000000,""
238,w0,ft.C.32,1136.006873,32,-1.000000,1,COMPLETED_SUCCESSFULLY,1142.515729,15.516280,1158.032009,6.508856,22.025136,1.419486,104-135,-1.000000,""
239,w0,ft.C.8,1141.474373,8,-1.000000,1,COMPLETED_SUCCESSFULLY,1142.515729,56.001189,1198.516918,1.041356,57.042545,1.018595,0-7,-1.000000,""
24,w0,ft.C.8,119.268960,8,-1.000000,1,COMPLETED_SUCCESSFULLY,119.268960,56.001183,175.270143,0.000000,56.001183,1.000000,48-55,-1.000000,""
240,w0,ft.C.8,1146.857777,8,-1.000000,1,COMPLETED_SUCCESSFULLY,1146.857777,56.001189,1202.858967,0.000000,56.001189,1.000000,56-63,-1.000000,""
241,w0,ft.C.8,1152.190408,8,-1.000000,1,COMPLETED_SUCCESSFULLY,1152.190408,56.001180,1208.191588,0.000000,56.001180,1.000000,24-31,-1.000000,""
242,w0,ft.C.8,1156.754333,8,-1.000000,1,COMPLETED_SUCCESSFULLY,1156.754333,56.001182,1212.755515,0.000000,56.001182,1.000000,8-15,-1.000000,""
243,w0,ft.C.32,1160.021346,32,-1.000000,1,COMPLETED_SUCCESSFULLY,1160.021346,22.975943,1182.997289,0.000001,22.975944,1.000000,32-47 72-87,-1.000000,""
244,w0,ft.C.8,1165.310460,8,-1.000000,1,COMPLETED_SUCCESSFULLY,1165.310460,56.001189,1221.311649,0.000000,56.001189,1.000000,48-55,-1.000000,""
245,w0,ft.C.8,1169.576222,8,-1.000000,1,COMPLETED_SUCCESSFULLY,1169.576222,56.001189,1225.577411,0.000000,56.001189,1.000000,64-71,-1.000000,""
246,w0,ft.C.32,1174.013777,32,-1.000000,1,COMPLETED_SUCCESSFULLY,1174.013777,28.111980,1202.125758,0.000000,28.111980,1.000000,88-119,-1.000000,""
247,w0,ft.C.16,1178.697180,16,-1.000000,1,COMPLETED_SUCCESSFULLY,1178.697180,29.985079,1208.682259,0.000000,29.985079,1.000000,120-135,-1.000000,""
248,w0,ft.C.8,1183.777221,8,-1.000000,1,COMPLETED_SUCCESSFULLY,1183.777221,58.679050,1242.456271,0.000000,58.679050,1.000000,32-39,-1.000000,""
249,w0,ft.C.32,1188.632512,32,-1.000000,1,COMPLETED_SUCCESSFULLY,1188.632512,26.303382,1214.935894,0.000000,26.303382,1.000000,16-23 40-47 72-87,-1.000000,""
25,w0,ft.C.8,123.638803,8,-1.000000,1,COMPLETED_SUCCESSFULLY,123.638803,56.001189,179.639993,0.000000,56.001189,1.000000,56-63,-1.000000,""
250,w0,ft.C.8,1192.429299,8,-1.000000,1,COMPLETED_SUCCESSFULLY,1198.516966,56.001169,1254.518136,6.087668,62.088837,1.108706,0-7,-1.000000,""
251,w0,ft.C.8,1196.640845,8,-1.000000,1,COMPLETED_SUCCESSFULLY,1202.125809,56.001180,1258.126989,5.484964,61.486144,1.097944,88-95,-1.000000,""
252,w0,ft.C.32,1201.758566,32,-1.000000,1,COMPLETED_SUCCESSFULLY,1208.682310,18.004296,1226.686606,6.923744,24.928040,1.384561,96-127,-1.000000,""
253,w0,ft.C.8,1206.596983,8,-1.000000,1,COMPLETED_SUCCESSFULLY,1208.682310,56.001189,1264.683499,2.085327,58.086517,1.037237,24-31,-1.000000,""
254,w0,ft.C.8,1211.652651,8,-1.000000,1,COMPLETED_SUCCESSFULLY,1211.652651,56.001182,1267.653834,0.000000,56.001182,1.000000,56-63,-1.000000,""
255,w0,ft.C.8,1217.434939,8,-1.000000,1,COMPLETED_SUCCESSFULLY,1217.434939,56.001180,1273.436119,0.000000,56.001180,1.000000,8-15,-1.000000,""
256,w0,ft.C.8,1222.629635,8,-1.000000,1,COMPLETED_SUCCESSFULLY,1222.629635,56.001185,1278.630820,0.000000,56.001185,1.000000,16-23,-1.000000,""
257,w0,ft.C.8,1227.376807,8,-1.000000,1,COMPLETED_SUCCESSFULLY,1227.376807,56.001189,1283.377996,0.000000,56.001190,1.000000,40-47,-1.000000,""
258,w0,ft.C.32,1232.446297,32,-1.000000,1,COMPLETED_SUCCESSFULLY,1232.446297,23.991305,1256.437602,0.000000,23.991305,1.000000,48-55 64-87,-1.000000,""
259,w0,ft.C.16,1236.511703,16,-1.000000,1,COMPLETED_SUCCESSFULLY,1236.511703,44.372200,1280.883903,0.000000,44.372200,1.000000,96-111,-1.000000,""
26,w0,ft.C.8,128.765773,8,-1.000000,1,COMPLETED_SUCCESSFULLY,128.765773,56.001189,184.766962,0.000000,56.001190,1.000000,24-31,-1.000000,""
260,w0,ft.C.32,1241.645186,32,-1.000000,1,COMPLETED_SUCCESSFULLY,1258.127040,21.949540,1280.076580,16.481854,38.431394,1.750897,64-95,-1.000000,""
261,w0,ft.C.16,1246.928009,16,-1.000000,1,COMPLETED_SUCCESSFULLY,1258.127040,29.985035,1288.112075,11.199031,41.184067,1.373487,112-127,-1.000000,""
262,w0,ft.C.8,1251.904681,8,-1.000000,1,COMPLETED_SUCCESSFULLY,1258.127040,56.001176,1314.128216,6.222359,62.223535,1.111111,0-7,-1.000000,""
263,w0,ft.C.8,1256.308120,8,-1.000000,1,COMPLETED_SUCCESSFULLY,1258.127040,60.437808,1318.564848,1.818920,62.256728,1.030096,32-39,-1.000000,""
264,w0,ft.C.8,1260.446803,8,-1.000000,1,COMPLETED_SUCCESSFULLY,1260.446803,56.001176,1316.447979,0.000000,56.001177,1.000000,48-55,-1.000000,""
265,w0,ft.C.16,1264.833787,16,-1.000000,1,COMPLETED_SUCCESSFULLY,1264.833787,32.168561,1297.002348,0.000000,32.168561,1.000000,24-31 128-135,-1.000000,""
266,w0,ft.C.8,1268.625465,8,-1.000000,1,COMPLETED_SUCCESSFULLY,1268.625465,56.001189,1324.626654,0.000000,56.001190,1.000000,56-63,-1.000000,""
267,w0,ft.C.32,1273.713947,32,-1.000000,1,COMPLETED_SUCCESSFULLY,1280.076631,18.312165,1298.388796,6.362685,24.674849,1.347457,64-95,-1.000000,""
268,w0,ft.C.16,1279.185365,16,-1.000000,1,COMPLETED_SUCCESSFULLY,1280.076631,29.985085,1310.061716,0.891266,30.876351,1.029724,8-23,-1.000000,""
269,w0,ft.C.8,1283.609809,8,-1.000000,1,COMPLETED_SUCCESSFULLY,1283.609809,56.001188,1339.610997,0.000000,56.001188,1.000000,40-47,-1.000000,""
27,w0,ft.C.8,133.539465,8,-1.000000,1,COMPLETED_SUCCESSFULLY,133.539465,75.796592,209.336057,0.000000,75.796592,1.000000,96-103,-1.000000,""
270,w0,ft.C.8,1287.336518,8,-1.000000,1,COMPLETED_SUCCESSFULLY,1287.336518,74.859884,1362.196402,0.000000,74.859885,1.000000,96-103,-1.000000,""
271,w0,ft.C.32,1292.127731,32,-1.000000,1,COMPLETED_SUCCESSFULLY,1297.002396,15.516287,1312.518683,4.874665,20.390952,1.314164,104-135,-1.000000,""
272,w0,ft.C.16,1296.459149,16,-1.000000,1,COMPLETED_SUCCESSFULLY,1298.388847,47.817668,1346.206515,1.929698,49.747365,1.040355,64-79,-1.000000,""
273,w0,ft.C.16,1301.350729,16,-1.000000,1,COMPLETED_SUCCESSFULLY,1301.350729,47.932394,1349.283123,0.000000,47.932395,1.000000,24-31 80-87,-1.000000,""
274,w0,ft.C.16,1305.876022,16,-1.000000,1,COMPLETED_SUCCESSFULLY,1310.061764,29.985070,1340.046834,4.185742,34.170813,1.139594,8-23,-1.000000,""
275,w0,ft.C.16,1310.052527,16,-1.000000,1,COMPLETED_SUCCESSFULLY,1312.518734,29.985071,1342.503805,2.466207,32.451278,1.082248,104-119,-1.000000,""
276,w0,ft.C.32,1314.481658,32,-1.000000,1,COMPLETED_SUCCESSFULLY,1314.481658,30.215317,1344.696975,0.000000,30.215317,1.000000,0-7 88-95 120-135,-1.000000,""
277,w0,ft.C.8,1319.622284,8,-1.000000,1,COMPLETED_SUCCESSFULLY,1319.622284,58.881082,1378.503366,0.000000,58.881082,1.000000,32-39,-1.000000,""
278,w0,ft.C.8,1324.475430,8,-1.000000,1,COMPLETED_SUCCESSFULLY,1324.475430,56.001189,1380.476619,0.000000,56.001189,1.000000,48-55,-1.000000,""
279,w0,ft.C.8,1327.603459,8,-1.000000,1,COMPLETED_SUCCESSFULLY,1327.603459,56.001189,1383.604648,0.000000,56.001189,1.000000,56-63,-1.000000,""
28,w0,ft.C.32,137.328922,32,-1.000000,1,COMPLETED_SUCCESSFULLY,137.328922,25.246712,162.575634,0.000000,25.246712,1.000000,0-15 104-119,-1.000000,""
280,w0,ft.C.8,1332.640550,8,-1.000000,1,COMPLETED_SUCCESSFULLY,1339.611048,56.001189,1395.612237,6.970498,62.971687,1.124471,40-47,-1.000000,""
281,w0,ft.C.8,1337.509854,8,-1.000000,1,COMPLETED_SUCCESSFULLY,1340.046882,56.001182,1396.048065,2.537029,58.538211,1.045303,8-15,-1.000000,""
282,w0,ft.C.16,1341.530998,16,-1.000000,1,COMPLETED_SUCCESSFULLY,1342.503856,29.985093,1372.488949,0.972858,30.957951,1.032445,104-119,-1.000000,""
283,w0,ft.C.16,1345.426097,16,-1.000000,1,COMPLETED_SUCCESSFULLY,1345.426097,29.985086,1375.411183,0.000000,29.985086,1.000000,0-7 16-23,-1.000000,""
284,w0,ft.C.8,1350.069198,8,-1.000000,1,COMPLETED_SUCCESSFULLY,1350.069198,56.001184,1406.070383,0.000000,56.001184,1.000000,24-31,-1.000000,""
285,w0,ft.C.8,1355.166896,8,-1.000000,1,COMPLETED_SUCCESSFULLY,1355.166896,56.001189,1411.168085,0.000000,56.001189,1.000000,64-71,-1.000000,""
286,w0,ft.C.8,1360.589690,8,-1.000000,1,COMPLETED_SUCCESSFULLY,1360.589690,64.552276,1425.141966,0.000000,64.552276,1.000000,72-79,-1.000000,""
287,w0,ft.C.16,1365.045923,16,-1.000000,1,COMPLETED_SUCCESSFULLY,1365.045923,29.985090,1395.031013,0.000000,29.985090,1.000000,80-95,-1.000000,""
288,w0,ft.C.8,1368.347992,8,-1.000000,1,COMPLETED_SUCCESSFULLY,1368.347992,60.887316,1429.235308,0.000000,60.887316,1.000000,96-103,-1.000000,""
289,w0,ft.C.32,1373.259411,32,-1.000000,1,COMPLETED_SUCCESSFULLY,1373.259411,15.516289,1388.775700,0.000000,15.516289,1.000000,104-135,-1.000000,""
29,w0,ft.C.8,141.799425,8,-1.000000,1,COMPLETED_SUCCESSFULLY,141.799425,56.001189,197.800614,0.000000,56.001189,1.000000,120-127,-1.000000,""
290,w0,ft.C.8,1378.487784,8,-1.000000,1,COMPLETED_SUCCESSFULLY,1378.487784,56.001189,1434.488973,0.000000,56.001190,1.000000,0-7,-1.000000,""
291,w0,ft.C.8,1382.230247,8,-1.000000,1,COMPLETED_SUCCESSFULLY,1382.230247,56.001181,1438.231428,0.000000,56.001182,1.000000,16-23,-1.000000,""
292,w0,ft.C.32,1385.752237,32,-1.000000,1,COMPLETED_SUCCESSFULLY,1388.775751,15.516296,1404.292047,3.023514,18.539809,1.194861,104-135,-1.000000,""
293,w0,ft.C.8,1390.475075,8,-1.000000,1,COMPLETED_SUCCESSFULLY,1390.475075,62.406127,1452.881202,0.000000,62.406127,1.000000,32-39,-1.000000,""
294,w0,ft.C.16,1395.674688,16,-1.000000,1,COMPLETED_SUCCESSFULLY,1395.674688,29.985068,1425.659756,0.000000,29.985068,1.000000,40-55,-1.000000,""
295,w0,ft.C.32,1399.676431,32,-1.000000,1,COMPLETED_SUCCESSFULLY,1399.676431,24.029747,1423.706178,0.000000,24.029747,1.000000,8-15 56-63 80-95,-1.000000,""
296,w0,ft.C.8,1403.155630,8,-1.000000,1,COMPLETED_SUCCESSFULLY,1404.292098,56.001189,1460.293287,1.136468,57.137658,1.020294,104-111,-1.000000,""
297,w0,ft.C.8,1406.379466,8,-1.000000,1,COMPLETED_SUCCESSFULLY,1406.379466,56.001182,1462.380649,0.000000,56.001182,1.000000,24-31,-1.000000,""
298,w0,ft.C.16,1411.298018,16,-1.000000,1,COMPLETED_SUCCESSFULLY,1411.298018,35.605479,1446.903497,0.000000,35.605479,1.000000,64-71 112-119,-1.000000,""
299,w0,ft.C.8,1415.763602,8,-1.000000,1,COMPLETED_SUCCESSFULLY,1415.763602,56.001183,1471.764786,0.000000,56.001183,1.000000,120-127,-1.000000,""
3,w0,ft.C.16,17.481270,16,-1.000000,1,COMPLETED_SUCCESSFULLY,17.481270,35.934445,53.415715,0.000000,35.934445,1.000000,32-47,-1.000000,""
30,w0,ft.C.8,147.462451,8,-1.000000,1,COMPLETED_SUCCESSFULLY,147.462451,56.001189,203.463641,0.000000,56.001189,1.000000,64-71,-1.000000,""
300,w0,ft.C.16,1420.524203,16,-1.000000,1,COMPLETED_SUCCESSFULLY,1423.706226,29.985093,1453.691319,3.182023,33.167116,1.106120,80-95,-1.000000,""
301,w0,ft.C.8,1425.314874,8,-1.000000,1,COMPLETED_SUCCESSFULLY,1425.314874,56.001189,1481.316063,0.000000,56.001189,1.000000,8-15,-1.000000,""
302,w0,ft.C.16,1430.585960,16,-1.000000,1,COMPLETED_SUCCESSFULLY,1430.585960,29.985093,1460.571053,0.000000,29.985094,1.000000,40-55,-1.000000,""
303,w0,ft.C.8,1435.654034,8,-1.000000,1,COMPLETED_SUCCESSFULLY,1435.654034,56.001181,1491.655216,0.000000,56.001181,1.000000,0-7,-1.000000,""
304,w0,ft.C.8,1440.929319,8,-1.000000,1,COMPLETED_SUCCESSFULLY,1440.929319,56.001189,1496.930509,0.000000,56.001189,1.000000,16-23,-1.000000,""
305,w0,ft.C.16,1445.064944,16,-1.000000,1,COMPLETED_SUCCESSFULLY,1445.064944,35.915801,1480.980745,0.000000,35.915801,1.000000,56-63 72-79,-1.000000,""
306,w0,ft.C.8,1449.945041,8,-1.000000,1,COMPLETED_SUCCESSFULLY,1449.945041,56.001189,1505.946230,0.000000,56.001189,1.000000,64-71,-1.000000,""
307,w0,ft.C.16,1453.975462,16,-1.000000,1,COMPLETED_SUCCESSFULLY,1453.975462,35.711425,1489.686887,0.000000,35.711425,1.000000,32-39 80-87,-1.000000,""
308,w0,ft.C.8,1459.627286,8,-1.000000,1,COMPLETED_SUCCESSFULLY,1459.627286,56.001186,1515.628473,0.000000,56.001186,1.000000,88-95,-1.000000,""
309,w0,ft.C.8,1464.370462,8,-1.000000,1,COMPLETED_SUCCESSFULLY,1464.370462,56.001189,1520.371652,0.000000,56.001189,1.000000,24-31,-1.000000,""
31,w0,ft.C.16,152.551332,16,-1.000000,1,COMPLETED_SUCCESSFULLY,152.551332,48.503761,201.055093,0.000000,48.503761,1.000000,72-79 128-135,-1.000000,""
310,w0,ft.C.8,1470.359155,8,-1.000000,1,COMPLETED_SUCCESSFULLY,1470.359155,56.001177,1526.360332,0.000000,56.001177,1.000000,40-47,-1.000000,""
311,w0,ft.C.8,1474.415112,8,-1.000000,1,COMPLETED_SUCCESSFULLY,1474.415112,56.001189,1530.416301,0.000000,56.001190,1.000000,48-55,-1.000000,""
312,w0,ft.C.8,1478.958814,8,-1.000000,1,COMPLETED_SUCCESSFULLY,1478.958814,68.460089,1547.418904,0.000000,68.460089,1.000000,96-103,-1.000000,""
313,w0,ft.C.16,1484.472322,16,-1.000000,1,COMPLETED_SUCCESSFULLY,1484.472322,39.848206,1524.320529,0.000000,39.848206,1.000000,8-15 56-63,-1.000000,""
314,w0,ft.C.16,1489.036766,16,-1.000000,1,COMPLETED_SUCCESSFULLY,1489.036766,43.690794,1532.727560,0.000000,43.690795,1.000000,72-79 104-111,-1.000000,""
315,w0,ft.C.32,1494.048140,32,-1.000000,1,COMPLETED_SUCCESSFULLY,1494.048140,29.644753,1523.692893,0.000000,29.644753,1.000000,0-7 32-39 80-87 112-119,-1.000000,""
316,w0,ft.C.8,1498.796811,8,-1.000000,1,COMPLETED_SUCCESSFULLY,1498.796811,56.001189,1554.798000,0.000000,56.001189,1.000000,16-23,-1.000000,""
317,w0,ft.C.8,1503.114172,8,-1.000000,1,COMPLETED_SUCCESSFULLY,1503.114172,56.001189,1559.115361,0.000000,56.001189,1.000000,120-127,-1.000000,""
318,w0,ft.C.16,1507.410645,16,-1.000000,1,COMPLETED_SUCCESSFULLY,1507.410645,45.641129,1553.051774,0.000000,45.641129,1.000000,64-71 128-135,-1.000000,""
319,w0,ft.C.8,1511.473225,8,-1.000000,1,COMPLETED_SUCCESSFULLY,1515.628524,56.001189,1571.629713,4.155299,60.156488,1.074200,88-95,-1.000000,""
32,w0,ft.C.16,157.055578,16,-1.000000,1,COMPLETED_SUCCESSFULLY,157.055578,34.435930,191.491508,0.000000,34.435930,1.000000,32-47,-1.000000,""
320,w0,ft.C.16,1516.424872,16,-1.000000,1,COMPLETED_SUCCESSFULLY,1523.692941,37.942199,1561.635141,7.268069,45.210269,1.191556,24-39,-1.000000,""
321,w0,ft.C.8,1521.429469,8,-1.000000,1,COMPLETED_SUCCESSFULLY,1523.692941,56.001163,1579.694105,2.263472,58.264635,1.040418,0-7,-1.000000,""
322,w0,ft.C.16,1526.324900,16,-1.000000,1,COMPLETED_SUCCESSFULLY,1526.324900,37.793598,1564.118498,0.000000,37.793599,1.000000,8-15 56-63,-1.000000,""
323,w0,ft.C.8,1531.640731,8,-1.000000,1,COMPLETED_SUCCESSFULLY,1531.640731,56.001189,1587.641920,0.000000,56.001189,1.000000,40-47,-1.000000,""
324,w0,ft.C.8,1536.712960,8,-1.000000,1,COMPLETED_SUCCESSFULLY,1536.712960,56.001189,1592.714150,0.000000,56.001189,1.000000,48-55,-1.000000,""
325,w0,ft.C.8,1541.949975,8,-1.000000,1,COMPLETED_SUCCESSFULLY,1541.949975,59.782101,1601.732076,0.000000,59.782101,1.000000,72-79,-1.000000,""
326,w0,ft.C.32,1546.838354,32,-1.000000,1,COMPLETED_SUCCESSFULLY,1559.115412,15.516346,1574.631758,12.277059,27.793404,1.791234,96-127,-1.000000,""
327,w0,ft.C.16,1551.587253,16,-1.000000,1,COMPLETED_SUCCESSFULLY,1561.635189,29.985092,1591.620281,10.047936,40.033029,1.335098,16-31,-1.000000,""
328,w0,ft.C.16,1556.939012,16,-1.000000,1,COMPLETED_SUCCESSFULLY,1564.118546,29.985071,1594.103618,7.179534,37.164605,1.239437,56-71,-1.000000,""
329,w0,ft.C.8,1562.158416,8,-1.000000,1,COMPLETED_SUCCESSFULLY,1564.118546,56.001163,1620.119710,1.960130,57.961294,1.035002,8-15,-1.000000,""
33,w0,ft.C.8,160.771810,8,-1.000000,1,COMPLETED_SUCCESSFULLY,162.575682,56.001189,218.576871,1.803872,57.805062,1.032211,0-7,-1.000000,""
330,w0,ft.C.8,1566.710322,8,-1.000000,1,COMPLETED_SUCCESSFULLY,1566.710322,56.761769,1623.472091,0.000000,56.761769,1.000000,32-39,-1.000000,""
331,w0,ft.C.8,1572.299228,8,-1.000000,1,COMPLETED_SUCCESSFULLY,1572.299228,56.001181,1628.300409,0.000000,56.001181,1.000000,80-87,-1.000000,""
332,w0,ft.C.8,1576.423222,8,-1.000000,1,COMPLETED_SUCCESSFULLY,1576.423222,56.001189,1632.424411,0.000000,56.001190,1.000000,88-95,-1.000000,""
333,w0,ft.C.16,1582.283388,16,-1.000000,1,COMPLETED_SUCCESSFULLY,1582.283388,30.672746,1612.956134,0.000000,30.672746,1.000000,0-7 96-103,-1.000000,""
334,w0,ft.C.16,1586.697021,16,-1.000000,1,COMPLETED_SUCCESSFULLY,1586.697021,29.985093,1616.682115,0.000000,29.985093,1.000000,104-119,-1.000000,""
335,w0,ft.C.32,1590.842157,32,-1.000000,1,COMPLETED_SUCCESSFULLY,1594.103669,15.516278,1609.619947,3.261512,18.777790,1.210199,40-71,-1.000000,""
336,w0,ft.C.16,1595.594317,16,-1.000000,1,COMPLETED_SUCCESSFULLY,1595.594317,29.985089,1625.579406,0.000000,29.985089,1.000000,16-31,-1.000000,""
337,w0,ft.C.16,1600.925157,16,-1.000000,1,COMPLETED_SUCCESSFULLY,1600.925157,29.985093,1630.910251,0.000000,29.985093,1.000000,120-135,-1.000000,""
338,w0,ft.C.16,1606.210550,16,-1.000000,1,COMPLETED_SUCCESSFULLY,1609.619998,29.985093,1639.605091,3.409448,33.394541,1.113705,40-55,-1.000000,""
339,w0,ft.C.8,1610.786407,8,-1.000000,1,COMPLETED_SUCCESSFULLY,1610.786407,56.001189,1666.787596,0.000000,56.001190,1.000000,56-63,-1.000000,""
34,w0,ft.C.8,166.104972,8,-1.000000,1,COMPLETED_SUCCESSFULLY,166.104972,56.001180,222.106152,0.000000,56.001180,1.000000,8-15,-1.000000,""
340,w0,ft.C.8,1616.011283,8,-1.000000,1,COMPLETED_SUCCESSFULLY,1616.011283,56.001189,1672.012472,0.000000,56.001189,1.000000,0-7,-1.000000,""
341,w0,ft.C.16,1620.680858,16,-1.000000,1,COMPLETED_SUCCESSFULLY,1620.680858,35.737911,1656.418769,0.000000,35.737911,1.000000,8-15 64-71,-1.000000,""
342,w0,ft.C.8,1625.527816,8,-1.000000,1,COMPLETED_SUCCESSFULLY,1625.527816,61.685338,1687.213154,0.000000,61.685338,1.000000,32-39,-1.000000,""
343,w0,ft.C.8,1630.799944,8,-1.000000,1,COMPLETED_SUCCESSFULLY,1630.799944,56.001189,1686.801133,0.000000,56.001190,1.000000,16-23,-1.000000,""
344,w0,ft.C.16,1635.812813,16,-1.000000,1,COMPLETED_SUCCESSFULLY,1635.812813,38.941315,1674.754128,0.000000,38.941315,1.000000,24-31 72-79,-1.000000,""
345,w0,ft.C.8,1640.783253,8,-1.000000,1,COMPLETED_SUCCESSFULLY,1640.783253,56.001189,1696.784442,0.000000,56.001190,1.000000,40-47,-1.000000,""
346,w0,ft.C.8,1644.921545,8,-1.000000,1,COMPLETED_SUCCESSFULLY,1644.921545,56.001189,1700.922734,0.000000,56.001190,1.000000,48-55,-1.000000,""
347,w0,ft.C.16,1649.332079,16,-1.000000,1,COMPLETED_SUCCESSFULLY,1649.332079,29.985093,1679.317172,0.000000,29.985093,1.000000,80-95,-1.000000,""
348,w0,ft.C.16,1654.542251,16,-1.000000,1,COMPLETED_SUCCESSFULLY,1654.542251,37.315705,1691.857956,0.000000,37.315705,1.000000,96-111,-1.000000,""
349,w0,ft.C.8,1659.705055,8,-1.000000,1,COMPLETED_SUCCESSFULLY,1659.705055,56.001189,1715.706244,0.000000,56.001189,1.000000,8-15,-1.000000,""
35,w0,ft.C.32,171.032943,32,-1.000000,1,COMPLETED_SUCCESSFULLY,171.032943,30.320707,201.353650,0.000000,30.320708,1.000000,16-23 80-95 104-111,-1.000000,""
350,w0,ft.C.8,1664.713165,8,-1.000000,1,COMPLETED_SUCCESSFULLY,1664.713165,56.001177,1720.714342,0.000000,56.001178,1.000000,64-71,-1.000000,""
351,w0,ft.C.16,1669.898325,16,-1.000000,1,COMPLETED_SUCCESSFULLY,1669.898325,39.466514,1709.364839,0.000000,39.466514,1.000000,56-63 112-119,-1.000000,""
352,w0,ft.C.8,1674.608945,8,-1.000000,1,COMPLETED_SUCCESSFULLY,1674.608945,56.001189,1730.610134,0.000000,56.001189,1.000000,0-7,-1.000000,""
353,w0,ft.C.8,1679.136868,8,-1.000000,1,COMPLETED_SUCCESSFULLY,1679.136868,56.001189,1735.138058,0.000000,56.001189,1.000000,24-31,-1.000000,""
354,w0,ft.C.8,1684.007064,8,-1.000000,1,COMPLETED_SUCCESSFULLY,1684.007064,85.733241,1769.740305,0.000000,85.733241,1.000000,72-79,-1.000000,""
355,w0,ft.C.8,1688.075419,8,-1.000000,1,COMPLETED_SUCCESSFULLY,1688.075419,56.001183,1744.076602,0.000000,56.001183,1.000000,16-23,-1.000000,""
356,w0,ft.C.32,1692.890486,32,-1.000000,1,COMPLETED_SUCCESSFULLY,1692.890486,23.042921,1715.933407,0.000000,23.042921,1.000000,32-39 80-103,-1.000000,""
357,w0,ft.C.16,1696.985363,16,-1.000000,1,COMPLETED_SUCCESSFULLY,1696.985363,57.610704,1754.596067,0.000000,57.610704,1.000000,40-47 104-111,-1.000000,""
358,w0,ft.C.16,1702.183840,16,-1.000000,1,COMPLETED_SUCCESSFULLY,1702.183840,57.545024,1759.728864,0.000000,57.545024,1.000000,48-55 120-127,-1.000000,""
359,w0,ft.C.16,1706.998537,16,-1.000000,1,COMPLETED_SUCCESSFULLY,1715.933455,29.985070,1745.918526,8.934918,38.919988,1.297979,80-95,-1.000000,""
36,w0,ft.C.16,176.560944,16,-1.000000,1,COMPLETED_SUCCESSFULLY,176.560944,46.541980,223.102924,0.000000,46.541981,1.000000,48-55 112-119,-1.000000,""
360,w0,ft.C.8,1711.623325,8,-1.000000,1,COMPLETED_SUCCESSFULLY,1715.933455,56.001163,1771.934618,4.310130,60.311293,1.076965,8-15,-1.000000,""
361,w0,ft.C.8,1716.775681,8,-1.000000,1,COMPLETED_SUCCESSFULLY,1716.775681,78.314910,1795.090592,0.000000,78.314910,1.000000,32-39,-1.000000,""
362,w0,ft.C.32,1721.324394,32,-1.000000,1,COMPLETED_SUCCESSFULLY,1721.324394,36.152870,1757.477264,0.000000,36.152870,1.000000,56-71 96-103 112-119,-1.000000,""
363,w0,ft.C.16,1726.919869,16,-1.000000,1,COMPLETED_SUCCESSFULLY,1744.076650,29.985071,1774.061721,17.156781,47.141852,1.572177,16-31,-1.000000,""
364,w0,ft.C.8,1731.689146,8,-1.000000,1,COMPLETED_SUCCESSFULLY,1744.076650,56.001184,1800.077834,12.387504,68.388688,1.221201,0-7,-1.000000,""
365,w0,ft.C.8,1736.829322,8,-1.000000,1,COMPLETED_SUCCESSFULLY,1744.076650,56.001184,1800.077834,7.247328,63.248512,1.129414,128-135,-1.000000,""
366,w0,ft.C.8,1739.846331,8,-1.000000,1,COMPLETED_SUCCESSFULLY,1745.918577,56.001174,1801.919751,6.072246,62.073421,1.108431,80-87,-1.000000,""
367,w0,ft.C.8,1745.274880,8,-1.000000,1,COMPLETED_SUCCESSFULLY,1745.918577,56.001174,1801.919751,0.643697,56.644871,1.011494,88-95,-1.000000,""
368,w0,ft.C.8,1750.036336,8,-1.000000,1,COMPLETED_SUCCESSFULLY,1754.596118,56.001176,1810.597294,4.559782,60.560958,1.081423,40-47,-1.000000,""
369,w0,ft.C.32,1755.043266,32,-1.000000,1,COMPLETED_SUCCESSFULLY,1759.728915,15.516350,1775.245266,4.685649,20.202000,1.301981,96-127,-1.000000,""
37,w0,ft.C.8,182.071787,8,-1.000000,1,COMPLETED_SUCCESSFULLY,182.071787,56.001189,238.072976,0.000000,56.001189,1.000000,56-63,-1.000000,""
370,w0,ft.C.8,1759.912825,8,-1.000000,1,COMPLETED_SUCCESSFULLY,1759.912825,56.001189,1815.914014,0.000000,56.001189,1.000000,48-55,-1.000000,""
371,w0,ft.C.8,1764.077017,8,-1.000000,1,COMPLETED_SUCCESSFULLY,1764.077017,56.001180,1820.078197,0.000000,56.001180,1.000000,56-63,-1.000000,""
372,w0,ft.C.32,1768.046735,32,-1.000000,1,COMPLETED_SUCCESSFULLY,1775.245317,15.516253,1790.761570,7.198582,22.714836,1.463938,96-127,-1.000000,""
373,w0,ft.C.16,1773.330097,16,-1.000000,1,COMPLETED_SUCCESSFULLY,1775.245317,29.985086,1805.230403,1.915220,31.900306,1.063872,8-23,-1.000000,""
374,w0,ft.C.16,1778.808592,16,-1.000000,1,COMPLETED_SUCCESSFULLY,1778.808592,30.374646,1809.183238,0.000000,30.374646,1.000000,24-31 64-71,-1.000000,""
375,w0,ft.C.16,1782.888034,16,-1.000000,1,COMPLETED_SUCCESSFULLY,1790.761621,30.712159,1821.473780,7.873587,38.585746,1.256367,96-111,-1.000000,""
376,w0,ft.C.32,1787.702702,32,-1.000000,1,COMPLETED_SUCCESSFULLY,1809.183286,15.516283,1824.699570,21.480584,36.996868,2.384390,0-31,-1.000000,""
377,w0,ft.C.16,1792.396028,16,-1.000000,1,COMPLETED_SUCCESSFULLY,1809.183286,36.335240,1845.518526,16.787259,53.122498,1.462010,64-79,-1.000000,""
378,w0,ft.C.8,1797.044997,8,-1.000000,1,COMPLETED_SUCCESSFULLY,1809.183286,62.444954,1871.628240,12.138289,74.583243,1.194384,32-39,-1.000000,""
379,w0,ft.C.16,1802.862610,16,-1.000000,1,COMPLETED_SUCCESSFULLY,1809.183286,29.984767,1839.168053,6.320676,36.305443,1.210796,80-95,-1.000000,""
38,w0,ft.C.8,185.936335,8,-1.000000,1,COMPLETED_SUCCESSFULLY,185.936335,56.001183,241.937518,0.000000,56.001183,1.000000,24-31,-1.000000,""
380,w0,ft.C.16,1807.448935,16,-1.000000,1,COMPLETED_SUCCESSFULLY,1809.183286,29.985068,1839.168354,1.734351,31.719419,1.057840,112-127,-1.000000,""
381,w0,ft.C.8,1811.701845,8,-1.000000,1,COMPLETED_SUCCESSFULLY,1811.701845,56.001189,1867.703034,0.000000,56.001189,1.000000,40-47,-1.000000,""
382,w0,ft.C.8,1817.392811,8,-1.000000,1,COMPLETED_SUCCESSFULLY,1817.392811,56.001182,1873.393993,0.000000,56.001182,1.000000,48-55,-1.000000,""
383,w0,ft.C.16,1822.646694,16,-1.000000,1,COMPLETED_SUCCESSFULLY,1822.646694,36.880950,1859.527644,0.000000,36.880950,1.000000,56-63 96-103,-1.000000,""
384,w0,ft.C.8,1827.524718,8,-1.000000,1,COMPLETED_SUCCESSFULLY,1827.524718,56.001182,1883.525900,0.000000,56.001182,1.000000,0-7,-1.000000,""
385,w0,ft.C.16,1833.006829,16,-1.000000,1,COMPLETED_SUCCESSFULLY,1833.006829,29.985093,1862.991922,0.000000,29.985094,1.000000,8-23,-1.000000,""
386,w0,ft.C.16,1837.169154,16,-1.000000,1,COMPLETED_SUCCESSFULLY,1837.169154,33.696188,1870.865342,0.000000,33.696188,1.000000,24-31 104-111,-1.000000,""
387,w0,ft.C.8,1842.493244,8,-1.000000,1,COMPLETED_SUCCESSFULLY,1842.493244,56.001183,1898.494427,0.000000,56.001183,1.000000,80-87,-1.000000,""
388,w0,ft.C.8,1846.850537,8,-1.000000,1,COMPLETED_SUCCESSFULLY,1846.850537,56.001181,1902.851719,0.000000,56.001181,1.000000,64-71,-1.000000,""
389,w0,ft.C.8,1851.992947,8,-1.000000,1,COMPLETED_SUCCESSFULLY,1851.992947,76.083785,1928.076732,0.000000,76.083785,1.000000,72-79,-1.000000,""
39,w0,ft.C.32,190.668459,32,-1.000000,1,COMPLETED_SUCCESSFULLY,203.463692,21.957340,225.421032,12.795233,34.752573,1.582731,64-95,-1.000000,""
390,w0,ft.C.16,1856.251755,16,-1.000000,1,COMPLETED_SUCCESSFULLY,1856.251755,38.087897,1894.339652,0.000000,38.087897,1.000000,88-95 112-119,-1.000000,""
391,w0,ft.C.16,1861.785968,16,-1.000000,1,COMPLETED_SUCCESSFULLY,1861.785968,45.482761,1907.268729,0.000000,45.482761,1.000000,56-63 96-103,-1.000000,""
392,w0,ft.C.8,1866.870051,8,-1.000000,1,COMPLETED_SUCCESSFULLY,1866.870051,56.001189,1922.871241,0.000000,56.001189,1.000000,8-15,-1.000000,""
393,w0,ft.C.8,1872.010404,8,-1.000000,1,COMPLETED_SUCCESSFULLY,1872.010404,56.001186,1928.011590,0.000000,56.001187,1.000000,16-23,-1.000000,""
394,w0,ft.C.8,1876.008817,8,-1.000000,1,COMPLETED_SUCCESSFULLY,1876.008817,56.001189,1932.010006,0.000000,56.001189,1.000000,24-31,-1.000000,""
395,w0,ft.C.16,1880.759961,16,-1.000000,1,COMPLETED_SUCCESSFULLY,1880.759961,43.659920,1924.419881,0.000000,43.659920,1.000000,32-47,-1.000000,""
396,w0,ft.C.16,1885.644692,16,-1.000000,1,COMPLETED_SUCCESSFULLY,1885.644692,42.967876,1928.612568,0.000000,42.967877,1.000000,0-7 48-55,-1.000000,""
397,w0,ft.C.8,1890.744737,8,-1.000000,1,COMPLETED_SUCCESSFULLY,1890.744737,56.001186,1946.745923,0.000000,56.001186,1.000000,104-111,-1.000000,""
398,w0,ft.C.8,1894.742439,8,-1.000000,1,COMPLETED_SUCCESSFULLY,1894.742440,56.001181,1950.743621,0.000001,56.001182,1.000000,88-95,-1.000000,""
399,w0,ft.C.32,1899.781334,32,-1.000000,1,COMPLETED_SUCCESSFULLY,1899.781334,18.090297,1917.871631,0.000000,18.090297,1.000000,80-87 112-135,-1.000000,""
4,w0,ft.C.8,21.459685,8,-1.000000,1,COMPLETED_SUCCESSFULLY,21.459685,56.001180,77.460866,0.000000,56.001181,1.000000,48-55,-1.000000,""
40,w0,ft.C.8,195.717355,8,-1.000000,1,COMPLETED_SUCCESSFULLY,203.463692,56.001183,259.464875,7.746337,63.747520,1.138325,16-23,-1.000000,""
400,w0,ft.C.8,1904.497921,8,-1.000000,1,COMPLETED_SUCCESSFULLY,1904.497921,56.001189,1960.499110,0.000000,56.001190,1.000000,64-71,-1.000000,""
401,w0,ft.C.8,1908.818032,8,-1.000000,1,COMPLETED_SUCCESSFULLY,1908.818032,56.001189,1964.819222,0.000000,56.001189,1.000000,56-63,-1.000000,""
402,w0,ft.C.8,1913.597295,8,-1.000000,1,COMPLETED_SUCCESSFULLY,1913.597295,56.462425,1970.059720,0.000000,56.462425,1.000000,96-103,-1.000000,""
403,w0,ft.C.16,1917.863312,16,-1.000000,1,COMPLETED_SUCCESSFULLY,1917.871682,29.985075,1947.856757,0.008370,29.993445,1.000279,112-127,-1.000000,""
404,w0,ft.C.32,1921.535352,32,-1.000000,1,COMPLETED_SUCCESSFULLY,1932.010054,15.516280,1947.526334,10.474703,25.990982,1.675078,0-31,-1.000000,""
405,w0,ft.C.8,1926.443451,8,-1.000000,1,COMPLETED_SUCCESSFULLY,1932.010054,56.799113,1988.809167,5.566604,62.365716,1.098005,32-39,-1.000000,""
406,w0,ft.C.16,1931.337100,16,-1.000000,1,COMPLETED_SUCCESSFULLY,1932.010054,29.985064,1961.995119,0.672955,30.658019,1.022443,40-55,-1.000000,""
407,w0,ft.C.32,1936.123892,32,-1.000000,1,COMPLETED_SUCCESSFULLY,1947.526382,15.516279,1963.042661,11.402490,26.918769,1.734873,0-31,-1.000000,""
408,w0,ft.C.16,1940.195286,16,-1.000000,1,COMPLETED_SUCCESSFULLY,1947.526382,30.240140,1977.766522,7.331096,37.571236,1.242429,72-87,-1.000000,""
409,w0,ft.C.16,1945.875648,16,-1.000000,1,COMPLETED_SUCCESSFULLY,1947.856808,29.985093,1977.841902,1.981160,31.966254,1.066072,104-119,-1.000000,""
41,w0,ft.C.32,201.258756,32,-1.000000,1,COMPLETED_SUCCESSFULLY,223.102975,23.922518,247.025493,21.844219,45.766737,1.913124,96-127,-1.000000,""
410,w0,ft.C.16,1949.767392,16,-1.000000,1,COMPLETED_SUCCESSFULLY,1949.767392,29.985093,1979.752485,0.000000,29.985093,1.000000,120-135,-1.000000,""
411,w0,ft.C.8,1955.069038,8,-1.000000,1,COMPLETED_SUCCESSFULLY,1955.069038,56.001189,2011.070228,0.000000,56.001189,1.000000,88-95,-1.000000,""
412,w0,ft.C.32,1959.111620,32,-1.000000,1,COMPLETED_SUCCESSFULLY,1963.042709,15.516289,1978.558998,3.931089,19.447378,1.253352,0-31,-1.000000,""
413,w0,ft.C.16,1964.030256,16,-1.000000,1,COMPLETED_SUCCESSFULLY,1964.030256,29.985073,1994.015330,0.000000,29.985073,1.000000,40-55,-1.000000,""
414,w0,ft.C.8,1968.180664,8,-1.000000,1,COMPLETED_SUCCESSFULLY,1968.180664,56.001189,2024.181853,0.000000,56.001189,1.000000,56-63,-1.000000,""
415,w0,ft.C.16,1972.849397,16,-1.000000,1,COMPLETED_SUCCESSFULLY,1972.849397,31.406562,2004.255959,0.000000,31.406562,1.000000,64-71 96-103,-1.000000,""
416,w0,ft.C.16,1977.812611,16,-1.000000,1,COMPLETED_SUCCESSFULLY,1977.812611,31.128538,2008.941149,0.000000,31.128538,1.000000,72-87,-1.000000,""
417,w0,ft.C.32,1982.992873,32,-1.000000,1,COMPLETED_SUCCESSFULLY,1982.992873,15.516296,1998.509169,0.000000,15.516296,1.000000,0-31,-1.000000,""
418,w0,ft.C.8,1988.100105,8,-1.000000,1,COMPLETED_SUCCESSFULLY,1988.100105,56.001189,2044.101294,0.000000,56.001189,1.000000,104-111,-1.000000,""
419,w0,ft.C.8,1992.385980,8,-1.000000,1,COMPLETED_SUCCESSFULLY,1992.385980,56.567766,2048.953746,0.000000,56.567766,1.000000,32-39,-1.000000,""
42,w0,ft.C.8,206.086328,8,-1.000000,1,COMPLETED_SUCCESSFULLY,223.102975,56.001178,279.104154,17.016647,73.017826,1.303862,0-7,-1.000000,""
420,w0,ft.C.8,1997.453306,8,-1.000000,1,COMPLETED_SUCCESSFULLY,1997.453306,56.001189,2053.454495,0.000000,56.001189,1.000000,40-47,-1.000000,""
421,w0,ft.C.8,2001.661975,8,-1.000000,1,COMPLETED_SUCCESSFULLY,2001.661975,56.001189,2057.663164,0.000000,56.001189,1.000000,0-7,-1.000000,""
422,w0,ft.C.8,2005.374454,8,-1.000000,1,COMPLETED_SUCCESSFULLY,2005.374454,56.001189,2061.375643,0.000000,56.001189,1.000000,8-15,-1.000000,""
423,w0,ft.C.16,2010.158184,16,-1.000000,1,COMPLETED_SUCCESSFULLY,2010.158184,29.985084,2040.143269,0.000000,29.985084,1.000000,16-31,-1.000000,""
424,w0,ft.C.16,2015.269933,16,-1.000000,1,COMPLETED_SUCCESSFULLY,2015.269933,29.985093,2045.255026,0.000000,29.985093,1.000000,48-55 64-71,-1.000000,""
425,w0,ft.C.8,2020.603555,8,-1.000000,1,COMPLETED_SUCCESSFULLY,2020.603555,56.001324,2076.604879,0.000001,56.001324,1.000000,72-79,-1.000000,""
426,w0,ft.C.8,2025.665356,8,-1.000000,1,COMPLETED_SUCCESSFULLY,2025.665356,56.001189,2081.666546,0.000000,56.001189,1.000000,56-63,-1.000000,""
427,w0,ft.C.16,2028.725519,16,-1.000000,1,COMPLETED_SUCCESSFULLY,2028.725519,29.985093,2058.710612,0.000000,29.985094,1.000000,80-95,-1.000000,""
428,w0,ft.C.32,2033.232976,32,-1.000000,1,COMPLETED_SUCCESSFULLY,2033.232976,15.516350,2048.749326,0.000000,15.516350,1.000000,96-103 112-135,-1.000000,""
429,w0,ft.C.16,2037.507836,16,-1.000000,1,COMPLETED_SUCCESSFULLY,2040.143317,29.985071,2070.128388,2.635481,32.620551,1.087893,16-31,-1.000000,""
43,w0,ft.C.8,210.969076,8,-1.000000,1,COMPLETED_SUCCESSFULLY,223.102975,56.001178,279.104154,12.133900,68.135078,1.216672,8-15,-1.000000,""
430,w0,ft.C.8,2042.760431,8,-1.000000,1,COMPLETED_SUCCESSFULLY,2044.101345,56.001189,2100.102535,1.340915,57.342104,1.023944,104-111,-1.000000,""
431,w0,ft.C.32,2047.827175,32,-1.000000,1,COMPLETED_SUCCESSFULLY,2070.128436,15.516296,2085.644732,22.301261,37.817557,2.437280,0-31,-1.000000,""
432,w0,ft.C.32,2052.260503,32,-1.000000,1,COMPLETED_SUCCESSFULLY,2076.604930,18.184559,2094.789489,24.344427,42.528986,2.338742,64-95,-1.000000,""
433,w0,ft.C.8,2057.334993,8,-1.000000,1,COMPLETED_SUCCESSFULLY,2076.604930,59.148587,2135.753517,19.269937,78.418523,1.325789,32-39,-1.000000,""
434,w0,ft.C.8,2062.165206,8,-1.000000,1,COMPLETED_SUCCESSFULLY,2076.604930,56.001183,2132.606113,14.439724,70.440907,1.257847,40-47,-1.000000,""
435,w0,ft.C.16,2066.944237,16,-1.000000,1,COMPLETED_SUCCESSFULLY,2076.604930,29.985071,2106.590001,9.660693,39.645764,1.322183,112-127,-1.000000,""
436,w0,ft.C.32,2071.974676,32,-1.000000,1,COMPLETED_SUCCESSFULLY,2085.644780,15.516280,2101.161060,13.670104,29.186384,1.881017,0-31,-1.000000,""
437,w0,ft.C.32,2076.605819,32,-1.000000,1,COMPLETED_SUCCESSFULLY,2094.789540,18.526783,2113.316323,18.183722,36.710505,1.981483,48-79,-1.000000,""
438,w0,ft.C.8,2081.384502,8,-1.000000,1,COMPLETED_SUCCESSFULLY,2094.789540,56.001037,2150.790577,13.405038,69.406075,1.239371,80-87,-1.000000,""
439,w0,ft.C.32,2086.245733,32,-1.000000,1,COMPLETED_SUCCESSFULLY,2101.161108,15.516273,2116.677381,14.915375,30.431648,1.961273,0-31,-1.000000,""
44,w0,ft.C.32,215.688879,32,-1.000000,1,COMPLETED_SUCCESSFULLY,225.421083,25.054007,250.475090,9.732204,34.786211,1.388449,64-95,-1.000000,""
440,w0,ft.C.8,2091.170131,8,-1.000000,1,COMPLETED_SUCCESSFULLY,2101.161108,56.001163,2157.162272,9.990977,65.992141,1.178407,88-95,-1.000000,""
441,w0,ft.C.16,2096.171989,16,-1.000000,1,COMPLETED_SUCCESSFULLY,2101.161108,35.978701,2137.139810,4.989119,40.967820,1.138669,96-111,-1.000000,""
442,w0,ft.C.16,2101.164609,16,-1.000000,1,COMPLETED_SUCCESSFULLY,2106.590052,29.985093,2136.575145,5.425443,35.410536,1.180938,112-127,-1.000000,""
443,w0,ft.C.16,2105.890116,16,-1.000000,1,COMPLETED_SUCCESSFULLY,2113.316374,29.985074,2143.301449,7.426258,37.411333,1.247665,48-63,-1.000000,""
444,w0,ft.C.8,2110.501353,8,-1.000000,1,COMPLETED_SUCCESSFULLY,2113.316375,56.001163,2169.317538,2.815021,58.816185,1.050267,64-71,-1.000000,""
445,w0,ft.C.32,2114.861050,32,-1.000000,1,COMPLETED_SUCCESSFULLY,2116.677429,15.516272,2132.193701,1.816379,17.332651,1.117063,0-31,-1.000000,""
446,w0,ft.C.16,2120.059248,16,-1.000000,1,COMPLETED_SUCCESSFULLY,2120.059248,33.405457,2153.464706,0.000000,33.405457,1.000000,72-79 128-135,-1.000000,""
447,w0,ft.C.16,2125.100029,16,-1.000000,1,COMPLETED_SUCCESSFULLY,2132.193749,29.985080,2162.178829,7.093720,37.078800,1.236575,0-15,-1.000000,""
448,w0,ft.C.8,2129.800524,8,-1.000000,1,COMPLETED_SUCCESSFULLY,2132.193749,56.001154,2188.194903,2.393225,58.394379,1.042735,16-23,-1.000000,""
449,w0,ft.C.8,2134.312754,8,-1.000000,1,COMPLETED_SUCCESSFULLY,2134.312754,56.001189,2190.313943,0.000000,56.001189,1.000000,24-31,-1.000000,""
45,w0,ft.C.16,220.900843,16,-1.000000,1,COMPLETED_SUCCESSFULLY,225.421083,35.948044,261.369127,4.520240,40.468284,1.125744,32-47,-1.000000,""
450,w0,ft.C.16,2139.300098,16,-1.000000,1,COMPLETED_SUCCESSFULLY,2139.300098,30.158903,2169.459001,0.000000,30.158903,1.000000,32-47,-1.000000,""
451,w0,ft.C.16,2144.136217,16,-1.000000,1,COMPLETED_SUCCESSFULLY,2144.136217,29.985093,2174.121310,0.000000,29.985093,1.000000,48-63,-1.000000,""
452,w0,ft.C.8,2148.953132,8,-1.000000,1,COMPLETED_SUCCESSFULLY,2148.953132,72.410622,2221.363754,0.000000,72.410623,1.000000,96-103,-1.000000,""
453,w0,ft.C.16,2153.562218,16,-1.000000,1,COMPLETED_SUCCESSFULLY,2153.562218,30.984238,2184.546456,0.000000,30.984238,1.000000,72-87,-1.000000,""
454,w0,ft.C.16,2158.126006,16,-1.000000,1,COMPLETED_SUCCESSFULLY,2158.126006,46.388792,2204.514798,0.000000,46.388792,1.000000,88-95 104-111,-1.000000,""
455,w0,ft.C.8,2163.337047,8,-1.000000,1,COMPLETED_SUCCESSFULLY,2163.337047,56.001189,2219.338236,0.000000,56.001189,1.000000,0-7,-1.000000,""
456,w0,ft.C.16,2168.051252,16,-1.000000,1,COMPLETED_SUCCESSFULLY,2168.051252,48.911414,2216.962667,0.000000,48.911414,1.000000,8-15 112-119,-1.000000,""
457,w0,ft.C.32,2172.683885,32,-1.000000,1,COMPLETED_SUCCESSFULLY,2172.683885,30.311255,2202.995140,0.000000,30.311255,1.000000,32-47 64-71 120-127,-1.000000,""
458,w0,ft.C.8,2176.728514,8,-1.000000,1,COMPLETED_SUCCESSFULLY,2176.728514,56.001189,2232.729703,0.000000,56.001189,1.000000,48-55,-1.000000,""
459,w0,ft.C.8,2180.736344,8,-1.000000,1,COMPLETED_SUCCESSFULLY,2180.736344,56.001172,2236.737516,0.000000,56.001172,1.000000,56-63,-1.000000,""
46,w0,ft.C.32,226.402275,32,-1.000000,1,COMPLETED_SUCCESSFULLY,247.025544,20.582596,267.608140,20.623269,41.205865,2.001976,96-127,-1.000000,""
460,w0,ft.C.32,2184.993021,32,-1.000000,1,COMPLETED_SUCCESSFULLY,2202.995188,27.668276,2230.663464,18.002167,45.670443,1.650643,16-47,-1.000000,""
461,w0,ft.C.32,2190.708927,32,-1.000000,1,COMPLETED_SUCCESSFULLY,2204.514849,26.905201,2231.420050,13.805923,40.711123,1.513132,64-95,-1.000000,""
462,w0,ft.C.8,2195.433233,8,-1.000000,1,COMPLETED_SUCCESSFULLY,2204.514849,56.001163,2260.516013,9.081616,65.082779,1.162168,104-111,-1.000000,""
463,w0,ft.C.16,2199.598431,16,-1.000000,1,COMPLETED_SUCCESSFULLY,2204.514849,29.985068,2234.499917,4.916418,34.901485,1.163962,120-135,-1.000000,""
464,w0,ft.C.8,2204.426223,8,-1.000000,1,COMPLETED_SUCCESSFULLY,2216.962715,56.001179,2272.963894,12.536492,68.537671,1.223861,8-15,-1.000000,""
465,w0,ft.C.8,2208.299485,8,-1.000000,1,COMPLETED_SUCCESSFULLY,2216.962715,56.001179,2272.963894,8.663230,64.664409,1.154697,112-119,-1.000000,""
466,w0,ft.C.8,2212.017298,8,-1.000000,1,COMPLETED_SUCCESSFULLY,2219.338284,56.001189,2275.339473,7.320986,63.322175,1.130729,0-7,-1.000000,""
467,w0,ft.C.8,2217.176238,8,-1.000000,1,COMPLETED_SUCCESSFULLY,2221.363805,56.091851,2277.455657,4.187567,60.279418,1.074656,96-103,-1.000000,""
468,w0,ft.C.8,2221.794069,8,-1.000000,1,COMPLETED_SUCCESSFULLY,2230.663512,56.001179,2286.664691,8.869443,64.870622,1.158380,16-23,-1.000000,""
469,w0,ft.C.8,2226.910352,8,-1.000000,1,COMPLETED_SUCCESSFULLY,2230.663512,56.001179,2286.664691,3.753161,59.754339,1.067019,24-31,-1.000000,""
47,w0,ft.C.16,229.861152,16,-1.000000,1,COMPLETED_SUCCESSFULLY,247.025544,29.985080,277.010624,17.164392,47.149472,1.572431,48-63,-1.000000,""
470,w0,ft.C.8,2231.719849,8,-1.000000,1,COMPLETED_SUCCESSFULLY,2231.719849,61.843996,2293.563845,0.000000,61.843996,1.000000,32-39,-1.000000,""
471,w0,ft.C.16,2236.837384,16,-1.000000,1,COMPLETED_SUCCESSFULLY,2236.837384,29.985084,2266.822468,0.000000,29.985084,1.000000,40-55,-1.000000,""
472,w0,ft.C.16,2241.597305,16,-1.000000,1,COMPLETED_SUCCESSFULLY,2241.597305,29.985093,2271.582398,0.000000,29.985094,1.000000,56-71,-1.000000,""
473,w0,ft.C.8,2244.499921,8,-1.000000,1,COMPLETED_SUCCESSFULLY,2244.499921,62.586782,2307.086703,0.000000,62.586782,1.000000,72-79,-1.000000,""
474,w0,ft.C.16,2249.810003,16,-1.000000,1,COMPLETED_SUCCESSFULLY,2249.810003,29.985093,2279.795096,0.000000,29.985093,1.000000,80-95,-1.000000,""
475,w0,ft.C.8,2254.892183,8,-1.000000,1,COMPLETED_SUCCESSFULLY,2254.892183,56.001189,2310.893372,0.000000,56.001189,1.000000,120-127,-1.000000,""
476,w0,ft.C.8,2259.595499,8,-1.000000,1,COMPLETED_SUCCESSFULLY,2259.595499,56.001172,2315.596671,0.000000,56.001172,1.000000,128-135,-1.000000,""
477,w0,ft.C.16,2264.056551,16,-1.000000,1,COMPLETED_SUCCESSFULLY,2266.822519,29.985076,2296.807595,2.765968,32.751044,1.092245,40-55,-1.000000,""
478,w0,ft.C.8,2269.016445,8,-1.000000,1,COMPLETED_SUCCESSFULLY,2269.016445,56.001189,2325.017634,0.000000,56.001189,1.000000,104-111,-1.000000,""
479,w0,ft.C.32,2274.126959,32,-1.000000,1,COMPLETED_SUCCESSFULLY,2274.126959,22.147219,2296.274178,0.000000,22.147219,1.000000,8-15 56-71 112-119,-1.000000,""
48,w0,ft.C.16,235.108498,16,-1.000000,1,COMPLETED_SUCCESSFULLY,250.475141,36.851154,287.326295,15.366643,52.217798,1.416992,64-79,-1.000000,""
480,w0,ft.C.8,2279.235305,8,-1.000000,1,COMPLETED_SUCCESSFULLY,2279.235305,56.001179,2335.236484,0.000000,56.001179,1.000000,0-7,-1.000000,""
481,w0,ft.C.32,2284.293016,32,-1.000000,1,COMPLETED_SUCCESSFULLY,2296.274226,15.516291,2311.790517,11.981210,27.497500,1.772170,8-39,-1.000000,""
482,w0,ft.C.32,2289.144493,32,-1.000000,1,COMPLETED_SUCCESSFULLY,2296.807646,15.516266,2312.323912,7.663153,23.179419,1.493879,40-71,-1.000000,""
483,w0,ft.C.8,2294.903077,8,-1.000000,1,COMPLETED_SUCCESSFULLY,2296.807646,56.001183,2352.808830,1.904569,57.905752,1.034009,80-87,-1.000000,""
484,w0,ft.C.8,2299.983544,8,-1.000000,1,COMPLETED_SUCCESSFULLY,2299.983544,56.001189,2355.984734,0.000000,56.001189,1.000000,88-95,-1.000000,""
485,w0,ft.C.16,2304.818748,16,-1.000000,1,COMPLETED_SUCCESSFULLY,2304.818748,32.207552,2337.026300,0.000000,32.207552,1.000000,96-103 112-119,-1.000000,""
486,w0,ft.C.8,2309.474779,8,-1.000000,1,COMPLETED_SUCCESSFULLY,2309.474779,72.300657,2381.775436,0.000000,72.300657,1.000000,72-79,-1.000000,""
487,w0,ft.C.16,2314.769132,16,-1.000000,1,COMPLETED_SUCCESSFULLY,2314.769132,29.985093,2344.754226,0.000000,29.985093,1.000000,8-23,-1.000000,""
488,w0,ft.C.32,2319.974907,32,-1.000000,1,COMPLETED_SUCCESSFULLY,2319.974907,29.005940,2348.980847,0.000000,29.005941,1.000000,24-55,-1.000000,""
489,w0,ft.C.32,2325.732819,32,-1.000000,1,COMPLETED_SUCCESSFULLY,2325.732819,31.244035,2356.976854,0.000000,31.244035,1.000000,56-71 104-111 120-127,-1.000000,""
49,w0,ft.C.16,239.704104,16,-1.000000,1,COMPLETED_SUCCESSFULLY,250.475141,29.985066,280.460207,10.771037,40.756103,1.359213,80-95,-1.000000,""
490,w0,ft.C.8,2330.450736,8,-1.000000,1,COMPLETED_SUCCESSFULLY,2330.450736,56.001167,2386.451904,0.000000,56.001167,1.000000,128-135,-1.000000,""
491,w0,ft.C.8,2333.431039,8,-1.000000,1,COMPLETED_SUCCESSFULLY,2335.236532,56.001180,2391.237712,1.805493,57.806673,1.032240,0-7,-1.000000,""
492,w0,ft.C.16,2338.237920,16,-1.000000,1,COMPLETED_SUCCESSFULLY,2338.237920,34.147403,2372.385323,0.000000,34.147403,1.000000,96-103 112-119,-1.000000,""
493,w0,ft.C.8,2343.093057,8,-1.000000,1,COMPLETED_SUCCESSFULLY,2344.754274,56.001189,2400.755463,1.661217,57.662406,1.029664,8-15,-1.000000,""
494,w0,ft.C.16,2347.050373,16,-1.000000,1,COMPLETED_SUCCESSFULLY,2348.980895,29.985092,2378.965987,1.930523,31.915615,1.064383,16-31,-1.000000,""
495,w0,ft.C.16,2352.119614,16,-1.000000,1,COMPLETED_SUCCESSFULLY,2352.119614,31.595288,2383.714902,0.000000,31.595288,1.000000,32-47,-1.000000,""
496,w0,ft.C.32,2355.577350,32,-1.000000,1,COMPLETED_SUCCESSFULLY,2372.385374,17.261771,2389.647146,16.808024,34.069795,1.973714,80-111,-1.000000,""
497,w0,ft.C.8,2360.378984,8,-1.000000,1,COMPLETED_SUCCESSFULLY,2372.385374,56.001184,2428.386558,12.006391,68.007575,1.214395,48-55,-1.000000,""
498,w0,ft.C.16,2364.708028,16,-1.000000,1,COMPLETED_SUCCESSFULLY,2372.385374,29.985070,2402.370444,7.677346,37.662416,1.256039,56-71,-1.000000,""
499,w0,ft.C.8,2370.012451,8,-1.000000,1,COMPLETED_SUCCESSFULLY,2372.385374,56.001184,2428.386558,2.372923,58.374107,1.042373,112-119,-1.000000,""
5,w0,ft.C.8,26.660690,8,-1.000000,1,COMPLETED_SUCCESSFULLY,26.660690,56.001189,82.661879,0.000000,56.001189,1.000000,56-63,-1.000000,""
50,w0,ft.C.16,243.318915,16,-1.000000,1,COMPLETED_SUCCESSFULLY,259.464923,29.985065,289.449988,16.146008,46.131073,1.538468,16-31,-1.000000,""
500,w0,ft.C.32,2375.009865,32,-1.000000,1,COMPLETED_SUCCESSFULLY,2383.714950,18.187870,2401.902820,8.705085,26.892955,1.478620,16-47,-1.000000,""
501,w0,ft.C.8,2379.877933,8,-1.000000,1,COMPLETED_SUCCESSFULLY,2383.714950,67.793028,2451.507978,3.837017,71.630045,1.056599,72-79,-1.000000,""
502,w0,ft.C.16,2384.972858,16,-1.000000,1,COMPLETED_SUCCESSFULLY,2386.451955,29.985093,2416.437048,1.479097,31.464190,1.049328,120-135,-1.000000,""
503,w0,ft.C.16,2390.253548,16,-1.000000,1,COMPLETED_SUCCESSFULLY,2390.253548,29.985093,2420.238641,0.000000,29.985093,1.000000,80-95,-1.000000,""
504,w0,ft.C.8,2394.772195,8,-1.000000,1,COMPLETED_SUCCESSFULLY,2394.772195,56.001189,2450.773384,0.000000,56.001190,1.000000,0-7,-1.000000,""
505,w0,ft.C.16,2399.035933,16,-1.000000,1,COMPLETED_SUCCESSFULLY,2399.035933,29.985093,2429.021027,0.000000,29.985093,1.000000,96-111,-1.000000,""
506,w0,ft.C.8,2403.292864,8,-1.000000,1,COMPLETED_SUCCESSFULLY,2403.292864,56.001189,2459.294053,0.000000,56.001190,1.000000,8-15,-1.000000,""
507,w0,ft.C.8,2407.708563,8,-1.000000,1,COMPLETED_SUCCESSFULLY,2407.708563,56.001189,2463.709753,0.000000,56.001189,1.000000,16-23,-1.000000,""
508,w0,ft.C.32,2411.701187,32,-1.000000,1,COMPLETED_SUCCESSFULLY,2411.701187,20.132248,2431.833436,0.000000,20.132248,1.000000,24-47 56-63,-1.000000,""
509,w0,ft.C.8,2416.611056,8,-1.000000,1,COMPLETED_SUCCESSFULLY,2416.611056,56.001189,2472.612246,0.000000,56.001189,1.000000,64-71,-1.000000,""
51,w0,ft.C.8,248.048421,8,-1.000000,1,COMPLETED_SUCCESSFULLY,259.464923,56.001155,315.466078,11.416502,67.417657,1.203862,128-135,-1.000000,""
510,w0,ft.C.8,2421.831741,8,-1.000000,1,COMPLETED_SUCCESSFULLY,2421.831741,56.001189,2477.832931,0.000000,56.001189,1.000000,80-87,-1.000000,""
511,w0,ft.C.32,2427.144164,32,-1.000000,1,COMPLETED_SUCCESSFULLY,2429.021078,20.319761,2449.340839,1.876914,22.196675,1.092369,88-119,-1.000000,""
52,w0,ft.C.16,253.154538,16,-1.000000,1,COMPLETED_SUCCESSFULLY,261.369175,34.816354,296.185529,8.214637,43.030991,1.235942,32-47,-1.000000,""
53,w0,ft.C.8,257.773780,8,-1.000000,1,COMPLETED_SUCCESSFULLY,267.608191,56.675410,324.283601,9.834411,66.509821,1.173522,96-103,-1.000000,""
54,w0,ft.C.8,262.290966,8,-1.000000,1,COMPLETED_SUCCESSFULLY,267.608191,56.001018,323.609209,5.317225,61.318243,1.094949,104-111,-1.000000,""
55,w0,ft.C.8,267.028886,8,-1.000000,1,COMPLETED_SUCCESSFULLY,267.608191,56.001018,323.609209,0.579305,56.580324,1.010345,112-119,-1.000000,""
56,w0,ft.C.8,270.992672,8,-1.000000,1,COMPLETED_SUCCESSFULLY,270.992672,56.001189,326.993861,0.000000,56.001189,1.000000,120-127,-1.000000,""
57,w0,ft.C.32,275.353075,32,-1.000000,1,COMPLETED_SUCCESSFULLY,287.326347,17.758139,305.084486,11.973272,29.731411,1.674241,48-79,-1.000000,""
58,w0,ft.C.8,280.771020,8,-1.000000,1,COMPLETED_SUCCESSFULLY,287.326347,56.001163,343.327510,6.555327,62.556490,1.117057,0-7,-1.000000,""
59,w0,ft.C.16,284.487830,16,-1.000000,1,COMPLETED_SUCCESSFULLY,287.326347,29.985079,317.311426,2.838517,32.823596,1.094664,80-95,-1.000000,""
6,w0,ft.C.32,31.665536,32,-1.000000,1,COMPLETED_SUCCESSFULLY,31.665536,21.497464,53.163000,0.000000,21.497464,1.000000,64-95,-1.000000,""
60,w0,ft.C.16,289.916195,16,-1.000000,1,COMPLETED_SUCCESSFULLY,289.916195,29.985069,319.901264,0.000000,29.985070,1.000000,8-23,-1.000000,""
61,w0,ft.C.16,295.084860,16,-1.000000,1,COMPLETED_SUCCESSFULLY,296.185577,33.511569,329.697147,1.100717,34.612286,1.032846,24-39,-1.000000,""
62,w0,ft.C.16,300.077564,16,-1.000000,1,COMPLETED_SUCCESSFULLY,305.084537,29.985085,335.069622,5.006973,34.992058,1.166982,40-55,-1.000000,""
63,w0,ft.C.32,304.775205,32,-1.000000,1,COMPLETED_SUCCESSFULLY,317.311477,24.004584,341.316061,12.536272,36.540856,1.522245,56-87,-1.000000,""
64,w0,ft.C.8,309.578836,8,-1.000000,1,COMPLETED_SUCCESSFULLY,317.311477,56.001161,373.312638,7.732641,63.733802,1.138080,88-95,-1.000000,""
65,w0,ft.C.8,313.703191,8,-1.000000,1,COMPLETED_SUCCESSFULLY,317.311477,56.001161,373.312638,3.608286,59.609446,1.064432,128-135,-1.000000,""
66,w0,ft.C.8,318.261441,8,-1.000000,1,COMPLETED_SUCCESSFULLY,319.901312,56.001147,375.902459,1.639872,57.641019,1.029283,8-15,-1.000000,""
67,w0,ft.C.8,322.731396,8,-1.000000,1,COMPLETED_SUCCESSFULLY,322.731396,56.001177,378.732573,0.000000,56.001178,1.000000,16-23,-1.000000,""
68,w0,ft.C.32,327.509753,32,-1.000000,1,COMPLETED_SUCCESSFULLY,327.509753,21.105591,348.615344,0.000000,21.105591,1.000000,96-127,-1.000000,""
69,w0,ft.C.8,331.869231,8,-1.000000,1,COMPLETED_SUCCESSFULLY,331.869231,56.001181,387.870412,0.000000,56.001181,1.000000,24-31,-1.000000,""
7,w0,ft.C.8,35.873892,8,-1.000000,1,COMPLETED_SUCCESSFULLY,35.873892,69.341326,105.215218,0.000000,69.341326,1.000000,96-103,-1.000000,""
70,w0,ft.C.8,336.920328,8,-1.000000,1,COMPLETED_SUCCESSFULLY,336.920328,57.882900,394.803228,0.000000,57.882900,1.000000,32-39,-1.000000,""
71,w0,ft.C.8,342.111847,8,-1.000000,1,COMPLETED_SUCCESSFULLY,342.111847,56.001183,398.113030,0.000000,56.001183,1.000000,40-47,-1.000000,""
72,w0,ft.C.8,347.753451,8,-1.000000,1,COMPLETED_SUCCESSFULLY,347.753451,56.001189,403.754640,0.000000,56.001189,1.000000,0-7,-1.000000,""
73,w0,ft.C.32,351.632760,32,-1.000000,1,COMPLETED_SUCCESSFULLY,351.632760,16.292301,367.925061,0.000000,16.292301,1.000000,48-79,-1.000000,""
74,w0,ft.C.16,356.722486,16,-1.000000,1,COMPLETED_SUCCESSFULLY,356.722486,35.580344,392.302830,0.000000,35.580344,1.000000,80-87 96-103,-1.000000,""
75,w0,ft.C.8,361.762650,8,-1.000000,1,COMPLETED_SUCCESSFULLY,361.762650,56.001189,417.763839,0.000000,56.001189,1.000000,104-111,-1.000000,""
76,w0,ft.C.8,366.767361,8,-1.000000,1,COMPLETED_SUCCESSFULLY,366.767361,56.001189,422.768551,0.000000,56.001189,1.000000,112-119,-1.000000,""
77,w0,ft.C.32,371.537989,32,-1.000000,1,COMPLETED_SUCCESSFULLY,371.537989,21.735301,393.273291,0.000000,21.735301,1.000000,48-79,-1.000000,""
78,w0,ft.C.32,376.871850,32,-1.000000,1,COMPLETED_SUCCESSFULLY,376.871850,22.787484,399.659334,0.000000,22.787484,1.000000,8-15 88-95 120-135,-1.000000,""
79,w0,ft.C.16,381.787542,16,-1.000000,1,COMPLETED_SUCCESSFULLY,387.870460,29.985091,417.855551,6.082918,36.068009,1.202865,16-31,-1.000000,""
8,w0,ft.C.16,41.191306,16,-1.000000,1,COMPLETED_SUCCESSFULLY,41.191306,29.985085,71.176391,0.000000,29.985085,1.000000,8-23,-1.000000,""
80,w0,ft.C.8,387.119972,8,-1.000000,1,COMPLETED_SUCCESSFULLY,392.302881,56.001189,448.304070,5.182909,61.184098,1.092550,80-87,-1.000000,""
81,w0,ft.C.16,392.016595,16,-1.000000,1,COMPLETED_SUCCESSFULLY,393.273342,29.985093,423.258435,1.256747,31.241840,1.041912,48-63,-1.000000,""
82,w0,ft.C.8,397.138845,8,-1.000000,1,COMPLETED_SUCCESSFULLY,397.138845,72.467596,469.606441,0.000000,72.467596,1.000000,32-39,-1.000000,""
83,w0,ft.C.8,402.157617,8,-1.000000,1,COMPLETED_SUCCESSFULLY,402.157617,56.001189,458.158806,0.000000,56.001189,1.000000,8-15,-1.000000,""
84,w0,ft.C.8,406.657353,8,-1.000000,1,COMPLETED_SUCCESSFULLY,406.657353,56.001182,462.658535,0.000000,56.001182,1.000000,0-7,-1.000000,""
85,w0,ft.C.8,411.370831,8,-1.000000,1,COMPLETED_SUCCESSFULLY,411.370831,56.001189,467.372020,0.000000,56.001189,1.000000,40-47,-1.000000,""
86,w0,ft.C.16,415.826718,16,-1.000000,1,COMPLETED_SUCCESSFULLY,415.826718,44.269525,460.096243,0.000000,44.269525,1.000000,64-79,-1.000000,""
87,w0,ft.C.8,420.109555,8,-1.000000,1,COMPLETED_SUCCESSFULLY,420.109555,56.001169,476.110724,0.000000,56.001169,1.000000,16-23,-1.000000,""
88,w0,ft.C.16,425.844065,16,-1.000000,1,COMPLETED_SUCCESSFULLY,425.844065,46.663342,472.507407,0.000000,46.663343,1.000000,24-31 48-55,-1.000000,""
89,w0,ft.C.16,430.095994,16,-1.000000,1,COMPLETED_SUCCESSFULLY,430.095994,45.586872,475.682867,0.000000,45.586872,1.000000,56-63 88-95,-1.000000,""
9,w0,ft.C.16,46.443267,16,-1.000000,1,COMPLETED_SUCCESSFULLY,46.443267,29.985078,76.428346,0.000000,29.985078,1.000000,104-119,-1.000000,""
90,w0,ft.C.8,435.103815,8,-1.000000,1,COMPLETED_SUCCESSFULLY,435.103815,56.202745,491.306560,0.000000,56.202746,1.000000,96-103,-1.000000,""
91,w0,ft.C.8,440.025215,8,-1.000000,1,COMPLETED_SUCCESSFULLY,440.025215,56.001180,496.026395,0.000000,56.001180,1.000000,104-111,-1.000000,""
92,w0,ft.C.8,445.670564,8,-1.000000,1,COMPLETED_SUCCESSFULLY,445.670564,56.001189,501.671753,0.000000,56.001190,1.000000,112-119,-1.000000,""
93,w0,ft.C.8,449.845026,8,-1.000000,1,COMPLETED_SUCCESSFULLY,449.845026,56.001189,505.846215,0.000000,56.001189,1.000000,80-87,-1.000000,""
94,w0,ft.C.8,455.050096,8,-1.000000,1,COMPLETED_SUCCESSFULLY,455.050096,56.001183,511.051279,0.000000,56.001183,1.000000,120-127,-1.000000,""
95,w0,ft.C.8,459.240280,8,-1.000000,1,COMPLETED_SUCCESSFULLY,459.240280,56.001189,515.241469,0.000000,56.001189,1.000000,8-15,-1.000000,""
96,w0,ft.C.8,463.728721,8,-1.000000,1,COMPLETED_SUCCESSFULLY,463.728721,56.001189,519.729910,0.000000,56.001190,1.000000,0-7,-1.000000,""
97,w0,ft.C.16,468.441659,16,-1.000000,1,COMPLETED_SUCCESSFULLY,468.441659,29.985093,498.426752,0.000000,29.985094,1.000000,40-47 64-71,-1.000000,""
98,w0,ft.C.8,473.730149,8,-1.000000,1,COMPLETED_SUCCESSFULLY,473.730149,56.001189,529.731338,0.000000,56.001189,1.000000,24-31,-1.000000,""
99,w0,ft.C.8,478.506221,8,-1.000000,1,COMPLETED_SUCCESSFULLY,478.506221,56.001183,534.507404,0.000000,56.001183,1.000000,16-23,-1.000000,""
