allocated_processors,consumed_energy,execution_time,finish_time,job_id,metadata,requested_number_of_processors,requested_time,starting_time,stretch,submission_time,success,turnaround_time,waiting_time,workload_name
0-7,-1.000000,58.821768,63.225545,0,"",8,-1.000000,4.403777,1.000000,4.403767,1,58.821778,0.000010,72e68d
8-23,-1.000000,31.599575,39.550575,1,"",16,-1.000000,7.951000,1.000000,7.950990,1,31.599585,0.000010,72e68d
120-127,-1.000000,58.821655,109.933409,10,"",8,-1.000000,51.111754,1.000000,51.111754,1,58.821655,0.000000,72e68d
56-63,-1.000000,58.821957,542.956731,100,"",8,-1.000000,484.134774,1.000000,484.134764,1,58.821967,0.000010,72e68d
64-79 96-111,-1.000000,21.106940,511.378506,101,"",32,-1.000000,490.271566,1.000000,490.271556,1,21.106950,0.000010,72e68d
88-95,-1.000000,58.821957,554.279255,102,"",8,-1.000000,495.457298,1.000000,495.457298,1,58.821957,0.000000,72e68d
0-7,-1.000000,58.821937,559.282868,103,"",8,-1.000000,500.460931,1.000000,500.460921,1,58.821947,0.000010,72e68d
8-15,-1.000000,58.821957,563.970724,104,"",8,-1.000000,505.148767,1.000000,505.148757,1,58.821967,0.000010,72e68d
16-23,-1.000000,58.821957,569.236856,105,"",8,-1.000000,510.414899,1.000000,510.414899,1,58.821957,0.000000,72e68d
64-71,-1.000000,58.821953,573.656048,106,"",8,-1.000000,514.834095,1.000000,514.834085,1,58.821963,0.000010,72e68d
72-79,-1.000000,82.510182,602.331389,107,"",8,-1.000000,519.821206,1.000000,519.821206,1,82.510182,0.000000,72e68d
32-39,-1.000000,82.231981,606.365284,108,"",8,-1.000000,524.133303,1.000000,524.133293,1,82.231991,0.000010,72e68d
40-47 80-87 96-111,-1.000000,25.205629,554.730970,109,"",32,-1.000000,529.525341,1.000000,529.525341,1,25.205629,0.000000,72e68d
64-95,-1.000000,21.669580,76.918414,11,"",32,-1.000000,55.248834,1.000000,55.248824,1,21.669590,0.000010,72e68d
24-31,-1.000000,58.821950,593.454836,110,"",8,-1.000000,534.632887,1.000000,534.632877,1,58.821960,0.000010,72e68d
48-55 112-119,-1.000000,55.594764,595.248890,111,"",16,-1.000000,539.654126,1.000000,539.654116,1,55.594774,0.000010,72e68d
56-63,-1.000000,58.821945,603.125931,112,"",8,-1.000000,544.303986,1.000000,544.303976,1,58.821955,0.000010,72e68d
120-127,-1.000000,58.821949,608.256791,113,"",8,-1.000000,549.434842,1.000000,549.434842,1,58.821949,0.000000,72e68d
40-47 80-103,-1.000000,29.171908,583.966809,114,"",32,-1.000000,554.794901,1.000000,554.794891,1,29.171918,0.000010,72e68d
0-15 104-111 128-135,-1.000000,26.893307,590.864106,115,"",32,-1.000000,563.970799,1.149396,559.953041,1,30.911065,4.017758,72e68d
16-23,-1.000000,58.821939,628.058860,116,"",8,-1.000000,569.236921,1.066556,565.321982,1,62.736878,3.914939,72e68d
40-47 64-71 80-95,-1.000000,26.179666,610.146554,117,"",32,-1.000000,583.966888,1.586314,568.617392,1,41.529161,15.349495,72e68d
0-15,-1.000000,31.599606,622.463777,118,"",16,-1.000000,590.864171,1.545027,573.641539,1,48.822238,17.222633,72e68d
104-111 128-135,-1.000000,31.599606,622.463777,119,"",16,-1.000000,590.864171,1.387026,578.634311,1,43.829466,12.229860,72e68d
32-47,-1.000000,64.223677,124.902306,12,"",16,-1.000000,60.678629,1.000000,60.678619,1,64.223687,0.000010,72e68d
32-39 72-79 112-127,-1.000000,31.714128,639.970988,120,"",32,-1.000000,608.256860,1.777018,583.614419,1,56.356569,24.642441,72e68d
96-103,-1.000000,79.980784,667.490050,121,"",8,-1.000000,587.509267,1.000000,587.509257,1,79.980794,0.000010,72e68d
24-31,-1.000000,58.821947,652.276848,122,"",8,-1.000000,593.454901,1.020171,592.268385,1,60.008463,1.186516,72e68d
48-55,-1.000000,58.821943,654.655123,123,"",8,-1.000000,595.833180,1.000000,595.833170,1,58.821953,0.000010,72e68d
40-47 64-71 80-95,-1.000000,29.780323,639.926956,124,"",32,-1.000000,610.146633,1.338196,600.075056,1,39.851900,10.071577,72e68d
56-63,-1.000000,58.821944,664.147633,125,"",8,-1.000000,605.325689,1.000000,605.325679,1,58.821954,0.000010,72e68d
0-7,-1.000000,58.821874,681.285786,126,"",8,-1.000000,622.463911,1.200406,610.675670,1,70.610116,11.788242,72e68d
8-15 104-111,-1.000000,40.887988,663.351899,127,"",16,-1.000000,622.463911,1.189832,614.702077,1,48.649822,7.761834,72e68d
40-47 64-71,-1.000000,31.599575,671.526600,128,"",16,-1.000000,639.927025,1.639897,619.706542,1,51.820059,20.220484,72e68d
128-135,-1.000000,58.821942,684.094727,129,"",8,-1.000000,625.272785,1.000000,625.272785,1,58.821942,0.000000,72e68d
0-7 128-135,-1.000000,49.296320,114.626649,13,"",16,-1.000000,65.330329,1.000000,65.330319,1,49.296330,0.000010,72e68d
32-39 72-95,-1.000000,20.957658,660.928720,130,"",32,-1.000000,639.971063,1.465649,630.212147,1,30.716574,9.758916,72e68d
32-39 48-55 72-87,-1.000000,31.361373,692.290159,131,"",32,-1.000000,660.928785,1.858623,634.001200,1,58.288958,26.927585,72e68d
16-23,-1.000000,58.821948,697.383458,132,"",8,-1.000000,638.561509,1.000000,638.561509,1,58.821948,0.000000,72e68d
112-119,-1.000000,58.821956,701.993081,133,"",8,-1.000000,643.171125,1.000000,643.171115,1,58.821966,0.000010,72e68d
8-15 56-63 88-95 104-111,-1.000000,33.188961,697.336663,134,"",32,-1.000000,664.147702,1.504337,647.409276,1,49.927387,16.738426,72e68d
120-127,-1.000000,58.821947,710.978015,135,"",8,-1.000000,652.156068,1.000000,652.156068,1,58.821947,0.000000,72e68d
24-31,-1.000000,58.821937,716.110598,136,"",8,-1.000000,657.288660,1.000000,657.288660,1,58.821938,0.000000,72e68d
32-39 48-55 72-87,-1.000000,36.602259,728.892493,137,"",32,-1.000000,692.290234,1.824951,662.095147,1,66.797346,30.195087,72e68d
96-103,-1.000000,82.914082,750.404212,138,"",8,-1.000000,667.490130,1.009037,666.740818,1,83.663394,0.749312,72e68d
40-47,-1.000000,58.821945,730.348624,139,"",8,-1.000000,671.526680,1.013548,670.729781,1,59.618843,0.796898,72e68d
24-31,-1.000000,58.821671,129.945543,14,"",8,-1.000000,71.123872,1.002028,71.004578,1,58.940965,0.119295,72e68d
8-15 56-63 88-95 104-111,-1.000000,36.535803,733.872531,140,"",32,-1.000000,697.336728,1.599049,675.450002,1,58.422529,21.886726,72e68d
32-39 48-55 72-87,-1.000000,34.855842,763.748409,141,"",32,-1.000000,728.892568,2.399173,680.123232,1,83.625177,48.769335,72e68d
0-7 64-71,-1.000000,66.333812,751.502143,142,"",16,-1.000000,685.168330,1.000000,685.168330,1,66.333812,0.000000,72e68d
8-15 56-63 88-95 104-111,-1.000000,34.297259,768.169855,143,"",32,-1.000000,733.872596,2.272767,690.220193,1,77.949662,43.652403,72e68d
32-39 48-55 72-87,-1.000000,32.139263,795.887748,144,"",32,-1.000000,763.748485,3.111697,695.880099,1,100.007649,67.868386,72e68d
16-23,-1.000000,58.821943,758.885415,145,"",8,-1.000000,700.063472,1.000000,700.063472,1,58.821943,0.000000,72e68d
112-119,-1.000000,58.821918,763.854037,146,"",8,-1.000000,705.032119,1.000000,705.032119,1,58.821918,0.000000,72e68d
120-135,-1.000000,31.599588,742.577672,147,"",16,-1.000000,710.978084,1.053529,709.286597,1,33.291075,1.691487,72e68d
24-31,-1.000000,58.821914,774.932587,148,"",8,-1.000000,716.110673,1.037847,713.884443,1,61.048144,2.226230,72e68d
40-47,-1.000000,58.821940,789.170643,149,"",8,-1.000000,730.348704,1.212638,717.840909,1,71.329735,12.507795,72e68d
8-23 64-79,-1.000000,41.211821,118.130314,15,"",32,-1.000000,76.918493,1.017466,76.198702,1,41.931612,0.719791,72e68d
120-127,-1.000000,58.821947,801.399689,150,"",8,-1.000000,742.577741,1.342657,722.422016,1,78.977673,20.155725,72e68d
8-15 56-63 88-95 104-111,-1.000000,30.995214,799.165144,151,"",32,-1.000000,768.169930,2.301831,727.819405,1,71.345739,40.350524,72e68d
128-135,-1.000000,58.821947,801.399689,152,"",8,-1.000000,742.577741,1.162948,732.992813,1,68.406876,9.584928,72e68d
96-103,-1.000000,80.897037,831.301318,153,"",8,-1.000000,750.404281,1.161443,737.344042,1,93.957275,13.060239,72e68d
0-7,-1.000000,58.821948,810.324166,154,"",8,-1.000000,751.502218,1.161735,741.988622,1,68.335544,9.513595,72e68d
32-39 48-55,-1.000000,52.590530,848.478353,155,"",16,-1.000000,795.887823,1.951525,745.846629,1,102.631724,50.041194,72e68d
64-71,-1.000000,58.821948,810.324166,156,"",8,-1.000000,751.502218,1.019798,750.337683,1,59.986483,1.164535,72e68d
16-23,-1.000000,58.821942,817.707432,157,"",8,-1.000000,758.885490,1.067149,754.935654,1,62.771778,3.949836,72e68d
112-119,-1.000000,58.821909,822.676016,158,"",8,-1.000000,763.854106,1.065472,760.002923,1,62.673093,3.851183,72e68d
8-15 56-63 88-95 104-111,-1.000000,27.318842,826.484061,159,"",32,-1.000000,799.165219,2.280806,764.175078,1,62.308983,34.990141,72e68d
48-55 80-95 104-111,-1.000000,39.277314,120.306746,16,"",32,-1.000000,81.029433,1.000000,81.029423,1,39.277324,0.000010,72e68d
24-31,-1.000000,58.821957,833.754609,160,"",8,-1.000000,774.932652,1.102150,768.923979,1,64.830629,6.008673,72e68d
40-47,-1.000000,58.821940,847.992653,161,"",8,-1.000000,789.170712,1.257426,774.028444,1,73.964209,15.142269,72e68d
72-79,-1.000000,111.376894,907.264717,162,"",8,-1.000000,795.887823,1.154463,778.684260,1,128.580457,17.203563,72e68d
80-87,-1.000000,58.821908,854.709731,163,"",8,-1.000000,795.887823,1.205298,783.811779,1,70.897952,12.076044,72e68d
0-7 64-71,-1.000000,59.833804,870.158104,164,"",16,-1.000000,810.324300,1.351571,789.288463,1,80.869640,21.035837,72e68d
120-127,-1.000000,58.821956,860.221784,165,"",8,-1.000000,801.399827,1.128932,793.815812,1,66.405972,7.584016,72e68d
8-15 56-63,-1.000000,62.356453,888.840579,166,"",16,-1.000000,826.484126,1.446409,798.647649,1,90.192930,27.836477,72e68d
32-55 96-103,-1.000000,36.230792,884.709210,167,"",32,-1.000000,848.478418,2.257129,802.931641,1,81.777568,45.546777,72e68d
128-135,-1.000000,58.821957,866.794333,168,"",8,-1.000000,807.972376,1.000000,807.972366,1,58.821967,0.000010,72e68d
16-23,-1.000000,58.821957,876.529464,169,"",8,-1.000000,817.707507,1.075455,813.269117,1,63.260346,4.438390,72e68d
8-23 64-79,-1.000000,31.838110,149.968499,17,"",32,-1.000000,118.130389,2.034081,85.207201,1,64.761298,32.923187,72e68d
32-55 96-103,-1.000000,35.492401,920.201686,170,"",32,-1.000000,884.709285,2.865031,818.514866,1,101.686820,66.194419,72e68d
112-119,-1.000000,58.821957,881.819600,171,"",8,-1.000000,822.997643,1.000000,822.997643,1,58.821957,0.000000,72e68d
88-95 104-111,-1.000000,33.842915,862.136783,172,"",16,-1.000000,828.293868,1.000000,828.293868,1,33.842915,0.000000,72e68d
32-55 96-103,-1.000000,35.793401,955.995162,173,"",32,-1.000000,920.201761,3.432992,833.116719,1,122.878443,87.085042,72e68d
32-55 96-103,-1.000000,35.623047,991.618274,174,"",32,-1.000000,955.995227,4.347924,836.731974,1,154.886300,119.263254,72e68d
32-55 96-103,-1.000000,36.173564,1027.791903,175,"",32,-1.000000,991.618339,5.138577,841.911250,1,185.880653,149.707089,72e68d
24-31,-1.000000,58.821957,904.100417,176,"",8,-1.000000,845.278460,1.000000,845.278460,1,58.821957,0.000000,72e68d
80-87,-1.000000,58.821947,913.531757,177,"",8,-1.000000,854.709810,1.076150,850.230530,1,63.301227,4.479280,72e68d
120-127,-1.000000,58.821955,919.043817,178,"",8,-1.000000,860.221863,1.104696,854.063439,1,64.980378,6.158424,72e68d
88-95,-1.000000,58.821955,920.958808,179,"",8,-1.000000,862.136852,1.058021,858.723956,1,62.234852,3.412897,72e68d
56-63 112-119,-1.000000,57.691295,147.853559,18,"",16,-1.000000,90.162264,1.000000,90.162254,1,57.691305,0.000010,72e68d
104-111,-1.000000,58.821946,921.967635,180,"",8,-1.000000,863.145690,1.000000,863.145680,1,58.821956,0.000010,72e68d
0-7 64-71,-1.000000,68.197163,938.355341,181,"",16,-1.000000,870.158179,1.042461,867.262491,1,71.092851,2.895688,72e68d
128-135,-1.000000,58.821957,929.889678,182,"",8,-1.000000,871.067721,1.000000,871.067721,1,58.821957,0.000000,72e68d
8-15 56-63,-1.000000,67.986759,956.827404,183,"",16,-1.000000,888.840644,1.198061,875.375111,1,81.452293,13.465533,72e68d
16-23,-1.000000,58.821936,938.681790,184,"",8,-1.000000,879.859854,1.000000,879.859844,1,58.821946,0.000010,72e68d
112-119,-1.000000,58.821957,943.412132,185,"",8,-1.000000,884.590175,1.000000,884.590165,1,58.821967,0.000010,72e68d
32-55 96-103,-1.000000,36.089384,1063.881352,186,"",32,-1.000000,1027.791968,4.834563,889.404939,1,174.476412,138.387029,72e68d
24-31,-1.000000,58.821949,962.922431,187,"",8,-1.000000,904.100482,1.160654,894.650507,1,68.271924,9.449975,72e68d
72-79,-1.000000,126.914568,1034.179354,188,"",8,-1.000000,907.264786,1.060920,899.533097,1,134.646257,7.731689,72e68d
80-87,-1.000000,58.821957,972.353783,189,"",8,-1.000000,913.531826,1.166287,903.750524,1,68.603259,9.781303,72e68d
96-103,-1.000000,65.229625,166.394935,19,"",8,-1.000000,101.165310,1.086088,95.549805,1,70.845130,5.615505,72e68d
120-127,-1.000000,58.821953,977.865839,190,"",8,-1.000000,919.043886,1.194131,907.624731,1,70.241108,11.419156,72e68d
88-95,-1.000000,58.821940,979.780827,191,"",8,-1.000000,920.958887,1.131647,913.215153,1,66.565674,7.743734,72e68d
104-111,-1.000000,58.821951,980.789665,192,"",8,-1.000000,921.967715,1.054012,918.790628,1,61.999038,3.177087,72e68d
128-135,-1.000000,58.821939,988.711686,193,"",8,-1.000000,929.889747,1.111579,923.326437,1,65.385249,6.563310,72e68d
0-7,-1.000000,58.821949,997.177356,194,"",8,-1.000000,938.355407,1.180051,927.764435,1,69.412921,10.590971,72e68d
32-55 96-103,-1.000000,29.886036,1093.767463,195,"",32,-1.000000,1063.881427,5.416529,931.888885,1,161.878577,131.992541,72e68d
16-23 64-71,-1.000000,67.624326,1006.306191,196,"",16,-1.000000,938.681865,1.020378,937.303838,1,69.002353,1.378027,72e68d
32-55 96-103,-1.000000,27.657510,1121.425048,197,"",32,-1.000000,1093.767538,6.448464,943.076599,1,178.348449,150.690939,72e68d
8-15 56-63,-1.000000,67.461218,1024.288697,198,"",16,-1.000000,956.827479,1.152256,946.556094,1,77.732603,10.271384,72e68d
112-119,-1.000000,58.821950,1010.350689,199,"",8,-1.000000,951.528739,1.000000,951.528739,1,58.821950,0.000000,72e68d
24-31,-1.000000,58.821753,71.123807,2,"",8,-1.000000,12.302055,1.000000,12.302045,1,58.821763,0.000010,72e68d
0-7 128-135,-1.000000,55.103537,169.730251,20,"",16,-1.000000,114.626714,1.266436,99.945175,1,69.785075,14.681539,72e68d
24-31,-1.000000,58.821944,1021.744440,200,"",8,-1.000000,962.922496,1.124179,955.618046,1,66.126394,7.304451,72e68d
80-87,-1.000000,58.821945,1031.175797,201,"",8,-1.000000,972.353852,1.192953,961.003996,1,70.171801,11.349856,72e68d
32-55 96-103,-1.000000,32.281623,1153.706745,202,"",32,-1.000000,1121.425123,5.808564,966.196868,1,187.509878,155.228255,72e68d
120-127,-1.000000,58.821949,1036.687858,203,"",8,-1.000000,977.865908,1.121024,970.747062,1,65.940795,7.118846,72e68d
88-95 104-111,-1.000000,35.968436,1016.758171,204,"",16,-1.000000,980.789734,1.131215,976.070140,1,40.688030,4.719594,72e68d
128-135,-1.000000,58.821956,1047.533721,205,"",8,-1.000000,988.711765,1.130319,981.046143,1,66.487578,7.665622,72e68d
0-7,-1.000000,58.821960,1055.999391,206,"",8,-1.000000,997.177431,1.188619,986.082476,1,69.916915,11.094955,72e68d
16-23 64-71,-1.000000,67.288856,1073.595122,207,"",16,-1.000000,1006.306266,1.221994,991.368543,1,82.226579,14.937723,72e68d
88-95 104-111,-1.000000,36.089277,1052.847527,208,"",16,-1.000000,1016.758250,1.559670,996.560155,1,56.287372,20.198095,72e68d
112-119,-1.000000,58.821952,1069.172710,209,"",8,-1.000000,1010.350758,1.149218,1001.573476,1,67.599234,8.777282,72e68d
120-127,-1.000000,58.821657,168.755135,21,"",8,-1.000000,109.933478,1.080209,105.215463,1,63.539672,4.718015,72e68d
8-15 56-63,-1.000000,63.236230,1087.525002,210,"",16,-1.000000,1024.288772,1.298125,1005.436445,1,82.088557,18.852327,72e68d
24-31,-1.000000,58.821953,1080.566458,211,"",8,-1.000000,1021.744505,1.200187,1009.969088,1,70.597370,11.775417,72e68d
32-55 96-103,-1.000000,37.105298,1190.812108,212,"",32,-1.000000,1153.706810,4.720176,1015.668586,1,175.143522,138.038224,72e68d
80-87,-1.000000,58.821957,1089.997823,213,"",8,-1.000000,1031.175866,1.194279,1019.748008,1,70.249815,11.427858,72e68d
72-79,-1.000000,109.402249,1143.581672,214,"",8,-1.000000,1034.179423,1.090849,1024.240349,1,119.341323,9.939074,72e68d
120-127,-1.000000,58.821940,1095.509877,215,"",8,-1.000000,1036.687937,1.129712,1029.057997,1,66.451880,7.629940,72e68d
128-135,-1.000000,58.821953,1106.355744,216,"",8,-1.000000,1047.533790,1.232216,1033.874398,1,72.481346,13.659392,72e68d
88-95,-1.000000,58.821950,1111.669556,217,"",8,-1.000000,1052.847606,1.259570,1037.579193,1,74.090363,15.268413,72e68d
104-111,-1.000000,58.821950,1111.669556,218,"",8,-1.000000,1052.847606,1.189854,1041.680024,1,69.989532,11.167582,72e68d
0-7,-1.000000,58.821957,1114.821413,219,"",8,-1.000000,1055.999456,1.180913,1045.357805,1,69.463608,10.641651,72e68d
48-55,-1.000000,58.821658,179.128483,22,"",8,-1.000000,120.306826,1.162879,110.725999,1,68.402485,9.580827,72e68d
112-119,-1.000000,58.821949,1127.994728,220,"",8,-1.000000,1069.172779,1.327355,1049.917102,1,78.077626,19.255677,72e68d
16-23,-1.000000,58.821955,1132.417142,221,"",8,-1.000000,1073.595187,1.318420,1054.865096,1,77.552046,18.730091,72e68d
64-71,-1.000000,58.821955,1132.417142,222,"",8,-1.000000,1073.595187,1.231615,1059.971148,1,72.445994,13.624039,72e68d
24-31,-1.000000,58.821956,1139.388479,223,"",8,-1.000000,1080.566523,1.278252,1064.199215,1,75.189265,16.367309,72e68d
8-15 56-63,-1.000000,54.903144,1142.428221,224,"",16,-1.000000,1087.525077,1.349039,1068.361735,1,74.066487,19.163342,72e68d
80-87,-1.000000,58.821957,1148.819859,225,"",8,-1.000000,1089.997902,1.295047,1072.642683,1,76.177176,17.355219,72e68d
120-127,-1.000000,58.821955,1154.331910,226,"",8,-1.000000,1095.509956,1.297372,1078.017971,1,76.313940,17.491985,72e68d
128-135,-1.000000,58.821948,1165.177771,227,"",8,-1.000000,1106.355823,1.399374,1082.863881,1,82.313890,23.491942,72e68d
104-111,-1.000000,58.821957,1170.491651,228,"",8,-1.000000,1111.669694,1.408736,1087.627064,1,82.864587,24.042630,72e68d
88-95,-1.000000,58.821957,1170.491651,229,"",8,-1.000000,1111.669694,1.324241,1092.597175,1,77.894476,19.072519,72e68d
80-95,-1.000000,31.599618,151.906443,23,"",16,-1.000000,120.306826,1.153446,115.457999,1,36.448444,4.848826,72e68d
0-7,-1.000000,58.821953,1173.643431,230,"",8,-1.000000,1114.821478,1.289454,1097.795258,1,75.848173,17.026221,72e68d
32-55 96-103,-1.000000,39.500259,1230.312432,231,"",32,-1.000000,1190.812173,3.239896,1102.335708,1,127.976724,88.476465,72e68d
16-23 64-71,-1.000000,70.264776,1202.682062,232,"",16,-1.000000,1132.417286,1.358088,1107.256313,1,95.425749,25.160973,72e68d
8-15 56-63,-1.000000,71.542844,1213.971130,233,"",16,-1.000000,1142.428286,1.417899,1112.530596,1,101.440534,29.897690,72e68d
0-7 88-95,-1.000000,56.817200,1230.460696,234,"",16,-1.000000,1173.643496,1.987031,1117.563142,1,112.897554,56.080354,72e68d
16-23 64-71,-1.000000,75.320367,1278.002504,235,"",16,-1.000000,1202.682137,2.056768,1123.085968,1,154.916536,79.596169,72e68d
112-119,-1.000000,58.821947,1186.816754,236,"",8,-1.000000,1127.994807,1.008673,1127.484664,1,59.332090,0.510143,72e68d
8-15 56-63,-1.000000,75.364216,1289.335411,237,"",16,-1.000000,1213.971195,2.098038,1131.218404,1,158.117007,82.752791,72e68d
32-55 96-103,-1.000000,39.321391,1269.633888,238,"",32,-1.000000,1230.312497,3.398329,1136.006873,1,133.627016,94.305625,72e68d
24-31,-1.000000,58.821957,1200.296330,239,"",8,-1.000000,1141.474373,1.000000,1141.474373,1,58.821957,0.000000,72e68d
104-111,-1.000000,58.821658,179.128483,24,"",8,-1.000000,120.306826,1.017644,119.268960,1,59.859524,1.037866,72e68d
72-79,-1.000000,96.112520,1242.970298,240,"",8,-1.000000,1146.857777,1.000000,1146.857777,1,96.112520,0.000000,72e68d
80-87,-1.000000,58.821957,1211.012375,241,"",8,-1.000000,1152.190418,1.000000,1152.190408,1,58.821967,0.000010,72e68d
120-127,-1.000000,58.821949,1215.576292,242,"",8,-1.000000,1156.754343,1.000000,1156.754333,1,58.821959,0.000010,72e68d
32-55 96-103,-1.000000,39.473746,1309.107699,243,"",32,-1.000000,1269.633953,3.776848,1160.021346,1,149.086354,109.612608,72e68d
128-135,-1.000000,58.821951,1224.132411,244,"",8,-1.000000,1165.310460,1.000000,1165.310460,1,58.821951,0.000000,72e68d
104-111,-1.000000,58.821957,1229.313746,245,"",8,-1.000000,1170.491789,1.015565,1169.576222,1,59.737524,0.915568,72e68d
32-55 96-103,-1.000000,39.281127,1348.388892,246,"",32,-1.000000,1309.107764,4.439158,1174.013777,1,174.375114,135.093987,72e68d
0-7 88-95,-1.000000,56.491847,1286.952608,247,"",16,-1.000000,1230.460761,1.916302,1178.697180,1,108.255428,51.763581,72e68d
112-119,-1.000000,58.821942,1245.638775,248,"",8,-1.000000,1186.816833,1.051675,1183.777221,1,61.861554,3.039612,72e68d
32-55 96-103,-1.000000,39.461889,1387.850856,249,"",32,-1.000000,1348.388967,5.048373,1188.632512,1,199.218344,159.756455,72e68d
32-39,-1.000000,107.693405,232.595785,25,"",8,-1.000000,124.902381,1.011733,123.638803,1,108.956982,1.263577,72e68d
24-31,-1.000000,58.821945,1259.118340,250,"",8,-1.000000,1200.296395,1.133744,1192.429299,1,66.689041,7.867096,72e68d
80-87,-1.000000,58.821944,1269.834397,251,"",8,-1.000000,1211.012454,1.244324,1196.640845,1,73.193552,14.371609,72e68d
32-55 96-103,-1.000000,39.347021,1427.197952,252,"",32,-1.000000,1387.850931,5.729516,1201.758566,1,225.439386,186.092365,72e68d
120-127,-1.000000,58.821943,1274.398314,253,"",8,-1.000000,1215.576371,1.152654,1206.596983,1,67.801332,8.979388,72e68d
128-135,-1.000000,58.821969,1282.954459,254,"",8,-1.000000,1224.132491,1.212163,1211.652651,1,71.301808,12.479839,72e68d
104-111,-1.000000,58.821942,1288.135757,255,"",8,-1.000000,1229.313815,1.201946,1217.434939,1,70.700818,11.878877,72e68d
72-79,-1.000000,88.647705,1331.618082,256,"",8,-1.000000,1242.970377,1.229456,1222.629635,1,108.988446,20.340741,72e68d
112-119,-1.000000,58.821957,1304.460801,257,"",8,-1.000000,1245.638844,1.310463,1227.376807,1,77.083994,18.262038,72e68d
32-55 96-103,-1.000000,39.468425,1466.666452,258,"",32,-1.000000,1427.198027,5.934368,1232.446297,1,234.220155,194.751730,72e68d
16-23 64-71,-1.000000,75.462501,1353.465070,259,"",16,-1.000000,1278.002569,1.549821,1236.511703,1,116.953367,41.490866,72e68d
40-47,-1.000000,58.821668,187.587450,26,"",8,-1.000000,128.765783,1.000000,128.765773,1,58.821678,0.000010,72e68d
32-55 96-103,-1.000000,39.306019,1505.972536,260,"",32,-1.000000,1466.666517,6.724857,1241.645186,1,264.327350,225.021331,72e68d
0-7 88-95,-1.000000,56.856220,1343.808894,261,"",16,-1.000000,1286.952673,1.703963,1246.928009,1,96.880885,40.024665,72e68d
24-31,-1.000000,58.821952,1317.940367,262,"",8,-1.000000,1259.118415,1.122637,1251.904681,1,66.035686,7.213734,72e68d
80-87,-1.000000,58.821950,1328.656426,263,"",8,-1.000000,1269.834477,1.229954,1256.308120,1,72.348306,13.526356,72e68d
120-127,-1.000000,58.821957,1333.220340,264,"",8,-1.000000,1274.398383,1.237183,1260.446803,1,72.773537,13.951581,72e68d
8-15 56-63,-1.000000,75.269684,1364.605161,265,"",16,-1.000000,1289.335476,1.325519,1264.833787,1,99.771374,24.501689,72e68d
128-135,-1.000000,58.821957,1341.776485,266,"",8,-1.000000,1282.954528,1.243601,1268.625465,1,73.151021,14.329064,72e68d
32-55 96-103,-1.000000,39.426368,1545.398969,267,"",32,-1.000000,1505.972602,6.890947,1273.713947,1,271.685022,232.258655,72e68d
0-7 88-95,-1.000000,56.920001,1400.728970,268,"",16,-1.000000,1343.808969,2.135341,1279.185365,1,121.543604,64.623604,72e68d
104-111,-1.000000,58.821950,1346.957785,269,"",8,-1.000000,1288.135836,1.076945,1283.609809,1,63.347977,4.526027,72e68d
24-31,-1.000000,58.821671,192.361146,27,"",8,-1.000000,133.539475,1.000000,133.539465,1,58.821681,0.000010,72e68d
112-119,-1.000000,58.821950,1363.282820,270,"",8,-1.000000,1304.460870,1.291122,1287.336518,1,75.946302,17.124352,72e68d
32-55 96-103,-1.000000,39.325877,1584.724911,271,"",32,-1.000000,1545.399034,7.440322,1292.127731,1,292.597180,253.271303,72e68d
16-23 64-71,-1.000000,75.353628,1428.818773,272,"",16,-1.000000,1353.465145,1.756513,1296.459149,1,132.359623,57.005995,72e68d
8-15 56-63,-1.000000,75.376677,1439.981912,273,"",16,-1.000000,1364.605236,1.839179,1301.350729,1,138.631184,63.254507,72e68d
0-7 88-95,-1.000000,56.337155,1457.066200,274,"",16,-1.000000,1400.729045,2.683667,1305.876022,1,151.190178,94.853023,72e68d
16-23 64-71,-1.000000,75.285758,1504.104606,275,"",16,-1.000000,1428.818848,2.577540,1310.052527,1,194.052079,118.766321,72e68d
32-55 96-103,-1.000000,39.464927,1624.189913,276,"",32,-1.000000,1584.724986,7.847683,1314.481658,1,309.708255,270.243328,72e68d
24-31,-1.000000,58.821946,1378.444230,277,"",8,-1.000000,1319.622284,1.000000,1319.622284,1,58.821946,0.000000,72e68d
80-87,-1.000000,58.821954,1387.478449,278,"",8,-1.000000,1328.656495,1.071080,1324.475430,1,63.003020,4.181066,72e68d
72-79,-1.000000,88.093606,1419.711767,279,"",8,-1.000000,1331.618161,1.045573,1327.603459,1,92.108308,4.014701,72e68d
8-23 64-79,-1.000000,29.335287,179.303861,28,"",32,-1.000000,149.968574,1.430869,137.328922,1,41.974939,12.639652,72e68d
120-127,-1.000000,58.821952,1392.042361,280,"",8,-1.000000,1333.220409,1.009858,1332.640550,1,59.401811,0.579859,72e68d
128-135,-1.000000,58.821939,1400.598493,281,"",8,-1.000000,1341.776554,1.072536,1337.509854,1,63.088639,4.266701,72e68d
8-15 56-63,-1.000000,75.343467,1515.325455,282,"",16,-1.000000,1439.981988,2.306696,1341.530998,1,173.794456,98.450989,72e68d
0-7 88-95,-1.000000,57.065974,1514.132239,283,"",16,-1.000000,1457.066265,2.956335,1345.426097,1,168.706142,111.640168,72e68d
104-111,-1.000000,58.821944,1408.891143,284,"",8,-1.000000,1350.069198,1.000000,1350.069198,1,58.821944,0.000000,72e68d
112-119,-1.000000,58.821951,1422.104849,285,"",8,-1.000000,1363.282899,1.137976,1355.166896,1,66.937954,8.116003,72e68d
24-31,-1.000000,58.821954,1437.266249,286,"",8,-1.000000,1378.444295,1.303536,1360.589690,1,76.676559,17.854605,72e68d
16-23 64-71,-1.000000,75.305950,1579.410621,287,"",16,-1.000000,1504.104671,2.846584,1365.045923,1,214.364698,139.058748,72e68d
80-87,-1.000000,58.821947,1446.300465,288,"",8,-1.000000,1387.478518,1.325228,1368.347992,1,77.952474,19.130527,72e68d
32-55 96-103,-1.000000,39.336260,1663.526238,289,"",32,-1.000000,1624.189978,7.379116,1373.259411,1,290.266827,250.930567,72e68d
56-63,-1.000000,58.821674,206.675302,29,"",8,-1.000000,147.853628,1.102925,141.799425,1,64.875877,6.054203,72e68d
120-127,-1.000000,58.821948,1450.864378,290,"",8,-1.000000,1392.042430,1.230435,1378.487784,1,72.376594,13.554646,72e68d
128-135,-1.000000,58.821952,1459.420524,291,"",8,-1.000000,1400.598572,1.312270,1382.230247,1,77.190277,18.368325,72e68d
32-55 96-103,-1.000000,39.478987,1703.005290,292,"",32,-1.000000,1663.526303,8.035998,1385.752237,1,317.253053,277.774066,72e68d
104-111,-1.000000,58.821947,1467.713168,293,"",8,-1.000000,1408.891222,1.313083,1390.475075,1,77.238094,18.416147,72e68d
0-7 88-95,-1.000000,56.748840,1570.881144,294,"",16,-1.000000,1514.132304,3.087402,1395.674688,1,175.206456,118.457616,72e68d
32-55 96-103,-1.000000,39.291507,1742.296872,295,"",32,-1.000000,1703.005365,8.719962,1399.676431,1,342.620441,303.328934,72e68d
72-79,-1.000000,88.391762,1508.103607,296,"",8,-1.000000,1419.711846,1.187305,1403.155630,1,104.947978,16.556216,72e68d
112-119,-1.000000,58.821956,1480.926884,297,"",8,-1.000000,1422.104929,1.267340,1406.379466,1,74.547418,15.725462,72e68d
8-15 56-63,-1.000000,75.321329,1590.646859,298,"",16,-1.000000,1515.325530,2.381116,1411.298018,1,179.348841,104.027512,72e68d
24-31,-1.000000,58.821951,1496.088275,299,"",8,-1.000000,1437.266324,1.365556,1415.763602,1,80.324673,21.502721,72e68d
32-47,-1.000000,38.027862,55.509132,3,"",16,-1.000000,17.481270,1.000000,17.481270,1,38.027862,0.000000,72e68d
112-119,-1.000000,58.821674,206.675302,30,"",8,-1.000000,147.853628,1.006650,147.462451,1,59.212850,0.391177,72e68d
0-7 88-95,-1.000000,56.567103,1627.448322,300,"",16,-1.000000,1570.881219,3.658029,1420.524203,1,206.924119,150.357016,72e68d
80-87,-1.000000,58.821944,1505.122479,301,"",8,-1.000000,1446.300534,1.356766,1425.314874,1,79.807604,20.985660,72e68d
16-23 64-71,-1.000000,75.333758,1654.744454,302,"",16,-1.000000,1579.410696,2.975538,1430.585960,1,224.158494,148.824736,72e68d
120-127,-1.000000,58.821937,1509.686394,303,"",8,-1.000000,1450.864457,1.258584,1435.654034,1,74.032359,15.210423,72e68d
128-135,-1.000000,58.821935,1518.242528,304,"",8,-1.000000,1459.420593,1.314360,1440.929319,1,77.313208,18.491274,72e68d
8-15 56-63,-1.000000,75.297485,1665.944409,305,"",16,-1.000000,1590.646924,2.933424,1445.064944,1,220.879465,145.581980,72e68d
104-111,-1.000000,58.821963,1526.535201,306,"",8,-1.000000,1467.713237,1.302067,1449.945041,1,76.590160,17.768196,72e68d
0-7 88-95,-1.000000,56.714696,1684.163083,307,"",16,-1.000000,1627.448387,4.058694,1453.975462,1,230.187621,173.472925,72e68d
112-119,-1.000000,58.821933,1539.748886,308,"",8,-1.000000,1480.926953,1.362104,1459.627286,1,80.121600,21.299667,72e68d
24-31,-1.000000,58.821951,1554.910301,309,"",8,-1.000000,1496.088350,1.539219,1464.370462,1,90.539838,31.717888,72e68d
80-95,-1.000000,31.599639,184.150981,31,"",16,-1.000000,152.551342,1.000000,152.551332,1,31.599649,0.000010,72e68d
80-87,-1.000000,58.821948,1563.944506,310,"",8,-1.000000,1505.122558,1.590994,1470.359155,1,93.585351,34.763403,72e68d
72-79,-1.000000,88.691111,1596.794798,311,"",8,-1.000000,1508.103687,1.379842,1474.415112,1,122.379686,33.688575,72e68d
120-127,-1.000000,58.821940,1568.508413,312,"",8,-1.000000,1509.686473,1.522384,1478.958814,1,89.549599,30.727658,72e68d
16-23 64-71,-1.000000,75.264515,1730.009034,313,"",16,-1.000000,1654.744519,3.262317,1484.472322,1,245.536712,170.272197,72e68d
8-15 56-63,-1.000000,75.332037,1741.276511,314,"",16,-1.000000,1665.944474,3.348373,1489.036766,1,252.239745,176.907709,72e68d
32-55 96-103,-1.000000,39.424819,1781.721766,315,"",32,-1.000000,1742.296947,7.296765,1494.048140,1,287.673626,248.248807,72e68d
128-135,-1.000000,58.821949,1577.064556,316,"",8,-1.000000,1518.242607,1.330587,1498.796811,1,78.267745,19.445796,72e68d
104-111,-1.000000,58.821957,1585.357237,317,"",8,-1.000000,1526.535280,1.398169,1503.114172,1,82.243065,23.421108,72e68d
0-7 88-95,-1.000000,56.873964,1741.037112,318,"",16,-1.000000,1684.163148,4.107793,1507.410645,1,233.626467,176.752503,72e68d
112-119,-1.000000,58.821955,1598.570910,319,"",8,-1.000000,1539.748955,1.480700,1511.473225,1,87.097685,28.275730,72e68d
0-7 128-135,-1.000000,53.302469,223.032795,32,"",16,-1.000000,169.730326,1.237789,157.055578,1,65.977217,12.674748,72e68d
16-23 64-71,-1.000000,75.298665,1805.307774,320,"",16,-1.000000,1730.009109,3.836494,1516.424872,1,288.882902,213.584237,72e68d
24-31,-1.000000,58.821951,1613.732327,321,"",8,-1.000000,1554.910376,1.569191,1521.429469,1,92.302858,33.480907,72e68d
0-7 88-95,-1.000000,56.778115,1797.815302,322,"",16,-1.000000,1741.037187,4.781603,1526.324900,1,271.490402,214.712287,72e68d
80-87,-1.000000,58.821953,1622.766538,323,"",8,-1.000000,1563.944585,1.549180,1531.640731,1,91.125807,32.303854,72e68d
120-127,-1.000000,58.821954,1627.330436,324,"",8,-1.000000,1568.508482,1.540538,1536.712960,1,90.617476,31.795522,72e68d
128-135,-1.000000,58.821944,1635.886570,325,"",8,-1.000000,1577.064625,1.596965,1541.949975,1,93.936594,35.114650,72e68d
32-55 96-103,-1.000000,39.312797,1821.034628,326,"",32,-1.000000,1781.721831,6.974733,1546.838354,1,274.196274,234.883477,72e68d
8-15 56-63,-1.000000,75.340314,1816.616900,327,"",16,-1.000000,1741.276586,3.517767,1551.587253,1,265.029648,189.689333,72e68d
0-7 88-95,-1.000000,56.508647,1854.324023,328,"",16,-1.000000,1797.815377,5.262646,1556.939012,1,297.385011,240.876365,72e68d
104-111,-1.000000,58.821958,1644.179274,329,"",8,-1.000000,1585.357316,1.394392,1562.158416,1,82.020857,23.198900,72e68d
96-103,-1.000000,61.386755,227.781769,33,"",8,-1.000000,166.395014,1.091603,160.771810,1,67.009959,5.623204,72e68d
72-79,-1.000000,88.475336,1685.270213,330,"",8,-1.000000,1596.794877,1.340033,1566.710322,1,118.559891,30.084555,72e68d
112-119,-1.000000,58.821957,1657.392936,331,"",8,-1.000000,1598.570979,1.446632,1572.299228,1,85.093708,26.271751,72e68d
24-31,-1.000000,58.821949,1672.554341,332,"",8,-1.000000,1613.732392,1.634273,1576.423222,1,96.131119,37.309170,72e68d
16-23 64-71,-1.000000,74.995385,1880.303233,333,"",16,-1.000000,1805.307849,3.973842,1582.283388,1,298.019845,223.024461,72e68d
8-15 56-63,-1.000000,74.682990,1891.299956,334,"",16,-1.000000,1816.616965,4.078612,1586.697021,1,304.602934,229.919944,72e68d
32-55 96-103,-1.000000,39.490564,1860.525267,335,"",32,-1.000000,1821.034703,6.829052,1590.842157,1,269.683110,230.192546,72e68d
0-7 88-95,-1.000000,53.541996,1907.866095,336,"",16,-1.000000,1854.324099,5.832277,1595.594317,1,312.271778,258.729782,72e68d
32-47,-1.000000,73.558521,1934.083862,337,"",16,-1.000000,1860.525342,4.529165,1600.925157,1,333.158705,259.600184,72e68d
48-55 96-103,-1.000000,60.227244,1920.752586,338,"",16,-1.000000,1860.525342,5.222587,1606.210550,1,314.542035,254.314791,72e68d
80-87,-1.000000,58.821940,1681.588547,339,"",8,-1.000000,1622.766607,1.203669,1610.786407,1,70.802141,11.980201,72e68d
120-127,-1.000000,58.821674,227.576887,34,"",8,-1.000000,168.755214,1.045056,166.104972,1,61.471916,2.650242,72e68d
120-127,-1.000000,58.821942,1686.152457,340,"",8,-1.000000,1627.330515,1.192432,1616.011283,1,70.141174,11.319232,72e68d
16-23 64-71,-1.000000,73.342808,1953.646106,341,"",16,-1.000000,1880.303298,4.539849,1620.680858,1,332.965248,259.622440,72e68d
128-135,-1.000000,58.821957,1694.708606,342,"",8,-1.000000,1635.886649,1.176105,1625.527816,1,69.180789,10.358833,72e68d
104-111,-1.000000,58.821936,1703.001288,343,"",8,-1.000000,1644.179353,1.227456,1630.799944,1,72.201345,13.379409,72e68d
8-15 56-63,-1.000000,73.243084,1964.543114,344,"",16,-1.000000,1891.300031,4.488209,1635.812813,1,328.730301,255.487218,72e68d
112-119,-1.000000,58.821935,1716.214940,345,"",8,-1.000000,1657.393005,1.282373,1640.783253,1,75.431687,16.609753,72e68d
24-31,-1.000000,58.821948,1731.376354,346,"",8,-1.000000,1672.554406,1.469771,1644.921545,1,86.454809,27.632862,72e68d
0-7 88-95,-1.000000,53.031992,1960.898162,347,"",16,-1.000000,1907.866170,5.875059,1649.332079,1,311.566083,258.534091,72e68d
48-55 96-103,-1.000000,60.775830,1981.528495,348,"",16,-1.000000,1920.752665,5.380202,1654.542251,1,326.986244,266.210414,72e68d
80-87,-1.000000,58.821957,1740.410573,349,"",8,-1.000000,1681.588616,1.372030,1659.705055,1,80.705518,21.883562,72e68d
8-23 64-79,-1.000000,30.661219,209.965145,35,"",32,-1.000000,179.303926,1.269754,171.032943,1,38.932203,8.270984,72e68d
72-79,-1.000000,88.262653,1773.532945,350,"",8,-1.000000,1685.270292,1.232909,1664.713165,1,108.819780,20.557127,72e68d
32-47,-1.000000,73.110734,2007.194661,351,"",16,-1.000000,1934.083927,4.613500,1669.898325,1,337.296336,264.185602,72e68d
120-127,-1.000000,58.821947,1744.974483,352,"",8,-1.000000,1686.152536,1.196246,1674.608945,1,70.365538,11.543591,72e68d
128-135,-1.000000,58.821947,1753.530631,353,"",8,-1.000000,1694.708685,1.264728,1679.136868,1,74.393763,15.571816,72e68d
104-111,-1.000000,58.821944,1761.823312,354,"",8,-1.000000,1703.001368,1.322912,1684.007064,1,77.816248,18.994304,72e68d
112-119,-1.000000,58.821937,1775.036946,355,"",8,-1.000000,1716.215009,1.478386,1688.075419,1,86.961527,28.139590,72e68d
48-55 96-111 128-135,-1.000000,42.437769,2572.096741,356,"",32,-1.000000,2529.658972,20.717542,1692.890486,1,879.206255,836.768485,72e68d
16-23 64-71,-1.000000,73.125693,2026.771864,357,"",16,-1.000000,1953.646171,4.509858,1696.985363,1,329.786501,256.660808,72e68d
0-7 88-95,-1.000000,53.015421,2013.913649,358,"",16,-1.000000,1960.898227,5.879984,1702.183840,1,311.729809,258.714387,72e68d
8-15 56-63,-1.000000,73.152544,2037.695724,359,"",16,-1.000000,1964.543179,4.520652,1706.998537,1,330.697186,257.544642,72e68d
48-55 104-111,-1.000000,47.216356,226.344978,36,"",16,-1.000000,179.128621,1.054381,176.560944,1,49.784034,2.567678,72e68d
24-31,-1.000000,58.821952,1790.198381,360,"",8,-1.000000,1731.376429,1.335812,1711.623325,1,78.575056,19.753104,72e68d
80-87,-1.000000,58.821952,1799.232594,361,"",8,-1.000000,1740.410642,1.401805,1716.775681,1,82.456913,23.634961,72e68d
0-7 16-23 64-71 88-95,-1.000000,45.019856,2585.202466,362,"",32,-1.000000,2540.182610,19.188824,1721.324394,1,863.878071,818.858216,72e68d
72-87,-1.000000,60.997913,2040.903666,363,"",16,-1.000000,1979.905753,5.147451,1726.919869,1,313.983797,252.985884,72e68d
120-127,-1.000000,58.821957,1803.796519,364,"",8,-1.000000,1744.974562,1.225858,1731.689146,1,72.107372,13.285416,72e68d
128-135,-1.000000,58.821957,1812.352667,365,"",8,-1.000000,1753.530711,1.283931,1736.829322,1,75.523345,16.701388,72e68d
104-111,-1.000000,58.821953,1820.645334,366,"",8,-1.000000,1761.823381,1.373620,1739.846331,1,80.799003,21.977051,72e68d
72-79,-1.000000,89.337267,1862.870291,367,"",8,-1.000000,1773.533024,1.316309,1745.274880,1,117.595411,28.258144,72e68d
112-119,-1.000000,58.821941,1833.858956,368,"",8,-1.000000,1775.037015,1.425023,1750.036336,1,83.822620,25.000679,72e68d
8-15 24-31 56-63 112-119,-1.000000,47.026356,2603.424781,369,"",32,-1.000000,2556.398425,18.040554,1755.043266,1,848.381515,801.355159,72e68d
80-87,-1.000000,58.821671,242.972731,37,"",8,-1.000000,184.151060,1.035349,182.071787,1,60.900944,2.079273,72e68d
24-31,-1.000000,58.821954,1849.020410,370,"",8,-1.000000,1790.198456,1.514870,1759.912825,1,89.107585,30.285631,72e68d
80-87,-1.000000,58.821975,1858.054639,371,"",8,-1.000000,1799.232663,1.597662,1764.077017,1,93.977622,35.155646,72e68d
48-55 96-111 128-135,-1.000000,47.621838,2619.718648,372,"",32,-1.000000,2572.096810,17.884062,1768.046735,1,851.671913,804.050076,72e68d
48-55 96-103,-1.000000,62.066677,2043.595251,373,"",16,-1.000000,1981.528574,4.354432,1773.330097,1,270.265154,208.198477,72e68d
32-47,-1.000000,73.527371,2080.722097,374,"",16,-1.000000,2007.194726,4.106138,1778.808592,1,301.913506,228.386134,72e68d
0-7 88-95,-1.000000,52.725125,2066.638849,375,"",16,-1.000000,2013.913724,5.381700,1782.888034,1,283.750814,231.025689,72e68d
0-7 16-23 64-71 88-95,-1.000000,49.151473,2634.354014,376,"",32,-1.000000,2585.202541,17.225350,1787.702702,1,846.651312,797.499839,72e68d
16-23 64-71,-1.000000,73.512680,2100.284609,377,"",16,-1.000000,2026.771929,4.188238,1792.396028,1,307.888582,234.375902,72e68d
120-127,-1.000000,58.821938,1862.618536,378,"",8,-1.000000,1803.796598,1.114780,1797.044997,1,65.573539,6.751600,72e68d
8-15 56-63,-1.000000,73.280541,2110.976340,379,"",16,-1.000000,2037.695799,4.204578,1802.862610,1,308.113730,234.833188,72e68d
88-95,-1.000000,58.821665,244.758000,38,"",8,-1.000000,185.936335,1.000000,185.936335,1,58.821665,0.000000,72e68d
72-87,-1.000000,60.557799,2101.461534,380,"",16,-1.000000,2040.903735,4.855074,1807.448935,1,294.012599,233.454800,72e68d
128-135,-1.000000,58.821955,1871.174691,381,"",8,-1.000000,1812.352736,1.011065,1811.701845,1,59.472846,0.650891,72e68d
104-111,-1.000000,58.821945,1879.467358,382,"",8,-1.000000,1820.645413,1.055296,1817.392811,1,62.074547,3.252601,72e68d
48-55 96-103,-1.000000,60.652050,2104.247371,383,"",16,-1.000000,2043.595320,4.642888,1822.646694,1,281.600677,220.948626,72e68d
112-119,-1.000000,58.821955,1892.680980,384,"",8,-1.000000,1833.859025,1.107686,1827.524718,1,65.156262,6.334307,72e68d
0-7 88-95,-1.000000,52.193254,2118.832178,385,"",16,-1.000000,2066.638924,5.476289,1833.006829,1,285.825350,233.632095,72e68d
32-47,-1.000000,73.625734,2154.347896,386,"",16,-1.000000,2080.722162,4.307988,1837.169154,1,317.178742,243.553008,72e68d
24-31,-1.000000,58.821948,1907.842432,387,"",8,-1.000000,1849.020485,1.110966,1842.493244,1,65.349189,6.527241,72e68d
80-87,-1.000000,58.821957,1916.876674,388,"",8,-1.000000,1858.054718,1.190476,1846.850537,1,70.026137,11.204180,72e68d
120-127,-1.000000,58.821948,1921.440553,389,"",8,-1.000000,1862.618605,1.180641,1851.992947,1,69.447606,10.625658,72e68d
8-23 56-71,-1.000000,34.325912,244.291122,39,"",32,-1.000000,209.965210,1.562163,190.668459,1,53.622663,19.296751,72e68d
16-23 64-71,-1.000000,73.293835,2173.578510,390,"",16,-1.000000,2100.284674,4.329515,1856.251755,1,317.326754,244.032919,72e68d
72-87,-1.000000,61.549579,2163.011182,391,"",16,-1.000000,2101.461603,4.894026,1861.785968,1,301.225214,239.675635,72e68d
72-79,-1.000000,113.035633,1979.905684,392,"",8,-1.000000,1866.870051,1.000000,1866.870051,1,113.035633,0.000000,72e68d
128-135,-1.000000,58.821957,1930.832371,393,"",8,-1.000000,1872.010414,1.000000,1872.010404,1,58.821967,0.000010,72e68d
104-111,-1.000000,58.821947,1938.289375,394,"",8,-1.000000,1879.467427,1.058798,1876.008817,1,62.280558,3.458610,72e68d
48-55 96-103,-1.000000,61.066399,2165.313848,395,"",16,-1.000000,2104.247450,4.659746,1880.759961,1,284.553887,223.487489,72e68d
8-15 56-63,-1.000000,73.624481,2184.600895,396,"",16,-1.000000,2110.976415,4.060554,1885.644692,1,298.956204,225.331723,72e68d
112-119,-1.000000,58.821957,1951.503006,397,"",8,-1.000000,1892.681049,1.032918,1890.744737,1,60.758269,1.936312,72e68d
24-31,-1.000000,58.821957,1966.664454,398,"",8,-1.000000,1907.842497,1.222707,1894.742439,1,71.922015,13.100058,72e68d
8-15 24-31 56-63 112-119,-1.000000,51.044707,2654.469563,399,"",32,-1.000000,2603.424856,14.784848,1899.781334,1,754.688229,703.643522,72e68d
48-55,-1.000000,58.821658,80.281343,4,"",8,-1.000000,21.459685,1.000000,21.459685,1,58.821658,0.000000,72e68d
24-31,-1.000000,58.821674,254.539038,40,"",8,-1.000000,195.717365,1.000000,195.717355,1,58.821684,0.000010,72e68d
80-87,-1.000000,58.821948,1975.698701,400,"",8,-1.000000,1916.876754,1.210446,1904.497921,1,71.200781,12.378833,72e68d
120-127,-1.000000,58.821952,1980.262575,401,"",8,-1.000000,1921.440622,1.214590,1908.818032,1,71.444542,12.622590,72e68d
128-135,-1.000000,58.821957,1989.654406,402,"",8,-1.000000,1930.832450,1.293005,1913.597295,1,76.057112,17.235155,72e68d
0-7 88-95,-1.000000,52.407692,2171.239936,403,"",16,-1.000000,2118.832243,4.834722,1917.863312,1,253.376623,200.968931,72e68d
32-47 72-87,-1.000000,51.801312,2659.125550,404,"",32,-1.000000,2607.324238,14.238832,1921.535352,1,737.590199,685.788886,72e68d
104-111,-1.000000,58.821957,1997.111411,405,"",8,-1.000000,1938.289454,1.201387,1926.443451,1,70.667960,11.846003,72e68d
32-47,-1.000000,73.303595,2227.651556,406,"",16,-1.000000,2154.347961,4.042291,1931.337100,1,296.314456,223.010861,72e68d
48-55 96-111 120-127,-1.000000,51.676131,2671.394848,407,"",32,-1.000000,2619.718717,14.228444,1936.123892,1,735.270956,683.594825,72e68d
72-87,-1.000000,60.475563,2223.486814,408,"",16,-1.000000,2163.011251,4.684397,1940.195286,1,283.291528,222.815965,72e68d
48-55 96-103,-1.000000,60.884389,2226.198307,409,"",16,-1.000000,2165.313917,4.604180,1945.875648,1,280.322659,219.438270,72e68d
48-55 104-111 120-135,-1.000000,33.375373,260.952340,41,"",32,-1.000000,227.576967,1.788552,201.258756,1,59.693584,26.318211,72e68d
0-7 88-95,-1.000000,52.795447,2224.035457,410,"",16,-1.000000,2171.240011,5.194919,1949.767392,1,274.268066,221.472619,72e68d
112-119,-1.000000,58.821957,2013.890995,411,"",8,-1.000000,1955.069038,1.000000,1955.069038,1,58.821957,0.000000,72e68d
0-7 16-23 64-71 88-95,-1.000000,51.701822,2686.055910,412,"",32,-1.000000,2634.354089,14.060323,1959.111620,1,726.944290,675.242469,72e68d
16-23 64-71,-1.000000,73.114777,2246.693362,413,"",16,-1.000000,2173.578585,3.866019,1964.030256,1,282.663105,209.548328,72e68d
24-31,-1.000000,58.821941,2027.002615,414,"",8,-1.000000,1968.180674,1.000000,1968.180664,1,58.821951,0.000010,72e68d
8-15 56-63,-1.000000,73.345223,2257.946184,415,"",16,-1.000000,2184.600960,3.887053,1972.849397,1,285.096786,211.751563,72e68d
72-87,-1.000000,60.807882,2284.294765,416,"",16,-1.000000,2223.486883,5.040172,1977.812611,1,306.482154,245.674272,72e68d
8-15 24-31 56-63 112-119,-1.000000,51.779243,2706.248881,417,"",32,-1.000000,2654.469638,13.968068,1982.992873,1,723.256007,671.476764,72e68d
120-127,-1.000000,58.821957,2046.922062,418,"",8,-1.000000,1988.100105,1.000000,1988.100105,1,58.821957,0.000000,72e68d
128-135,-1.000000,58.821939,2051.207919,419,"",8,-1.000000,1992.385980,1.000000,1992.385980,1,58.821939,0.000000,72e68d
40-47,-1.000000,58.821713,264.908051,42,"",8,-1.000000,206.086338,1.000000,206.086328,1,58.821723,0.000010,72e68d
104-111,-1.000000,58.821912,2056.275228,420,"",8,-1.000000,1997.453316,1.000000,1997.453306,1,58.821922,0.000010,72e68d
112-119,-1.000000,58.821805,2072.712869,421,"",8,-1.000000,2013.891064,1.207901,2001.661975,1,71.050894,12.229089,72e68d
24-31,-1.000000,58.821745,2085.824435,422,"",8,-1.000000,2027.002690,1.367691,2005.374454,1,80.449981,21.628236,72e68d
0-7 88-95,-1.000000,52.738473,2276.773996,423,"",16,-1.000000,2224.035522,5.055433,2010.158184,1,266.615811,213.877338,72e68d
48-55 96-103,-1.000000,60.973592,2287.171978,424,"",16,-1.000000,2226.198386,4.459341,2015.269933,1,271.902045,210.928452,72e68d
120-127,-1.000000,58.821674,2105.743805,425,"",8,-1.000000,2046.922131,1.447430,2020.603555,1,85.140250,26.318577,72e68d
128-135,-1.000000,58.821674,2110.029662,426,"",8,-1.000000,2051.207988,1.434238,2025.665356,1,84.364305,25.542632,72e68d
32-47,-1.000000,73.293963,2300.945594,427,"",16,-1.000000,2227.651631,3.714086,2028.725519,1,272.220076,198.926112,72e68d
32-47 72-87,-1.000000,51.798427,2710.924043,428,"",32,-1.000000,2659.125615,13.083236,2033.232976,1,677.691067,625.892639,72e68d
16-23 64-71,-1.000000,73.215419,2319.908856,429,"",16,-1.000000,2246.693437,3.857125,2037.507836,1,282.401019,209.185600,72e68d
72-79,-1.000000,90.858554,301.827640,43,"",8,-1.000000,210.969086,1.000000,210.969076,1,90.858564,0.000010,72e68d
104-111,-1.000000,58.821674,2115.096980,430,"",8,-1.000000,2056.275307,1.229760,2042.760431,1,72.336550,13.514876,72e68d
48-55 96-111 120-127,-1.000000,51.697659,2723.092576,431,"",32,-1.000000,2671.394917,13.061818,2047.827175,1,675.265401,623.567742,72e68d
0-7 16-23 64-71 88-95,-1.000000,51.678732,2737.734708,432,"",32,-1.000000,2686.055975,13.264145,2052.260503,1,685.474205,633.795472,72e68d
112-119,-1.000000,58.821674,2131.534621,433,"",8,-1.000000,2072.712948,1.261433,2057.334993,1,74.199628,15.377954,72e68d
24-31,-1.000000,58.821674,2144.646183,434,"",8,-1.000000,2085.824510,1.402221,2062.165206,1,82.480977,23.659303,72e68d
8-15 56-63,-1.000000,73.431618,2331.377877,435,"",16,-1.000000,2257.946259,3.601087,2066.944237,1,264.433640,191.002022,72e68d
8-15 24-31 56-63 112-119,-1.000000,51.764525,2758.013481,436,"",32,-1.000000,2706.248956,13.253069,2071.974676,1,686.038805,634.274280,72e68d
32-47 72-87,-1.000000,51.789098,2762.713215,437,"",32,-1.000000,2710.924118,13.248105,2076.605819,1,686.107397,634.318299,72e68d
120-127,-1.000000,58.821674,2164.565557,438,"",8,-1.000000,2105.743884,1.414123,2081.384502,1,83.181055,24.359381,72e68d
48-55 96-111 120-127,-1.000000,51.728701,2774.821346,439,"",32,-1.000000,2723.092645,13.311288,2086.245733,1,688.575613,636.846912,72e68d
8-23 56-71,-1.000000,36.898484,281.189680,44,"",32,-1.000000,244.291197,1.775162,215.688879,1,65.500801,28.602318,72e68d
128-135,-1.000000,58.821660,2168.851401,440,"",8,-1.000000,2110.029741,1.320624,2091.170131,1,77.681270,18.859610,72e68d
0-7 88-95,-1.000000,51.940879,2328.714949,441,"",16,-1.000000,2276.774071,4.477070,2096.171989,1,232.542960,180.602082,72e68d
72-87,-1.000000,60.211809,2344.506643,442,"",16,-1.000000,2284.294834,4.041434,2101.164609,1,243.342034,183.130225,72e68d
48-55 96-103,-1.000000,60.173441,2347.345488,443,"",16,-1.000000,2287.172047,4.012657,2105.890116,1,241.455372,181.281931,72e68d
104-111,-1.000000,58.821659,2173.918718,444,"",8,-1.000000,2115.097060,1.078129,2110.501353,1,63.417365,4.595706,72e68d
0-7 16-23 64-71 88-95,-1.000000,51.672053,2789.406836,445,"",32,-1.000000,2737.734783,13.054364,2114.861050,1,674.545786,622.873733,72e68d
32-47,-1.000000,73.515669,2374.461328,446,"",16,-1.000000,2300.945659,3.460515,2120.059248,1,254.402079,180.886411,72e68d
16-23 64-71,-1.000000,73.293359,2393.202290,447,"",16,-1.000000,2319.908931,3.657934,2125.100029,1,268.102261,194.808902,72e68d
112-119,-1.000000,58.821674,2190.356374,448,"",8,-1.000000,2131.534701,1.029482,2129.800524,1,60.555850,1.734176,72e68d
24-31,-1.000000,58.821674,2203.467922,449,"",8,-1.000000,2144.646248,1.175675,2134.312754,1,69.155168,10.333495,72e68d
0-7 112-119,-1.000000,53.504175,276.537045,45,"",16,-1.000000,223.032870,1.039848,220.900843,1,55.636202,2.132027,72e68d
0-7 88-95,-1.000000,52.568265,2381.283279,450,"",16,-1.000000,2328.715014,4.603218,2139.300098,1,241.983181,189.414917,72e68d
8-15 56-63,-1.000000,73.440351,2404.818303,451,"",16,-1.000000,2331.377952,3.549576,2144.136217,1,260.682085,187.241735,72e68d
120-127,-1.000000,58.821669,2223.387295,452,"",8,-1.000000,2164.565626,1.265421,2148.953132,1,74.434163,15.612495,72e68d
72-87,-1.000000,60.471577,2404.978289,453,"",16,-1.000000,2344.506712,4.157591,2153.562218,1,251.416071,190.944495,72e68d
48-55 96-103,-1.000000,60.788541,2408.134109,454,"",16,-1.000000,2347.345568,4.112750,2158.126006,1,250.008103,189.219562,72e68d
128-135,-1.000000,58.821674,2227.673154,455,"",8,-1.000000,2168.851480,1.093748,2163.337047,1,64.336107,5.514433,72e68d
32-47,-1.000000,73.577849,2448.039252,456,"",16,-1.000000,2374.461403,3.805330,2168.051252,1,279.988000,206.410150,72e68d
8-15 24-31 56-63 112-119,-1.000000,51.820551,2809.834097,457,"",32,-1.000000,2758.013546,12.295319,2172.683885,1,637.150213,585.329662,72e68d
104-111,-1.000000,58.821674,2235.550198,458,"",8,-1.000000,2176.728524,1.000000,2176.728514,1,58.821684,0.000010,72e68d
112-119,-1.000000,58.821665,2249.178109,459,"",8,-1.000000,2190.356443,1.163547,2180.736344,1,68.441764,9.620099,72e68d
48-55 104-111 120-135,-1.000000,29.546136,290.498555,46,"",32,-1.000000,260.952419,2.169363,226.402275,1,64.096280,34.550144,72e68d
32-47 72-87,-1.000000,51.829798,2814.543078,460,"",32,-1.000000,2762.713280,12.146489,2184.993021,1,629.550057,577.720259,72e68d
48-55 96-111 120-127,-1.000000,51.686180,2826.507595,461,"",32,-1.000000,2774.821415,12.301135,2190.708927,1,635.798669,584.112488,72e68d
24-31,-1.000000,58.821674,2262.289661,462,"",8,-1.000000,2203.467987,1.136595,2195.433233,1,66.856427,8.034754,72e68d
0-7 88-95,-1.000000,52.420420,2433.703774,463,"",16,-1.000000,2381.283354,4.465919,2199.598431,1,234.105343,181.684923,72e68d
120-127,-1.000000,58.821674,2282.209038,464,"",8,-1.000000,2223.387364,1.322350,2204.426223,1,77.782815,18.961141,72e68d
128-135,-1.000000,58.821674,2286.494906,465,"",8,-1.000000,2227.673233,1.329364,2208.299485,1,78.195422,19.373748,72e68d
104-111,-1.000000,58.821647,2294.371924,466,"",8,-1.000000,2235.550277,1.400073,2212.017298,1,82.354626,23.532979,72e68d
112-119,-1.000000,58.821664,2307.999852,467,"",8,-1.000000,2249.178188,1.544050,2217.176238,1,90.823614,32.001949,72e68d
24-31,-1.000000,58.821670,2321.111406,468,"",8,-1.000000,2262.289736,1.688448,2221.794069,1,99.317337,40.495667,72e68d
120-127,-1.000000,58.821666,2341.030783,469,"",8,-1.000000,2282.209117,1.940109,2226.910352,1,114.120431,55.298765,72e68d
32-39 96-103,-1.000000,62.333351,294.929201,47,"",16,-1.000000,232.595850,1.043872,229.861152,1,65.068049,2.734698,72e68d
128-135,-1.000000,58.821657,2345.316633,470,"",8,-1.000000,2286.494975,1.931207,2231.719849,1,113.596783,54.775126,72e68d
16-23 64-71,-1.000000,73.316901,2466.519266,471,"",16,-1.000000,2393.202365,3.132728,2236.837384,1,229.681882,156.364981,72e68d
8-15 56-63,-1.000000,73.257906,2478.076284,472,"",16,-1.000000,2404.818378,3.228034,2241.597305,1,236.478979,163.221073,72e68d
104-111,-1.000000,58.821665,2353.193658,473,"",8,-1.000000,2294.371993,1.847852,2244.499921,1,108.693738,49.872073,72e68d
72-87,-1.000000,60.479041,2465.457399,474,"",16,-1.000000,2404.978358,3.565655,2249.810003,1,215.647396,155.168355,72e68d
112-119,-1.000000,58.821674,2366.821595,475,"",8,-1.000000,2307.999921,1.902860,2254.892183,1,111.929412,53.107738,72e68d
24-31,-1.000000,58.821667,2379.933148,476,"",8,-1.000000,2321.111481,2.045805,2259.595499,1,120.337649,61.515982,72e68d
48-55 96-103,-1.000000,60.077207,2468.211385,477,"",16,-1.000000,2408.134178,3.398208,2264.056551,1,204.154834,144.077627,72e68d
120-127,-1.000000,58.821666,2399.852528,478,"",8,-1.000000,2341.030862,2.224284,2269.016445,1,130.836083,72.014417,72e68d
0-7 16-23 64-71 88-95,-1.000000,51.585264,2840.992165,479,"",32,-1.000000,2789.406901,10.988898,2274.126959,1,566.865206,515.279942,72e68d
80-95,-1.000000,31.599604,276.357673,48,"",16,-1.000000,244.758069,1.305370,235.108498,1,41.249175,9.649572,72e68d
128-135,-1.000000,58.821661,2404.138373,480,"",8,-1.000000,2345.316712,2.123420,2279.235305,1,124.903068,66.081407,72e68d
8-15 24-31 56-63 112-119,-1.000000,51.837414,2861.671576,481,"",32,-1.000000,2809.834162,11.138259,2284.293016,1,577.378560,525.541146,72e68d
32-47 72-87,-1.000000,51.841801,2866.384945,482,"",32,-1.000000,2814.543143,11.134653,2289.144493,1,577.240452,525.398650,72e68d
104-111,-1.000000,58.821674,2412.015411,483,"",8,-1.000000,2353.193738,1.990972,2294.903077,1,117.112334,58.290660,72e68d
112-119,-1.000000,58.821664,2425.643338,484,"",8,-1.000000,2366.821674,2.136284,2299.983544,1,125.659793,66.838130,72e68d
0-7 88-95,-1.000000,52.061951,2485.765790,485,"",16,-1.000000,2433.703839,3.475610,2304.818748,1,180.947041,128.885091,72e68d
24-31,-1.000000,58.821664,2438.754877,486,"",8,-1.000000,2379.933213,2.197831,2309.474779,1,129.280098,70.458434,72e68d
32-47,-1.000000,73.432624,2521.471942,487,"",16,-1.000000,2448.039317,2.814863,2314.769132,1,206.702809,133.270185,72e68d
48-55 96-111 120-127,-1.000000,51.753646,2878.261311,488,"",32,-1.000000,2826.507664,10.787383,2319.974907,1,558.286404,506.532757,72e68d
0-7 16-23 64-71 88-95,-1.000000,51.570071,2892.562301,489,"",32,-1.000000,2840.992230,10.991443,2325.732819,1,566.829482,515.259412,72e68d
80-95,-1.000000,31.599638,307.957390,49,"",16,-1.000000,276.357752,2.159939,239.704104,1,68.253285,36.653648,72e68d
120-127,-1.000000,58.821660,2458.674257,490,"",8,-1.000000,2399.852597,2.179869,2330.450736,1,128.223521,69.401861,72e68d
128-135,-1.000000,58.821668,2462.960110,491,"",8,-1.000000,2404.138442,2.202064,2333.431039,1,129.529071,70.707403,72e68d
72-87,-1.000000,60.116301,2525.573769,492,"",16,-1.000000,2465.457468,3.116224,2338.237920,1,187.335849,127.219548,72e68d
104-111,-1.000000,58.821674,2470.837154,493,"",8,-1.000000,2412.015480,2.171718,2343.093057,1,127.744097,68.922423,72e68d
16-23 64-71,-1.000000,73.663204,2540.182545,494,"",16,-1.000000,2466.519341,2.621827,2347.050373,1,193.132172,119.468968,72e68d
48-55 96-103,-1.000000,60.527492,2528.738946,495,"",16,-1.000000,2468.211454,2.918002,2352.119614,1,176.619332,116.091840,72e68d
8-15 24-31 56-63 112-119,-1.000000,51.764426,2913.436076,496,"",32,-1.000000,2861.671651,10.776875,2355.577350,1,557.858726,506.094301,72e68d
112-119,-1.000000,58.821674,2484.465090,497,"",8,-1.000000,2425.643417,2.109530,2360.378984,1,124.086106,65.264433,72e68d
8-15 56-63,-1.000000,75.635670,2553.712019,498,"",16,-1.000000,2478.076349,2.498874,2364.708028,1,189.003991,113.368321,72e68d
24-31,-1.000000,58.821674,2497.576616,499,"",8,-1.000000,2438.754942,2.168659,2370.012451,1,127.564165,68.742491,72e68d
56-63,-1.000000,58.821667,85.482367,5,"",8,-1.000000,26.660700,1.000000,26.660690,1,58.821677,0.000010,72e68d
0-7 112-119,-1.000000,41.451291,317.988401,50,"",16,-1.000000,276.537110,1.801379,243.318915,1,74.669486,33.218195,72e68d
32-47 72-87,-1.000000,50.745848,2917.130868,500,"",32,-1.000000,2866.385020,10.683061,2375.009865,1,542.121003,491.375155,72e68d
120-127,-1.000000,58.821672,2517.496008,501,"",8,-1.000000,2458.674337,2.339581,2379.877933,1,137.618075,78.796403,72e68d
0-7 88-95,-1.000000,51.922236,2537.688101,502,"",16,-1.000000,2485.765865,2.941230,2384.972858,1,152.715243,100.793007,72e68d
32-47,-1.000000,84.342920,2605.814936,503,"",16,-1.000000,2521.472017,2.555773,2390.253548,1,215.561388,131.218469,72e68d
128-135,-1.000000,58.821674,2521.781862,504,"",8,-1.000000,2462.960189,2.159232,2394.772195,1,127.009668,68.187994,72e68d
72-87,-1.000000,81.750311,2607.324159,505,"",16,-1.000000,2525.573848,2.547859,2399.035933,1,208.288225,126.537915,72e68d
104-111,-1.000000,58.821670,2529.658893,506,"",8,-1.000000,2470.837223,2.148290,2403.292864,1,126.366029,67.544359,72e68d
112-119,-1.000000,58.821674,2543.286833,507,"",8,-1.000000,2484.465159,2.304903,2407.708563,1,135.578270,76.756596,72e68d
48-55 96-111 120-127,-1.000000,44.958626,2923.220016,508,"",32,-1.000000,2878.261390,11.377546,2411.701187,1,511.518828,466.560202,72e68d
24-31,-1.000000,58.821659,2556.398350,509,"",8,-1.000000,2497.576691,2.376460,2416.611056,1,139.787293,80.965634,72e68d
24-31,-1.000000,58.821974,313.361078,51,"",8,-1.000000,254.539103,1.110345,248.048421,1,65.312657,6.490682,72e68d
120-127,-1.000000,58.821668,2576.317745,510,"",8,-1.000000,2517.496077,2.626345,2421.831741,1,154.486004,95.664336,72e68d
0-7 16-23 64-71 88-95,-1.000000,36.416214,2928.978590,511,"",32,-1.000000,2892.562376,13.780522,2427.144164,1,501.834425,465.418212,72e68d
8-23,-1.000000,31.599628,312.789374,52,"",16,-1.000000,281.189745,1.887201,253.154538,1,59.634836,28.035207,72e68d
40-47,-1.000000,58.821957,323.730077,53,"",8,-1.000000,264.908120,1.121287,257.773780,1,65.956297,7.134340,72e68d
56-63,-1.000000,58.821932,340.011678,54,"",8,-1.000000,281.189745,1.321288,262.290966,1,77.720712,18.898779,72e68d
64-71,-1.000000,58.821932,340.011678,55,"",8,-1.000000,281.189745,1.240741,267.028886,1,72.982792,14.160860,72e68d
48-55,-1.000000,58.821925,349.320559,56,"",8,-1.000000,290.498634,1.331610,270.992672,1,78.327887,19.505962,72e68d
32-47 96-103 120-127,-1.000000,22.563514,353.804456,57,"",32,-1.000000,331.240942,3.476913,275.353075,1,78.451381,55.887867,72e68d
104-111,-1.000000,58.821925,349.320559,58,"",8,-1.000000,290.498634,1.165374,280.771020,1,68.549539,9.727614,72e68d
120-135,-1.000000,31.599600,322.098234,59,"",16,-1.000000,290.498634,1.190218,284.487830,1,37.610405,6.010804,72e68d
64-95,-1.000000,22.631324,54.296860,6,"",32,-1.000000,31.665536,1.000000,31.665536,1,22.631324,0.000000,72e68d
32-39 96-103,-1.000000,36.311611,331.240877,60,"",16,-1.000000,294.929266,1.138057,289.916195,1,41.324682,5.013071,72e68d
72-87,-1.000000,32.997724,340.955193,61,"",16,-1.000000,307.957469,1.390106,295.084860,1,45.870333,12.872608,72e68d
8-23,-1.000000,31.599638,344.389087,62,"",16,-1.000000,312.789449,1.402279,300.077564,1,44.311523,12.711885,72e68d
8-23 72-87,-1.000000,29.540501,373.929654,63,"",32,-1.000000,344.389152,2.341005,304.775205,1,69.154449,39.613948,72e68d
88-95,-1.000000,58.821946,368.400792,64,"",8,-1.000000,309.578846,1.000000,309.578836,1,58.821956,0.000010,72e68d
24-31,-1.000000,58.821942,372.525134,65,"",8,-1.000000,313.703191,1.000000,313.703191,1,58.821942,0.000000,72e68d
0-7,-1.000000,58.821949,377.083400,66,"",8,-1.000000,318.261451,1.000000,318.261441,1,58.821959,0.000010,72e68d
112-119,-1.000000,58.821957,381.553363,67,"",8,-1.000000,322.731406,1.000000,322.731396,1,58.821967,0.000010,72e68d
32-55 96-103,-1.000000,29.220432,383.024954,68,"",32,-1.000000,353.804521,1.899876,327.509753,1,55.515200,26.294768,72e68d
128-135,-1.000000,58.821948,390.691188,69,"",8,-1.000000,331.869241,1.000000,331.869231,1,58.821958,0.000010,72e68d
96-103,-1.000000,65.291339,101.165241,7,"",8,-1.000000,35.873902,1.000000,35.873892,1,65.291349,0.000010,72e68d
64-71,-1.000000,58.821938,398.833754,70,"",8,-1.000000,340.011816,1.052557,336.920328,1,61.913426,3.091488,72e68d
56-63,-1.000000,58.821954,400.933811,71,"",8,-1.000000,342.111857,1.000000,342.111847,1,58.821964,0.000010,72e68d
104-111,-1.000000,58.821949,408.142647,72,"",8,-1.000000,349.320697,1.026644,347.753451,1,60.389195,1.567246,72e68d
8-31 72-79,-1.000000,30.673856,404.603585,73,"",32,-1.000000,373.929729,1.726905,351.632760,1,52.970825,22.296968,72e68d
0-7 80-87,-1.000000,58.325260,435.408735,74,"",16,-1.000000,377.083475,1.349094,356.722486,1,78.686249,20.360988,72e68d
120-127,-1.000000,58.821922,420.584572,75,"",8,-1.000000,361.762650,1.000000,361.762650,1,58.821922,0.000000,72e68d
88-95,-1.000000,58.821957,427.222827,76,"",8,-1.000000,368.400871,1.027770,366.767361,1,60.455466,1.633509,72e68d
32-55 96-103,-1.000000,31.777769,414.802797,77,"",32,-1.000000,383.025029,1.361480,371.537989,1,43.264808,11.487040,72e68d
8-31 72-79,-1.000000,30.301226,434.904885,78,"",32,-1.000000,404.603660,1.915204,376.871850,1,58.033036,27.731810,72e68d
56-71,-1.000000,31.599621,432.533501,79,"",16,-1.000000,400.933880,1.605904,381.787542,1,50.745959,19.146338,72e68d
8-23,-1.000000,31.599614,72.790930,8,"",16,-1.000000,41.191316,1.000000,41.191306,1,31.599624,0.000010,72e68d
112-119,-1.000000,58.821933,445.941915,80,"",8,-1.000000,387.119982,1.000000,387.119972,1,58.821943,0.000010,72e68d
32-47,-1.000000,44.736519,459.539382,81,"",16,-1.000000,414.802862,1.509344,392.016595,1,67.522786,22.786267,72e68d
128-135,-1.000000,58.821940,455.960786,82,"",8,-1.000000,397.138845,1.000000,397.138845,1,58.821940,0.000000,72e68d
104-111,-1.000000,58.821957,466.964682,83,"",8,-1.000000,408.142726,1.101750,402.157617,1,64.807065,5.985108,72e68d
48-55,-1.000000,58.821914,473.624776,84,"",8,-1.000000,414.802862,1.138477,406.657353,1,66.967423,8.145509,72e68d
96-103,-1.000000,58.921900,473.724762,85,"",8,-1.000000,414.802862,1.058247,411.370831,1,62.353931,3.432031,72e68d
56-71,-1.000000,31.599634,464.133204,86,"",16,-1.000000,432.533570,1.528704,415.826718,1,48.306486,16.706852,72e68d
120-127,-1.000000,58.821948,479.406590,87,"",8,-1.000000,420.584641,1.008077,420.109555,1,59.297035,0.475087,72e68d
8-23,-1.000000,31.599609,466.504570,88,"",16,-1.000000,434.904961,1.286741,425.844065,1,40.660505,9.060896,72e68d
24-31 72-79,-1.000000,36.440241,471.345201,89,"",16,-1.000000,434.904961,1.131969,430.095994,1,41.249207,4.808966,72e68d
104-119,-1.000000,31.599634,78.042901,9,"",16,-1.000000,46.443267,1.000000,46.443267,1,31.599634,0.000000,72e68d
88-95,-1.000000,58.821942,493.925767,90,"",8,-1.000000,435.103825,1.000000,435.103815,1,58.821952,0.000010,72e68d
0-7,-1.000000,58.821954,498.847179,91,"",8,-1.000000,440.025225,1.000000,440.025215,1,58.821964,0.000010,72e68d
80-87,-1.000000,58.821957,504.492530,92,"",8,-1.000000,445.670574,1.000000,445.670564,1,58.821967,0.000010,72e68d
112-119,-1.000000,58.821950,508.666986,93,"",8,-1.000000,449.845036,1.000000,449.845026,1,58.821960,0.000010,72e68d
128-135,-1.000000,58.821957,514.782821,94,"",8,-1.000000,455.960865,1.015483,455.050096,1,59.732725,0.910768,72e68d
32-39,-1.000000,61.677200,521.216657,95,"",8,-1.000000,459.539457,1.004851,459.240280,1,61.976377,0.299177,72e68d
40-47,-1.000000,58.821951,522.550681,96,"",8,-1.000000,463.728731,1.000000,463.728721,1,58.821961,0.000010,72e68d
8-23,-1.000000,31.599627,500.041296,97,"",16,-1.000000,468.441669,1.000000,468.441659,1,31.599637,0.000010,72e68d
24-31,-1.000000,58.821950,532.552109,98,"",8,-1.000000,473.730159,1.000000,473.730149,1,58.821960,0.000010,72e68d
48-55,-1.000000,58.821956,537.328187,99,"",8,-1.000000,478.506231,1.000000,478.506221,1,58.821966,0.000010,72e68d
