[rank 0] -> graphene-1001.nancy.grid5000.fr
[rank 1] -> graphene-1002.nancy.grid5000.fr
[rank 2] -> graphene-1003.nancy.grid5000.fr
[rank 3] -> graphene-1004.nancy.grid5000.fr
[rank 4] -> graphene-1005.nancy.grid5000.fr
[rank 5] -> graphene-1006.nancy.grid5000.fr
[rank 6] -> graphene-1007.nancy.grid5000.fr
[rank 7] -> graphene-1008.nancy.grid5000.fr
