[rank 0] -> graphene-1001.nancy.grid5000.fr
[rank 1] -> graphene-1002.nancy.grid5000.fr
[rank 2] -> graphene-1003.nancy.grid5000.fr
[rank 3] -> graphene-1004.nancy.grid5000.fr
[rank 4] -> graphene-1005.nancy.grid5000.fr
[rank 5] -> graphene-1006.nancy.grid5000.fr
[rank 6] -> graphene-1007.nancy.grid5000.fr
[rank 7] -> graphene-1008.nancy.grid5000.fr
[rank 8] -> graphene-1009.nancy.grid5000.fr
[rank 9] -> graphene-1010.nancy.grid5000.fr
[rank 10] -> graphene-1011.nancy.grid5000.fr
[rank 11] -> graphene-1012.nancy.grid5000.fr
[rank 12] -> graphene-1013.nancy.grid5000.fr
[rank 13] -> graphene-1014.nancy.grid5000.fr
[rank 14] -> graphene-1015.nancy.grid5000.fr
[rank 15] -> graphene-1016.nancy.grid5000.fr
