[rank 0] -> graphene-1001.nancy.grid5000.fr
[rank 1] -> graphene-1002.nancy.grid5000.fr
[rank 2] -> graphene-1003.nancy.grid5000.fr
[rank 3] -> graphene-1004.nancy.grid5000.fr
[rank 4] -> graphene-1005.nancy.grid5000.fr
[rank 5] -> graphene-1006.nancy.grid5000.fr
[rank 6] -> graphene-1007.nancy.grid5000.fr
[rank 7] -> graphene-1008.nancy.grid5000.fr
[rank 8] -> graphene-1009.nancy.grid5000.fr
[rank 9] -> graphene-1010.nancy.grid5000.fr
[rank 10] -> graphene-1011.nancy.grid5000.fr
[rank 11] -> graphene-1012.nancy.grid5000.fr
[rank 12] -> graphene-1013.nancy.grid5000.fr
[rank 13] -> graphene-1014.nancy.grid5000.fr
[rank 14] -> graphene-1015.nancy.grid5000.fr
[rank 15] -> graphene-1016.nancy.grid5000.fr
[rank 16] -> graphene-1017.nancy.grid5000.fr
[rank 17] -> graphene-1018.nancy.grid5000.fr
[rank 18] -> graphene-1019.nancy.grid5000.fr
[rank 19] -> graphene-1020.nancy.grid5000.fr
[rank 20] -> graphene-1021.nancy.grid5000.fr
[rank 21] -> graphene-1022.nancy.grid5000.fr
[rank 22] -> graphene-1023.nancy.grid5000.fr
[rank 23] -> graphene-1024.nancy.grid5000.fr
[rank 24] -> graphene-1025.nancy.grid5000.fr
[rank 25] -> graphene-1026.nancy.grid5000.fr
[rank 26] -> graphene-1027.nancy.grid5000.fr
[rank 27] -> graphene-1028.nancy.grid5000.fr
[rank 28] -> graphene-1029.nancy.grid5000.fr
[rank 29] -> graphene-1030.nancy.grid5000.fr
[rank 30] -> graphene-1031.nancy.grid5000.fr
[rank 31] -> graphene-1032.nancy.grid5000.fr
