job_id,workload_name,profile,submission_time,requested_number_of_resources,requested_time,success,final_state,starting_time,execution_time,finish_time,waiting_time,turnaround_time,stretch,allocated_resources,consumed_energy,metadata
0,w0,ft.C.8,4.403767,8,-1.000000,1,COMPLETED_SUCCESSFULLY,4.403767,59.000000,63.403767,0.000000,59.000000,1.000000,0-7,-1.000000,""
1,w0,ft.C.16,7.950990,16,-1.000000,1,COMPLETED_SUCCESSFULLY,7.950990,32.300000,40.250990,0.000000,32.300000,1.000000,8-23,-1.000000,""
10,w0,ft.C.8,51.111754,8,-1.000000,1,COMPLETED_SUCCESSFULLY,51.111754,59.000000,110.111754,0.000000,59.000000,1.000000,32-39,-1.000000,""
100,w0,ft.C.8,484.134764,8,-1.000000,1,COMPLETED_SUCCESSFULLY,484.134764,59.000000,543.134764,0.000000,59.000000,1.000000,48-55,-1.000000,""
101,w0,ft.C.32,490.271556,32,-1.000000,1,COMPLETED_SUCCESSFULLY,490.271556,16.430000,506.701556,0.000000,16.430000,1.000000,64-71 80-95 120-127,-1.000000,""
102,w0,ft.C.8,495.457298,8,-1.000000,1,COMPLETED_SUCCESSFULLY,495.457298,59.000000,554.457298,0.000000,59.000000,1.000000,96-103,-1.000000,""
103,w0,ft.C.8,500.460921,8,-1.000000,1,COMPLETED_SUCCESSFULLY,500.460921,59.000000,559.460921,0.000000,59.000000,1.000000,104-111,-1.000000,""
104,w0,ft.C.8,505.148757,8,-1.000000,1,COMPLETED_SUCCESSFULLY,505.148757,59.000000,564.148757,0.000000,59.000000,1.000000,24-31,-1.000000,""
105,w0,ft.C.8,510.414899,8,-1.000000,1,COMPLETED_SUCCESSFULLY,510.414899,59.000000,569.414899,0.000000,59.000000,1.000000,32-39,-1.000000,""
106,w0,ft.C.8,514.834085,8,-1.000000,1,COMPLETED_SUCCESSFULLY,514.834085,59.000000,573.834085,0.000000,59.000000,1.000000,56-63,-1.000000,""
107,w0,ft.C.8,519.821206,8,-1.000000,1,COMPLETED_SUCCESSFULLY,519.821206,59.000000,578.821206,0.000000,59.000000,1.000000,0-7,-1.000000,""
108,w0,ft.C.8,524.133293,8,-1.000000,1,COMPLETED_SUCCESSFULLY,524.133293,59.000000,583.133293,0.000000,59.000000,1.000000,8-15,-1.000000,""
109,w0,ft.C.32,529.525341,32,-1.000000,1,COMPLETED_SUCCESSFULLY,529.525341,16.430000,545.955341,0.000000,16.430000,1.000000,64-95,-1.000000,""
11,w0,ft.C.32,55.248824,32,-1.000000,1,COMPLETED_SUCCESSFULLY,55.248824,16.430000,71.678824,0.000000,16.430000,1.000000,40-47 64-87,-1.000000,""
110,w0,ft.C.8,534.632877,8,-1.000000,1,COMPLETED_SUCCESSFULLY,534.632877,59.000000,593.632877,0.000000,59.000000,1.000000,16-23,-1.000000,""
111,w0,ft.C.16,539.654116,16,-1.000000,1,COMPLETED_SUCCESSFULLY,539.654116,32.300000,571.954116,0.000000,32.300000,1.000000,40-47 112-119,-1.000000,""
112,w0,ft.C.8,544.303976,8,-1.000000,1,COMPLETED_SUCCESSFULLY,544.303976,59.000000,603.303976,0.000000,59.000000,1.000000,48-55,-1.000000,""
113,w0,ft.C.8,549.434842,8,-1.000000,1,COMPLETED_SUCCESSFULLY,549.434842,59.000000,608.434842,0.000000,59.000000,1.000000,64-71,-1.000000,""
114,w0,ft.C.32,554.794891,32,-1.000000,1,COMPLETED_SUCCESSFULLY,554.794891,16.430000,571.224891,0.000000,16.430000,1.000000,72-103,-1.000000,""
115,w0,ft.C.32,559.953041,32,-1.000000,1,COMPLETED_SUCCESSFULLY,564.148805,16.430000,580.578805,4.195764,20.625764,1.255372,24-31 104-111 120-135,-1.000000,""
116,w0,ft.C.8,565.321982,8,-1.000000,1,COMPLETED_SUCCESSFULLY,569.414947,59.000000,628.414947,4.092965,63.092965,1.069372,32-39,-1.000000,""
117,w0,ft.C.32,568.617392,32,-1.000000,1,COMPLETED_SUCCESSFULLY,571.224942,16.430000,587.654942,2.607550,19.037550,1.158707,72-103,-1.000000,""
118,w0,ft.C.16,573.641539,16,-1.000000,1,COMPLETED_SUCCESSFULLY,573.641539,32.300000,605.941539,0.000000,32.300000,1.000000,40-47 112-119,-1.000000,""
119,w0,ft.C.16,578.634311,16,-1.000000,1,COMPLETED_SUCCESSFULLY,578.821254,32.300000,611.121254,0.186943,32.486943,1.005788,0-7 56-63,-1.000000,""
12,w0,ft.C.16,60.678619,16,-1.000000,1,COMPLETED_SUCCESSFULLY,60.678619,32.300000,92.978619,0.000000,32.300000,1.000000,88-95 120-127,-1.000000,""
120,w0,ft.C.32,583.614419,32,-1.000000,1,COMPLETED_SUCCESSFULLY,583.614419,16.430000,600.044419,0.000000,16.430000,1.000000,8-15 24-31 104-111 120-127,-1.000000,""
121,w0,ft.C.8,587.509257,8,-1.000000,1,COMPLETED_SUCCESSFULLY,587.509257,59.000000,646.509257,0.000000,59.000000,1.000000,128-135,-1.000000,""
122,w0,ft.C.8,592.268385,8,-1.000000,1,COMPLETED_SUCCESSFULLY,592.268385,59.000000,651.268385,0.000000,59.000000,1.000000,72-79,-1.000000,""
123,w0,ft.C.8,595.833170,8,-1.000000,1,COMPLETED_SUCCESSFULLY,595.833170,59.000000,654.833170,0.000000,59.000000,1.000000,16-23,-1.000000,""
124,w0,ft.C.32,600.075056,32,-1.000000,1,COMPLETED_SUCCESSFULLY,600.075056,16.430000,616.505056,0.000000,16.430000,1.000000,8-15 24-31 80-95,-1.000000,""
125,w0,ft.C.8,605.325679,8,-1.000000,1,COMPLETED_SUCCESSFULLY,605.325679,59.000000,664.325679,0.000000,59.000000,1.000000,48-55,-1.000000,""
126,w0,ft.C.8,610.675670,8,-1.000000,1,COMPLETED_SUCCESSFULLY,610.675670,59.000000,669.675670,0.000000,59.000000,1.000000,40-47,-1.000000,""
127,w0,ft.C.16,614.702077,16,-1.000000,1,COMPLETED_SUCCESSFULLY,614.702077,32.300000,647.002077,0.000000,32.300000,1.000000,0-7 56-63,-1.000000,""
128,w0,ft.C.16,619.706542,16,-1.000000,1,COMPLETED_SUCCESSFULLY,619.706542,32.300000,652.006542,0.000000,32.300000,1.000000,8-15 24-31,-1.000000,""
129,w0,ft.C.8,625.272785,8,-1.000000,1,COMPLETED_SUCCESSFULLY,625.272785,59.000000,684.272785,0.000000,59.000000,1.000000,64-71,-1.000000,""
13,w0,ft.C.16,65.330319,16,-1.000000,1,COMPLETED_SUCCESSFULLY,65.330319,32.300000,97.630319,0.000000,32.300000,1.000000,0-7 128-135,-1.000000,""
130,w0,ft.C.32,630.212147,32,-1.000000,1,COMPLETED_SUCCESSFULLY,630.212147,16.430000,646.642147,0.000000,16.430000,1.000000,32-39 80-103,-1.000000,""
131,w0,ft.C.32,634.001200,32,-1.000000,1,COMPLETED_SUCCESSFULLY,646.509308,16.430000,662.939308,12.508108,28.938108,1.761297,104-135,-1.000000,""
132,w0,ft.C.8,638.561509,8,-1.000000,1,COMPLETED_SUCCESSFULLY,646.642195,59.000000,705.642195,8.080686,67.080686,1.136961,32-39,-1.000000,""
133,w0,ft.C.8,643.171115,8,-1.000000,1,COMPLETED_SUCCESSFULLY,646.642195,59.000000,705.642195,3.471080,62.471080,1.058832,80-87,-1.000000,""
134,w0,ft.C.32,647.409276,32,-1.000000,1,COMPLETED_SUCCESSFULLY,647.409276,16.430000,663.839276,0.000000,16.430000,1.000000,0-7 56-63 88-103,-1.000000,""
135,w0,ft.C.8,652.156068,8,-1.000000,1,COMPLETED_SUCCESSFULLY,652.156068,59.000000,711.156068,0.000000,59.000000,1.000000,8-15,-1.000000,""
136,w0,ft.C.8,657.288660,8,-1.000000,1,COMPLETED_SUCCESSFULLY,657.288660,59.000000,716.288660,0.000000,59.000000,1.000000,16-23,-1.000000,""
137,w0,ft.C.32,662.095147,32,-1.000000,1,COMPLETED_SUCCESSFULLY,662.939359,16.430000,679.369359,0.844212,17.274212,1.051382,24-31 72-79 104-119,-1.000000,""
138,w0,ft.C.8,666.740818,8,-1.000000,1,COMPLETED_SUCCESSFULLY,666.740818,59.000000,725.740818,0.000000,59.000000,1.000000,0-7,-1.000000,""
139,w0,ft.C.8,670.729781,8,-1.000000,1,COMPLETED_SUCCESSFULLY,670.729781,59.000000,729.729781,0.000000,59.000000,1.000000,40-47,-1.000000,""
14,w0,ft.C.8,71.004578,8,-1.000000,1,COMPLETED_SUCCESSFULLY,71.302093,59.000000,130.302093,0.297515,59.297515,1.005043,24-31,-1.000000,""
140,w0,ft.C.32,675.450002,32,-1.000000,1,COMPLETED_SUCCESSFULLY,675.450002,16.430000,691.880002,0.000000,16.430000,1.000000,48-63 88-103,-1.000000,""
141,w0,ft.C.32,680.123232,32,-1.000000,1,COMPLETED_SUCCESSFULLY,680.123232,16.430000,696.553232,0.000000,16.430000,1.000000,24-31 72-79 104-119,-1.000000,""
142,w0,ft.C.16,685.168330,16,-1.000000,1,COMPLETED_SUCCESSFULLY,685.168330,32.300000,717.468330,0.000000,32.300000,1.000000,64-71 120-127,-1.000000,""
143,w0,ft.C.32,690.220193,32,-1.000000,1,COMPLETED_SUCCESSFULLY,691.880053,16.430000,708.310053,1.659860,18.089860,1.101026,48-63 88-103,-1.000000,""
144,w0,ft.C.32,695.880099,32,-1.000000,1,COMPLETED_SUCCESSFULLY,696.553280,16.430000,712.983280,0.673181,17.103181,1.040973,24-31 72-79 104-119,-1.000000,""
145,w0,ft.C.8,700.063472,8,-1.000000,1,COMPLETED_SUCCESSFULLY,700.063472,59.000000,759.063472,0.000000,59.000000,1.000000,128-135,-1.000000,""
146,w0,ft.C.8,705.032119,8,-1.000000,1,COMPLETED_SUCCESSFULLY,705.642294,59.000000,764.642294,0.610175,59.610175,1.010342,32-39,-1.000000,""
147,w0,ft.C.16,709.286597,16,-1.000000,1,COMPLETED_SUCCESSFULLY,709.286597,32.300000,741.586597,0.000000,32.300000,1.000000,48-63,-1.000000,""
148,w0,ft.C.8,713.884443,8,-1.000000,1,COMPLETED_SUCCESSFULLY,713.884443,59.000000,772.884443,0.000000,59.000000,1.000000,8-15,-1.000000,""
149,w0,ft.C.8,717.840909,8,-1.000000,1,COMPLETED_SUCCESSFULLY,717.840909,59.000000,776.840909,0.000000,59.000000,1.000000,16-23,-1.000000,""
15,w0,ft.C.32,76.198702,32,-1.000000,1,COMPLETED_SUCCESSFULLY,76.198702,16.430000,92.628702,0.000000,16.430000,1.000000,8-23 40-47 64-71,-1.000000,""
150,w0,ft.C.8,722.422016,8,-1.000000,1,COMPLETED_SUCCESSFULLY,722.422016,59.000000,781.422016,0.000000,59.000000,1.000000,24-31,-1.000000,""
151,w0,ft.C.32,727.819405,32,-1.000000,1,COMPLETED_SUCCESSFULLY,727.819405,16.430000,744.249405,0.000000,16.430000,1.000000,0-7 64-87,-1.000000,""
152,w0,ft.C.8,732.992813,8,-1.000000,1,COMPLETED_SUCCESSFULLY,732.992813,59.000000,791.992813,0.000000,59.000000,1.000000,40-47,-1.000000,""
153,w0,ft.C.8,737.344042,8,-1.000000,1,COMPLETED_SUCCESSFULLY,737.344042,59.000000,796.344042,0.000000,59.000000,1.000000,88-95,-1.000000,""
154,w0,ft.C.8,741.988622,8,-1.000000,1,COMPLETED_SUCCESSFULLY,741.988622,59.000000,800.988622,0.000000,59.000000,1.000000,48-55,-1.000000,""
155,w0,ft.C.16,745.846629,16,-1.000000,1,COMPLETED_SUCCESSFULLY,745.846629,32.300000,778.146629,0.000000,32.300000,1.000000,0-7 56-63,-1.000000,""
156,w0,ft.C.8,750.337683,8,-1.000000,1,COMPLETED_SUCCESSFULLY,750.337683,59.000000,809.337683,0.000001,59.000001,1.000000,64-71,-1.000000,""
157,w0,ft.C.8,754.935654,8,-1.000000,1,COMPLETED_SUCCESSFULLY,754.935654,59.000000,813.935654,0.000000,59.000000,1.000000,72-79,-1.000000,""
158,w0,ft.C.8,760.002923,8,-1.000000,1,COMPLETED_SUCCESSFULLY,760.002923,59.000000,819.002923,0.000000,59.000000,1.000000,80-87,-1.000000,""
159,w0,ft.C.32,764.175078,32,-1.000000,1,COMPLETED_SUCCESSFULLY,764.175078,16.430000,780.605078,0.000000,16.430000,1.000000,96-127,-1.000000,""
16,w0,ft.C.32,81.029423,32,-1.000000,1,COMPLETED_SUCCESSFULLY,81.029423,16.430000,97.459423,0.000000,16.430000,1.000000,48-55 72-87 104-111,-1.000000,""
160,w0,ft.C.8,768.923979,8,-1.000000,1,COMPLETED_SUCCESSFULLY,768.923979,59.000000,827.923979,0.000000,59.000000,1.000000,32-39,-1.000000,""
161,w0,ft.C.8,774.028444,8,-1.000000,1,COMPLETED_SUCCESSFULLY,774.028444,59.000000,833.028444,0.000000,59.000000,1.000000,8-15,-1.000000,""
162,w0,ft.C.8,778.684260,8,-1.000000,1,COMPLETED_SUCCESSFULLY,778.684260,59.000000,837.684260,0.000000,59.000000,1.000000,0-7,-1.000000,""
163,w0,ft.C.8,783.811779,8,-1.000000,1,COMPLETED_SUCCESSFULLY,783.811779,59.000000,842.811779,0.000000,59.000000,1.000000,16-23,-1.000000,""
164,w0,ft.C.16,789.288463,16,-1.000000,1,COMPLETED_SUCCESSFULLY,789.288463,32.300000,821.588463,0.000000,32.300000,1.000000,24-31 56-63,-1.000000,""
165,w0,ft.C.8,793.815812,8,-1.000000,1,COMPLETED_SUCCESSFULLY,793.815812,59.000000,852.815812,0.000000,59.000000,1.000000,40-47,-1.000000,""
166,w0,ft.C.16,798.647649,16,-1.000000,1,COMPLETED_SUCCESSFULLY,798.647649,32.300000,830.947649,0.000000,32.300000,1.000000,88-103,-1.000000,""
167,w0,ft.C.32,802.931641,32,-1.000000,1,COMPLETED_SUCCESSFULLY,802.931641,16.430000,819.361641,0.000000,16.430000,1.000000,48-55 104-127,-1.000000,""
168,w0,ft.C.8,807.972366,8,-1.000000,1,COMPLETED_SUCCESSFULLY,807.972366,59.000000,866.972366,0.000000,59.000000,1.000000,128-135,-1.000000,""
169,w0,ft.C.8,813.269117,8,-1.000000,1,COMPLETED_SUCCESSFULLY,813.269117,59.000000,872.269117,0.000000,59.000000,1.000000,64-71,-1.000000,""
17,w0,ft.C.32,85.207201,32,-1.000000,1,COMPLETED_SUCCESSFULLY,92.628750,16.430000,109.058750,7.421549,23.851549,1.451707,8-23 40-47 56-63,-1.000000,""
170,w0,ft.C.32,818.514866,32,-1.000000,1,COMPLETED_SUCCESSFULLY,819.361692,16.430000,835.791692,0.846826,17.276826,1.051541,48-55 72-87 104-111,-1.000000,""
171,w0,ft.C.8,822.997643,8,-1.000000,1,COMPLETED_SUCCESSFULLY,822.997643,59.000000,881.997643,0.000000,59.000000,1.000000,24-31,-1.000000,""
172,w0,ft.C.16,828.293868,16,-1.000000,1,COMPLETED_SUCCESSFULLY,828.293868,32.300000,860.593868,0.000000,32.300000,1.000000,32-39 56-63,-1.000000,""
173,w0,ft.C.32,833.116719,32,-1.000000,1,COMPLETED_SUCCESSFULLY,833.116719,16.430000,849.546719,0.000000,16.430000,1.000000,8-15 88-103 112-119,-1.000000,""
174,w0,ft.C.32,836.731974,32,-1.000000,1,COMPLETED_SUCCESSFULLY,836.731974,16.430000,853.161974,0.000000,16.430000,1.000000,48-55 72-87 104-111,-1.000000,""
175,w0,ft.C.32,841.911250,32,-1.000000,1,COMPLETED_SUCCESSFULLY,849.546767,16.430000,865.976767,7.635517,24.065517,1.464730,0-23 88-95,-1.000000,""
176,w0,ft.C.8,845.278460,8,-1.000000,1,COMPLETED_SUCCESSFULLY,849.546767,59.000000,908.546767,4.268307,63.268307,1.072344,96-103,-1.000000,""
177,w0,ft.C.8,850.230530,8,-1.000000,1,COMPLETED_SUCCESSFULLY,850.230530,59.000000,909.230530,0.000000,59.000000,1.000000,112-119,-1.000000,""
178,w0,ft.C.8,854.063439,8,-1.000000,1,COMPLETED_SUCCESSFULLY,854.063439,59.000000,913.063439,0.000000,59.000000,1.000000,40-47,-1.000000,""
179,w0,ft.C.8,858.723956,8,-1.000000,1,COMPLETED_SUCCESSFULLY,858.723956,59.000000,917.723956,0.000000,59.000000,1.000000,48-55,-1.000000,""
18,w0,ft.C.16,90.162254,16,-1.000000,1,COMPLETED_SUCCESSFULLY,92.628750,32.300000,124.928750,2.466496,34.766496,1.076362,64-71 112-119,-1.000000,""
180,w0,ft.C.8,863.145680,8,-1.000000,1,COMPLETED_SUCCESSFULLY,863.145680,59.000000,922.145680,0.000000,59.000000,1.000000,32-39,-1.000000,""
181,w0,ft.C.16,867.262491,16,-1.000000,1,COMPLETED_SUCCESSFULLY,867.262491,32.300000,899.562491,0.000000,32.300000,1.000000,0-15,-1.000000,""
182,w0,ft.C.8,871.067721,8,-1.000000,1,COMPLETED_SUCCESSFULLY,871.067721,59.000000,930.067721,0.000000,59.000000,1.000000,16-23,-1.000000,""
183,w0,ft.C.16,875.375111,16,-1.000000,1,COMPLETED_SUCCESSFULLY,875.375111,32.300000,907.675111,0.000000,32.300000,1.000000,56-71,-1.000000,""
184,w0,ft.C.8,879.859844,8,-1.000000,1,COMPLETED_SUCCESSFULLY,879.859844,59.000000,938.859844,0.000000,59.000000,1.000000,72-79,-1.000000,""
185,w0,ft.C.8,884.590165,8,-1.000000,1,COMPLETED_SUCCESSFULLY,884.590165,59.000000,943.590165,0.000000,59.000000,1.000000,24-31,-1.000000,""
186,w0,ft.C.32,889.404939,32,-1.000000,1,COMPLETED_SUCCESSFULLY,889.404939,16.430000,905.834939,0.000000,16.430000,1.000000,80-95 104-111 120-127,-1.000000,""
187,w0,ft.C.8,894.650507,8,-1.000000,1,COMPLETED_SUCCESSFULLY,894.650507,59.000000,953.650507,0.000000,59.000000,1.000000,128-135,-1.000000,""
188,w0,ft.C.8,899.533097,8,-1.000000,1,COMPLETED_SUCCESSFULLY,899.562539,59.000000,958.562539,0.029442,59.029442,1.000499,0-7,-1.000000,""
189,w0,ft.C.8,903.750524,8,-1.000000,1,COMPLETED_SUCCESSFULLY,903.750524,59.000000,962.750524,0.000000,59.000000,1.000000,8-15,-1.000000,""
19,w0,ft.C.8,95.549805,8,-1.000000,1,COMPLETED_SUCCESSFULLY,95.549805,59.000000,154.549805,0.000000,59.000000,1.000000,88-95,-1.000000,""
190,w0,ft.C.8,907.624731,8,-1.000000,1,COMPLETED_SUCCESSFULLY,907.624731,59.000000,966.624731,0.000000,59.000000,1.000000,80-87,-1.000000,""
191,w0,ft.C.8,913.215153,8,-1.000000,1,COMPLETED_SUCCESSFULLY,913.215153,59.000000,972.215153,0.000000,59.000000,1.000000,40-47,-1.000000,""
192,w0,ft.C.8,918.790628,8,-1.000000,1,COMPLETED_SUCCESSFULLY,918.790628,59.000000,977.790628,0.000000,59.000000,1.000000,48-55,-1.000000,""
193,w0,ft.C.8,923.326437,8,-1.000000,1,COMPLETED_SUCCESSFULLY,923.326437,59.000000,982.326437,0.000000,59.000000,1.000000,32-39,-1.000000,""
194,w0,ft.C.8,927.764435,8,-1.000000,1,COMPLETED_SUCCESSFULLY,927.764435,59.000000,986.764435,0.000000,59.000000,1.000000,56-63,-1.000000,""
195,w0,ft.C.32,931.888885,32,-1.000000,1,COMPLETED_SUCCESSFULLY,931.888885,16.430000,948.318885,0.000000,16.430000,1.000000,16-23 64-71 88-103,-1.000000,""
196,w0,ft.C.16,937.303838,16,-1.000000,1,COMPLETED_SUCCESSFULLY,937.303838,32.300000,969.603838,0.000000,32.300000,1.000000,104-119,-1.000000,""
197,w0,ft.C.32,943.076599,32,-1.000000,1,COMPLETED_SUCCESSFULLY,948.318933,16.430000,964.748933,5.242335,21.672335,1.319071,16-31 64-79,-1.000000,""
198,w0,ft.C.16,946.556094,16,-1.000000,1,COMPLETED_SUCCESSFULLY,948.318933,32.300000,980.618933,1.762839,34.062839,1.054577,88-103,-1.000000,""
199,w0,ft.C.8,951.528739,8,-1.000000,1,COMPLETED_SUCCESSFULLY,951.528739,59.000000,1010.528739,0.000000,59.000000,1.000000,120-127,-1.000000,""
2,w0,ft.C.8,12.302045,8,-1.000000,1,COMPLETED_SUCCESSFULLY,12.302045,59.000000,71.302045,0.000000,59.000000,1.000000,24-31,-1.000000,""
20,w0,ft.C.16,99.945175,16,-1.000000,1,COMPLETED_SUCCESSFULLY,99.945175,32.300000,132.245175,0.000000,32.300000,1.000000,0-7 48-55,-1.000000,""
200,w0,ft.C.8,955.618046,8,-1.000000,1,COMPLETED_SUCCESSFULLY,955.618046,59.000000,1014.618046,0.000000,59.000000,1.000000,128-135,-1.000000,""
201,w0,ft.C.8,961.003996,8,-1.000000,1,COMPLETED_SUCCESSFULLY,961.003996,59.000000,1020.003996,0.000000,59.000000,1.000000,0-7,-1.000000,""
202,w0,ft.C.32,966.196868,32,-1.000000,1,COMPLETED_SUCCESSFULLY,966.196868,16.430000,982.626868,0.000001,16.430001,1.000000,8-31 64-71,-1.000000,""
203,w0,ft.C.8,970.747062,8,-1.000000,1,COMPLETED_SUCCESSFULLY,970.747062,59.000000,1029.747062,0.000000,59.000000,1.000000,72-79,-1.000000,""
204,w0,ft.C.16,976.070140,16,-1.000000,1,COMPLETED_SUCCESSFULLY,976.070140,32.300000,1008.370140,0.000000,32.300000,1.000000,40-47 80-87,-1.000000,""
205,w0,ft.C.8,981.046143,8,-1.000000,1,COMPLETED_SUCCESSFULLY,981.046143,59.000000,1040.046143,0.000000,59.000000,1.000000,48-55,-1.000000,""
206,w0,ft.C.8,986.082476,8,-1.000000,1,COMPLETED_SUCCESSFULLY,986.082476,59.000000,1045.082476,0.000000,59.000000,1.000000,8-15,-1.000000,""
207,w0,ft.C.16,991.368543,16,-1.000000,1,COMPLETED_SUCCESSFULLY,991.368543,32.300000,1023.668543,0.000000,32.300000,1.000000,16-31,-1.000000,""
208,w0,ft.C.16,996.560155,16,-1.000000,1,COMPLETED_SUCCESSFULLY,996.560155,32.300000,1028.860155,0.000000,32.300000,1.000000,32-39 56-63,-1.000000,""
209,w0,ft.C.8,1001.573476,8,-1.000000,1,COMPLETED_SUCCESSFULLY,1001.573476,59.000000,1060.573476,0.000000,59.000000,1.000000,64-71,-1.000000,""
21,w0,ft.C.8,105.215463,8,-1.000000,1,COMPLETED_SUCCESSFULLY,105.215463,59.000000,164.215463,0.000000,59.000000,1.000000,72-79,-1.000000,""
210,w0,ft.C.16,1005.436445,16,-1.000000,1,COMPLETED_SUCCESSFULLY,1005.436445,32.300000,1037.736445,0.000000,32.300000,1.000000,88-103,-1.000000,""
211,w0,ft.C.8,1009.969088,8,-1.000000,1,COMPLETED_SUCCESSFULLY,1009.969088,59.000000,1068.969088,0.000000,59.000000,1.000000,40-47,-1.000000,""
212,w0,ft.C.32,1015.668586,32,-1.000000,1,COMPLETED_SUCCESSFULLY,1015.668586,16.430000,1032.098586,0.000000,16.430000,1.000000,80-87 104-127,-1.000000,""
213,w0,ft.C.8,1019.748008,8,-1.000000,1,COMPLETED_SUCCESSFULLY,1019.748008,59.000000,1078.748008,0.000000,59.000000,1.000000,128-135,-1.000000,""
214,w0,ft.C.8,1024.240349,8,-1.000000,1,COMPLETED_SUCCESSFULLY,1024.240349,59.000000,1083.240349,0.000000,59.000000,1.000000,0-7,-1.000000,""
215,w0,ft.C.8,1029.057997,8,-1.000000,1,COMPLETED_SUCCESSFULLY,1029.057997,59.000000,1088.057997,0.000000,59.000000,1.000000,16-23,-1.000000,""
216,w0,ft.C.8,1033.874398,8,-1.000000,1,COMPLETED_SUCCESSFULLY,1033.874398,59.000000,1092.874398,0.000000,59.000000,1.000000,24-31,-1.000000,""
217,w0,ft.C.8,1037.579193,8,-1.000000,1,COMPLETED_SUCCESSFULLY,1037.579193,59.000000,1096.579193,0.000000,59.000000,1.000000,32-39,-1.000000,""
218,w0,ft.C.8,1041.680024,8,-1.000000,1,COMPLETED_SUCCESSFULLY,1041.680024,59.000000,1100.680024,0.000000,59.000000,1.000000,48-55,-1.000000,""
219,w0,ft.C.8,1045.357805,8,-1.000000,1,COMPLETED_SUCCESSFULLY,1045.357805,59.000000,1104.357805,0.000000,59.000000,1.000000,8-15,-1.000000,""
22,w0,ft.C.8,110.725999,8,-1.000000,1,COMPLETED_SUCCESSFULLY,110.725999,59.000000,169.725999,0.000000,59.000000,1.000000,8-15,-1.000000,""
220,w0,ft.C.8,1049.917102,8,-1.000000,1,COMPLETED_SUCCESSFULLY,1049.917102,59.000000,1108.917102,0.000000,59.000000,1.000000,56-63,-1.000000,""
221,w0,ft.C.8,1054.865096,8,-1.000000,1,COMPLETED_SUCCESSFULLY,1054.865096,59.000000,1113.865096,0.000000,59.000000,1.000000,72-79,-1.000000,""
222,w0,ft.C.8,1059.971148,8,-1.000000,1,COMPLETED_SUCCESSFULLY,1059.971148,59.000000,1118.971148,0.000000,59.000000,1.000000,80-87,-1.000000,""
223,w0,ft.C.8,1064.199215,8,-1.000000,1,COMPLETED_SUCCESSFULLY,1064.199215,59.000000,1123.199215,0.000000,59.000000,1.000000,64-71,-1.000000,""
224,w0,ft.C.16,1068.361735,16,-1.000000,1,COMPLETED_SUCCESSFULLY,1068.361735,32.300000,1100.661735,0.000000,32.300000,1.000000,88-103,-1.000000,""
225,w0,ft.C.8,1072.642683,8,-1.000000,1,COMPLETED_SUCCESSFULLY,1072.642683,59.000000,1131.642683,0.000000,59.000000,1.000000,40-47,-1.000000,""
226,w0,ft.C.8,1078.017971,8,-1.000000,1,COMPLETED_SUCCESSFULLY,1078.017971,59.000000,1137.017971,0.000000,59.000000,1.000000,104-111,-1.000000,""
227,w0,ft.C.8,1082.863881,8,-1.000000,1,COMPLETED_SUCCESSFULLY,1082.863881,59.000000,1141.863881,0.000000,59.000000,1.000000,112-119,-1.000000,""
228,w0,ft.C.8,1087.627064,8,-1.000000,1,COMPLETED_SUCCESSFULLY,1087.627064,59.000000,1146.627064,0.000000,59.000000,1.000000,0-7,-1.000000,""
229,w0,ft.C.8,1092.597175,8,-1.000000,1,COMPLETED_SUCCESSFULLY,1092.597175,59.000000,1151.597175,0.000000,59.000000,1.000000,16-23,-1.000000,""
23,w0,ft.C.16,115.457999,16,-1.000000,1,COMPLETED_SUCCESSFULLY,115.457999,32.300000,147.757999,0.000000,32.300000,1.000000,16-23 32-39,-1.000000,""
230,w0,ft.C.8,1097.795258,8,-1.000000,1,COMPLETED_SUCCESSFULLY,1097.795258,59.000000,1156.795258,0.000000,59.000000,1.000000,24-31,-1.000000,""
231,w0,ft.C.32,1102.335708,32,-1.000000,1,COMPLETED_SUCCESSFULLY,1102.335708,16.430000,1118.765708,0.000000,16.430000,1.000000,32-39 48-55 88-103,-1.000000,""
232,w0,ft.C.16,1107.256313,16,-1.000000,1,COMPLETED_SUCCESSFULLY,1107.256313,32.300000,1139.556313,0.000000,32.300000,1.000000,8-15 120-127,-1.000000,""
233,w0,ft.C.16,1112.530596,16,-1.000000,1,COMPLETED_SUCCESSFULLY,1112.530596,32.300000,1144.830596,0.000000,32.300000,1.000000,56-63 128-135,-1.000000,""
234,w0,ft.C.16,1117.563142,16,-1.000000,1,COMPLETED_SUCCESSFULLY,1118.765756,32.300000,1151.065756,1.202614,33.502614,1.037233,32-39 48-55,-1.000000,""
235,w0,ft.C.16,1123.085968,16,-1.000000,1,COMPLETED_SUCCESSFULLY,1123.085968,32.300000,1155.385968,0.000000,32.300000,1.000000,72-87,-1.000000,""
236,w0,ft.C.8,1127.484664,8,-1.000000,1,COMPLETED_SUCCESSFULLY,1127.484664,59.000000,1186.484664,0.000000,59.000000,1.000000,64-71,-1.000000,""
237,w0,ft.C.16,1131.218404,16,-1.000000,1,COMPLETED_SUCCESSFULLY,1131.218404,32.300000,1163.518404,0.000000,32.300000,1.000000,88-103,-1.000000,""
238,w0,ft.C.32,1136.006873,32,-1.000000,1,COMPLETED_SUCCESSFULLY,1139.556361,16.430000,1155.986361,3.549489,19.979489,1.216037,8-15 40-47 104-111 120-127,-1.000000,""
239,w0,ft.C.8,1141.474373,8,-1.000000,1,COMPLETED_SUCCESSFULLY,1141.863932,59.000000,1200.863932,0.389559,59.389559,1.006603,112-119,-1.000000,""
24,w0,ft.C.8,119.268960,8,-1.000000,1,COMPLETED_SUCCESSFULLY,119.268960,59.000000,178.268960,0.000000,59.000000,1.000000,40-47,-1.000000,""
240,w0,ft.C.8,1146.857777,8,-1.000000,1,COMPLETED_SUCCESSFULLY,1146.857777,59.000000,1205.857777,0.000000,59.000000,1.000000,0-7,-1.000000,""
241,w0,ft.C.8,1152.190408,8,-1.000000,1,COMPLETED_SUCCESSFULLY,1152.190408,59.000000,1211.190408,0.000000,59.000000,1.000000,16-23,-1.000000,""
242,w0,ft.C.8,1156.754333,8,-1.000000,1,COMPLETED_SUCCESSFULLY,1156.754333,59.000000,1215.754333,0.000000,59.000000,1.000000,8-15,-1.000000,""
243,w0,ft.C.32,1160.021346,32,-1.000000,1,COMPLETED_SUCCESSFULLY,1160.021346,16.430000,1176.451346,0.000001,16.430001,1.000000,24-55,-1.000000,""
244,w0,ft.C.8,1165.310460,8,-1.000000,1,COMPLETED_SUCCESSFULLY,1165.310460,59.000000,1224.310460,0.000000,59.000000,1.000000,56-63,-1.000000,""
245,w0,ft.C.8,1169.576222,8,-1.000000,1,COMPLETED_SUCCESSFULLY,1169.576222,59.000000,1228.576222,0.000000,59.000000,1.000000,72-79,-1.000000,""
246,w0,ft.C.32,1174.013777,32,-1.000000,1,COMPLETED_SUCCESSFULLY,1174.013777,16.430000,1190.443777,0.000000,16.430000,1.000000,80-111,-1.000000,""
247,w0,ft.C.16,1178.697180,16,-1.000000,1,COMPLETED_SUCCESSFULLY,1178.697180,32.300000,1210.997180,0.000000,32.300000,1.000000,24-39,-1.000000,""
248,w0,ft.C.8,1183.777221,8,-1.000000,1,COMPLETED_SUCCESSFULLY,1183.777221,59.000000,1242.777221,0.000000,59.000000,1.000000,40-47,-1.000000,""
249,w0,ft.C.32,1188.632512,32,-1.000000,1,COMPLETED_SUCCESSFULLY,1188.632512,16.430000,1205.062512,0.000000,16.430000,1.000000,48-55 64-71 120-135,-1.000000,""
25,w0,ft.C.8,123.638803,8,-1.000000,1,COMPLETED_SUCCESSFULLY,123.638803,59.000000,182.638803,0.000000,59.000000,1.000000,56-63,-1.000000,""
250,w0,ft.C.8,1192.429299,8,-1.000000,1,COMPLETED_SUCCESSFULLY,1192.429299,59.000000,1251.429299,0.000000,59.000000,1.000000,80-87,-1.000000,""
251,w0,ft.C.8,1196.640845,8,-1.000000,1,COMPLETED_SUCCESSFULLY,1196.640845,59.000000,1255.640845,0.000000,59.000000,1.000000,88-95,-1.000000,""
252,w0,ft.C.32,1201.758566,32,-1.000000,1,COMPLETED_SUCCESSFULLY,1205.062563,16.430000,1221.492563,3.303997,19.733997,1.201095,48-55 64-71 96-111,-1.000000,""
253,w0,ft.C.8,1206.596983,8,-1.000000,1,COMPLETED_SUCCESSFULLY,1206.596983,59.000000,1265.596983,0.000000,59.000000,1.000000,0-7,-1.000000,""
254,w0,ft.C.8,1211.652651,8,-1.000000,1,COMPLETED_SUCCESSFULLY,1211.652651,59.000000,1270.652651,0.000000,59.000000,1.000000,16-23,-1.000000,""
255,w0,ft.C.8,1217.434939,8,-1.000000,1,COMPLETED_SUCCESSFULLY,1217.434939,59.000000,1276.434939,0.000000,59.000000,1.000000,8-15,-1.000000,""
256,w0,ft.C.8,1222.629635,8,-1.000000,1,COMPLETED_SUCCESSFULLY,1222.629635,59.000000,1281.629635,0.000000,59.000000,1.000000,24-31,-1.000000,""
257,w0,ft.C.8,1227.376807,8,-1.000000,1,COMPLETED_SUCCESSFULLY,1227.376807,59.000000,1286.376807,0.000000,59.000000,1.000000,32-39,-1.000000,""
258,w0,ft.C.32,1232.446297,32,-1.000000,1,COMPLETED_SUCCESSFULLY,1232.446297,16.430000,1248.876297,0.000000,16.430000,1.000000,48-79,-1.000000,""
259,w0,ft.C.16,1236.511703,16,-1.000000,1,COMPLETED_SUCCESSFULLY,1236.511703,32.300000,1268.811703,0.000000,32.300000,1.000000,96-111,-1.000000,""
26,w0,ft.C.8,128.765773,8,-1.000000,1,COMPLETED_SUCCESSFULLY,128.765773,59.000000,187.765773,0.000000,59.000000,1.000000,64-71,-1.000000,""
260,w0,ft.C.32,1241.645186,32,-1.000000,1,COMPLETED_SUCCESSFULLY,1242.777272,16.430000,1259.207272,1.132086,17.562086,1.068904,40-47 112-135,-1.000000,""
261,w0,ft.C.16,1246.928009,16,-1.000000,1,COMPLETED_SUCCESSFULLY,1248.876348,32.300000,1281.176348,1.948340,34.248340,1.060320,48-63,-1.000000,""
262,w0,ft.C.8,1251.904681,8,-1.000000,1,COMPLETED_SUCCESSFULLY,1251.904681,59.000000,1310.904681,0.000000,59.000000,1.000000,64-71,-1.000000,""
263,w0,ft.C.8,1256.308120,8,-1.000000,1,COMPLETED_SUCCESSFULLY,1256.308120,59.000000,1315.308120,0.000000,59.000000,1.000000,72-79,-1.000000,""
264,w0,ft.C.8,1260.446803,8,-1.000000,1,COMPLETED_SUCCESSFULLY,1260.446803,59.000000,1319.446803,0.000000,59.000000,1.000000,40-47,-1.000000,""
265,w0,ft.C.16,1264.833787,16,-1.000000,1,COMPLETED_SUCCESSFULLY,1264.833787,32.300000,1297.133787,0.000000,32.300000,1.000000,80-95,-1.000000,""
266,w0,ft.C.8,1268.625465,8,-1.000000,1,COMPLETED_SUCCESSFULLY,1268.625465,59.000000,1327.625465,0.000000,59.000000,1.000000,0-7,-1.000000,""
267,w0,ft.C.32,1273.713947,32,-1.000000,1,COMPLETED_SUCCESSFULLY,1273.713947,16.430000,1290.143947,0.000000,16.430000,1.000000,16-23 96-119,-1.000000,""
268,w0,ft.C.16,1279.185365,16,-1.000000,1,COMPLETED_SUCCESSFULLY,1279.185365,32.300000,1311.485365,0.000000,32.300000,1.000000,8-15 120-127,-1.000000,""
269,w0,ft.C.8,1283.609809,8,-1.000000,1,COMPLETED_SUCCESSFULLY,1283.609809,59.000000,1342.609809,0.000000,59.000000,1.000000,24-31,-1.000000,""
27,w0,ft.C.8,133.539465,8,-1.000000,1,COMPLETED_SUCCESSFULLY,133.539465,59.000000,192.539465,0.000000,59.000000,1.000000,0-7,-1.000000,""
270,w0,ft.C.8,1287.336518,8,-1.000000,1,COMPLETED_SUCCESSFULLY,1287.336518,59.000000,1346.336518,0.000000,59.000000,1.000000,32-39,-1.000000,""
271,w0,ft.C.32,1292.127731,32,-1.000000,1,COMPLETED_SUCCESSFULLY,1292.127731,16.430000,1308.557731,0.000000,16.430000,1.000000,16-23 48-63 96-103,-1.000000,""
272,w0,ft.C.16,1296.459149,16,-1.000000,1,COMPLETED_SUCCESSFULLY,1296.459149,32.300000,1328.759149,0.000000,32.300000,1.000000,104-119,-1.000000,""
273,w0,ft.C.16,1301.350729,16,-1.000000,1,COMPLETED_SUCCESSFULLY,1301.350729,32.300000,1333.650729,0.000000,32.300000,1.000000,80-95,-1.000000,""
274,w0,ft.C.16,1305.876022,16,-1.000000,1,COMPLETED_SUCCESSFULLY,1308.557779,32.300000,1340.857779,2.681758,34.981758,1.083027,16-23 48-55,-1.000000,""
275,w0,ft.C.16,1310.052527,16,-1.000000,1,COMPLETED_SUCCESSFULLY,1310.052527,32.300000,1342.352527,0.000000,32.300000,1.000000,56-63 96-103,-1.000000,""
276,w0,ft.C.32,1314.481658,32,-1.000000,1,COMPLETED_SUCCESSFULLY,1314.481658,16.430000,1330.911658,0.000000,16.430000,1.000000,8-15 64-71 120-135,-1.000000,""
277,w0,ft.C.8,1319.622284,8,-1.000000,1,COMPLETED_SUCCESSFULLY,1319.622284,59.000000,1378.622284,0.000000,59.000000,1.000000,40-47,-1.000000,""
278,w0,ft.C.8,1324.475430,8,-1.000000,1,COMPLETED_SUCCESSFULLY,1324.475430,59.000000,1383.475430,0.000000,59.000000,1.000000,72-79,-1.000000,""
279,w0,ft.C.8,1327.603459,8,-1.000000,1,COMPLETED_SUCCESSFULLY,1327.625513,59.000000,1386.625513,0.022054,59.022054,1.000374,0-7,-1.000000,""
28,w0,ft.C.32,137.328922,32,-1.000000,1,COMPLETED_SUCCESSFULLY,137.328922,16.430000,153.758922,0.000000,16.430000,1.000000,24-31 48-55 80-87 96-103,-1.000000,""
280,w0,ft.C.8,1332.640550,8,-1.000000,1,COMPLETED_SUCCESSFULLY,1332.640550,59.000000,1391.640550,0.000000,59.000000,1.000000,8-15,-1.000000,""
281,w0,ft.C.8,1337.509854,8,-1.000000,1,COMPLETED_SUCCESSFULLY,1337.509854,59.000000,1396.509854,0.000000,59.000000,1.000000,64-71,-1.000000,""
282,w0,ft.C.16,1341.530998,16,-1.000000,1,COMPLETED_SUCCESSFULLY,1341.530998,32.300000,1373.830998,0.000000,32.300000,1.000000,16-23 48-55,-1.000000,""
283,w0,ft.C.16,1345.426097,16,-1.000000,1,COMPLETED_SUCCESSFULLY,1345.426097,32.300000,1377.726097,0.000000,32.300000,1.000000,24-31 56-63,-1.000000,""
284,w0,ft.C.8,1350.069198,8,-1.000000,1,COMPLETED_SUCCESSFULLY,1350.069198,59.000000,1409.069198,0.000000,59.000000,1.000000,32-39,-1.000000,""
285,w0,ft.C.8,1355.166896,8,-1.000000,1,COMPLETED_SUCCESSFULLY,1355.166896,59.000000,1414.166896,0.000000,59.000000,1.000000,80-87,-1.000000,""
286,w0,ft.C.8,1360.589690,8,-1.000000,1,COMPLETED_SUCCESSFULLY,1360.589690,59.000000,1419.589690,0.000000,59.000000,1.000000,88-95,-1.000000,""
287,w0,ft.C.16,1365.045923,16,-1.000000,1,COMPLETED_SUCCESSFULLY,1365.045923,32.300000,1397.345923,0.000000,32.300000,1.000000,96-111,-1.000000,""
288,w0,ft.C.8,1368.347992,8,-1.000000,1,COMPLETED_SUCCESSFULLY,1368.347992,59.000000,1427.347992,0.000000,59.000000,1.000000,112-119,-1.000000,""
289,w0,ft.C.32,1373.259411,32,-1.000000,1,COMPLETED_SUCCESSFULLY,1373.831046,16.430000,1390.261046,0.571635,17.001635,1.034792,16-23 48-55 120-135,-1.000000,""
29,w0,ft.C.8,141.799425,8,-1.000000,1,COMPLETED_SUCCESSFULLY,141.799425,59.000000,200.799425,0.000000,59.000000,1.000000,104-111,-1.000000,""
290,w0,ft.C.8,1378.487784,8,-1.000000,1,COMPLETED_SUCCESSFULLY,1378.487784,59.000000,1437.487784,0.000000,59.000000,1.000000,24-31,-1.000000,""
291,w0,ft.C.8,1382.230247,8,-1.000000,1,COMPLETED_SUCCESSFULLY,1382.230247,59.000000,1441.230247,0.000000,59.000000,1.000000,40-47,-1.000000,""
292,w0,ft.C.32,1385.752237,32,-1.000000,1,COMPLETED_SUCCESSFULLY,1390.261094,16.430000,1406.691094,4.508857,20.938857,1.274428,0-7 16-23 48-63,-1.000000,""
293,w0,ft.C.8,1390.475075,8,-1.000000,1,COMPLETED_SUCCESSFULLY,1390.475075,59.000000,1449.475075,0.000000,59.000000,1.000000,72-79,-1.000000,""
294,w0,ft.C.16,1395.674688,16,-1.000000,1,COMPLETED_SUCCESSFULLY,1395.674688,32.300000,1427.974688,0.000000,32.300000,1.000000,8-15 120-127,-1.000000,""
295,w0,ft.C.32,1399.676431,32,-1.000000,1,COMPLETED_SUCCESSFULLY,1399.676431,16.430000,1416.106431,0.000000,16.430000,1.000000,64-71 96-111 128-135,-1.000000,""
296,w0,ft.C.8,1403.155630,8,-1.000000,1,COMPLETED_SUCCESSFULLY,1406.691142,59.000000,1465.691142,3.535513,62.535513,1.059924,0-7,-1.000000,""
297,w0,ft.C.8,1406.379466,8,-1.000000,1,COMPLETED_SUCCESSFULLY,1406.691142,59.000000,1465.691142,0.311676,59.311676,1.005283,16-23,-1.000000,""
298,w0,ft.C.16,1411.298018,16,-1.000000,1,COMPLETED_SUCCESSFULLY,1411.298018,32.300000,1443.598018,0.000000,32.300000,1.000000,32-39 48-55,-1.000000,""
299,w0,ft.C.8,1415.763602,8,-1.000000,1,COMPLETED_SUCCESSFULLY,1415.763602,59.000000,1474.763602,0.000000,59.000000,1.000000,56-63,-1.000000,""
3,w0,ft.C.16,17.481270,16,-1.000000,1,COMPLETED_SUCCESSFULLY,17.481270,32.300000,49.781270,0.000000,32.300000,1.000000,32-47,-1.000000,""
30,w0,ft.C.8,147.462451,8,-1.000000,1,COMPLETED_SUCCESSFULLY,147.462451,59.000000,206.462451,0.000000,59.000000,1.000000,112-119,-1.000000,""
300,w0,ft.C.16,1420.524203,16,-1.000000,1,COMPLETED_SUCCESSFULLY,1420.524203,32.300000,1452.824203,0.000000,32.300000,1.000000,64-71 80-87,-1.000000,""
301,w0,ft.C.8,1425.314874,8,-1.000000,1,COMPLETED_SUCCESSFULLY,1425.314874,59.000000,1484.314874,0.000000,59.000000,1.000000,88-95,-1.000000,""
302,w0,ft.C.16,1430.585960,16,-1.000000,1,COMPLETED_SUCCESSFULLY,1430.585960,32.300000,1462.885960,0.000000,32.300000,1.000000,8-15 96-103,-1.000000,""
303,w0,ft.C.8,1435.654034,8,-1.000000,1,COMPLETED_SUCCESSFULLY,1435.654034,59.000000,1494.654034,0.000000,59.000000,1.000000,104-111,-1.000000,""
304,w0,ft.C.8,1440.929319,8,-1.000000,1,COMPLETED_SUCCESSFULLY,1440.929319,59.000000,1499.929319,0.000000,59.000000,1.000000,24-31,-1.000000,""
305,w0,ft.C.16,1445.064944,16,-1.000000,1,COMPLETED_SUCCESSFULLY,1445.064944,32.300000,1477.364944,0.000000,32.300000,1.000000,32-47,-1.000000,""
306,w0,ft.C.8,1449.945041,8,-1.000000,1,COMPLETED_SUCCESSFULLY,1449.945041,59.000000,1508.945041,0.000000,59.000000,1.000000,48-55,-1.000000,""
307,w0,ft.C.16,1453.975462,16,-1.000000,1,COMPLETED_SUCCESSFULLY,1453.975462,32.300000,1486.275462,0.000000,32.300000,1.000000,64-79,-1.000000,""
308,w0,ft.C.8,1459.627286,8,-1.000000,1,COMPLETED_SUCCESSFULLY,1459.627286,59.000000,1518.627286,0.000000,59.000000,1.000000,80-87,-1.000000,""
309,w0,ft.C.8,1464.370462,8,-1.000000,1,COMPLETED_SUCCESSFULLY,1464.370462,59.000000,1523.370462,0.000000,59.000000,1.000000,8-15,-1.000000,""
31,w0,ft.C.16,152.551332,16,-1.000000,1,COMPLETED_SUCCESSFULLY,152.551332,32.300000,184.851332,0.000000,32.300000,1.000000,16-23 32-39,-1.000000,""
310,w0,ft.C.8,1470.359155,8,-1.000000,1,COMPLETED_SUCCESSFULLY,1470.359155,59.000000,1529.359155,0.000000,59.000000,1.000000,0-7,-1.000000,""
311,w0,ft.C.8,1474.415112,8,-1.000000,1,COMPLETED_SUCCESSFULLY,1474.415112,59.000000,1533.415112,0.000000,59.000000,1.000000,16-23,-1.000000,""
312,w0,ft.C.8,1478.958814,8,-1.000000,1,COMPLETED_SUCCESSFULLY,1478.958814,59.000000,1537.958814,0.000000,59.000000,1.000000,32-39,-1.000000,""
313,w0,ft.C.16,1484.472322,16,-1.000000,1,COMPLETED_SUCCESSFULLY,1484.472322,32.300000,1516.772322,0.000000,32.300000,1.000000,40-47 56-63,-1.000000,""
314,w0,ft.C.16,1489.036766,16,-1.000000,1,COMPLETED_SUCCESSFULLY,1489.036766,32.300000,1521.336766,0.000000,32.300000,1.000000,64-79,-1.000000,""
315,w0,ft.C.32,1494.048140,32,-1.000000,1,COMPLETED_SUCCESSFULLY,1494.048140,16.430000,1510.478140,0.000000,16.430000,1.000000,88-103 112-127,-1.000000,""
316,w0,ft.C.8,1498.796811,8,-1.000000,1,COMPLETED_SUCCESSFULLY,1498.796811,59.000000,1557.796811,0.000000,59.000000,1.000000,104-111,-1.000000,""
317,w0,ft.C.8,1503.114172,8,-1.000000,1,COMPLETED_SUCCESSFULLY,1503.114172,59.000000,1562.114172,0.000000,59.000000,1.000000,24-31,-1.000000,""
318,w0,ft.C.16,1507.410645,16,-1.000000,1,COMPLETED_SUCCESSFULLY,1508.945092,32.300000,1541.245092,1.534447,33.834447,1.047506,48-55 128-135,-1.000000,""
319,w0,ft.C.8,1511.473225,8,-1.000000,1,COMPLETED_SUCCESSFULLY,1511.473225,59.000000,1570.473225,0.000000,59.000000,1.000000,88-95,-1.000000,""
32,w0,ft.C.16,157.055578,16,-1.000000,1,COMPLETED_SUCCESSFULLY,157.055578,32.300000,189.355578,0.000000,32.300000,1.000000,24-31 48-55,-1.000000,""
320,w0,ft.C.16,1516.424872,16,-1.000000,1,COMPLETED_SUCCESSFULLY,1516.424872,32.300000,1548.724872,0.000000,32.300000,1.000000,96-103 112-119,-1.000000,""
321,w0,ft.C.8,1521.429469,8,-1.000000,1,COMPLETED_SUCCESSFULLY,1521.429469,59.000000,1580.429469,0.000000,59.000000,1.000000,40-47,-1.000000,""
322,w0,ft.C.16,1526.324900,16,-1.000000,1,COMPLETED_SUCCESSFULLY,1526.324900,32.300000,1558.624900,0.000000,32.300000,1.000000,8-15 56-63,-1.000000,""
323,w0,ft.C.8,1531.640731,8,-1.000000,1,COMPLETED_SUCCESSFULLY,1531.640731,59.000000,1590.640731,0.000000,59.000000,1.000000,0-7,-1.000000,""
324,w0,ft.C.8,1536.712960,8,-1.000000,1,COMPLETED_SUCCESSFULLY,1536.712960,59.000000,1595.712960,0.000000,59.000000,1.000000,16-23,-1.000000,""
325,w0,ft.C.8,1541.949975,8,-1.000000,1,COMPLETED_SUCCESSFULLY,1541.949975,59.000000,1600.949975,0.000000,59.000000,1.000000,32-39,-1.000000,""
326,w0,ft.C.32,1546.838354,32,-1.000000,1,COMPLETED_SUCCESSFULLY,1546.838354,16.430000,1563.268354,0.000000,16.430000,1.000000,48-55 64-87,-1.000000,""
327,w0,ft.C.16,1551.587253,16,-1.000000,1,COMPLETED_SUCCESSFULLY,1551.587253,32.300000,1583.887253,0.000000,32.300000,1.000000,96-103 112-119,-1.000000,""
328,w0,ft.C.16,1556.939012,16,-1.000000,1,COMPLETED_SUCCESSFULLY,1556.939012,32.300000,1589.239012,0.000000,32.300000,1.000000,120-135,-1.000000,""
329,w0,ft.C.8,1562.158416,8,-1.000000,1,COMPLETED_SUCCESSFULLY,1562.158416,59.000000,1621.158416,0.000000,59.000000,1.000000,8-15,-1.000000,""
33,w0,ft.C.8,160.771810,8,-1.000000,1,COMPLETED_SUCCESSFULLY,160.771810,59.000000,219.771810,0.000000,59.000000,1.000000,80-87,-1.000000,""
330,w0,ft.C.8,1566.710322,8,-1.000000,1,COMPLETED_SUCCESSFULLY,1566.710322,59.000000,1625.710322,0.000000,59.000000,1.000000,24-31,-1.000000,""
331,w0,ft.C.8,1572.299228,8,-1.000000,1,COMPLETED_SUCCESSFULLY,1572.299228,59.000000,1631.299228,0.000000,59.000000,1.000000,48-55,-1.000000,""
332,w0,ft.C.8,1576.423222,8,-1.000000,1,COMPLETED_SUCCESSFULLY,1576.423222,59.000000,1635.423222,0.000000,59.000000,1.000000,56-63,-1.000000,""
333,w0,ft.C.16,1582.283388,16,-1.000000,1,COMPLETED_SUCCESSFULLY,1582.283388,32.300000,1614.583388,0.000000,32.300000,1.000000,40-47 64-71,-1.000000,""
334,w0,ft.C.16,1586.697021,16,-1.000000,1,COMPLETED_SUCCESSFULLY,1586.697021,32.300000,1618.997021,0.000000,32.300000,1.000000,72-87,-1.000000,""
335,w0,ft.C.32,1590.842157,32,-1.000000,1,COMPLETED_SUCCESSFULLY,1590.842157,16.430000,1607.272157,0.000000,16.430000,1.000000,0-7 88-111,-1.000000,""
336,w0,ft.C.16,1595.594317,16,-1.000000,1,COMPLETED_SUCCESSFULLY,1595.594317,32.300000,1627.894317,0.000000,32.300000,1.000000,112-127,-1.000000,""
337,w0,ft.C.16,1600.925157,16,-1.000000,1,COMPLETED_SUCCESSFULLY,1600.925157,32.300000,1633.225157,0.000000,32.300000,1.000000,16-23 128-135,-1.000000,""
338,w0,ft.C.16,1606.210550,16,-1.000000,1,COMPLETED_SUCCESSFULLY,1607.272205,32.300000,1639.572205,1.061655,33.361655,1.032869,0-7 32-39,-1.000000,""
339,w0,ft.C.8,1610.786407,8,-1.000000,1,COMPLETED_SUCCESSFULLY,1610.786407,59.000000,1669.786407,0.000000,59.000000,1.000000,88-95,-1.000000,""
34,w0,ft.C.8,166.104972,8,-1.000000,1,COMPLETED_SUCCESSFULLY,166.104972,59.000000,225.104972,0.000000,59.000000,1.000000,72-79,-1.000000,""
340,w0,ft.C.8,1616.011283,8,-1.000000,1,COMPLETED_SUCCESSFULLY,1616.011283,59.000000,1675.011283,0.000000,59.000000,1.000000,40-47,-1.000000,""
341,w0,ft.C.16,1620.680858,16,-1.000000,1,COMPLETED_SUCCESSFULLY,1620.680858,32.300000,1652.980858,0.000000,32.300000,1.000000,64-79,-1.000000,""
342,w0,ft.C.8,1625.527816,8,-1.000000,1,COMPLETED_SUCCESSFULLY,1625.527816,59.000000,1684.527816,0.000000,59.000000,1.000000,8-15,-1.000000,""
343,w0,ft.C.8,1630.799944,8,-1.000000,1,COMPLETED_SUCCESSFULLY,1630.799944,59.000000,1689.799944,0.000000,59.000000,1.000000,24-31,-1.000000,""
344,w0,ft.C.16,1635.812813,16,-1.000000,1,COMPLETED_SUCCESSFULLY,1635.812813,32.300000,1668.112813,0.000000,32.300000,1.000000,16-23 48-55,-1.000000,""
345,w0,ft.C.8,1640.783253,8,-1.000000,1,COMPLETED_SUCCESSFULLY,1640.783253,59.000000,1699.783253,0.000000,59.000000,1.000000,0-7,-1.000000,""
346,w0,ft.C.8,1644.921545,8,-1.000000,1,COMPLETED_SUCCESSFULLY,1644.921545,59.000000,1703.921545,0.000000,59.000000,1.000000,32-39,-1.000000,""
347,w0,ft.C.16,1649.332079,16,-1.000000,1,COMPLETED_SUCCESSFULLY,1649.332079,32.300000,1681.632079,0.000000,32.300000,1.000000,56-63 80-87,-1.000000,""
348,w0,ft.C.16,1654.542251,16,-1.000000,1,COMPLETED_SUCCESSFULLY,1654.542251,32.300000,1686.842251,0.000000,32.300000,1.000000,64-79,-1.000000,""
349,w0,ft.C.8,1659.705055,8,-1.000000,1,COMPLETED_SUCCESSFULLY,1659.705055,59.000000,1718.705055,0.000000,59.000000,1.000000,96-103,-1.000000,""
35,w0,ft.C.32,171.032943,32,-1.000000,1,COMPLETED_SUCCESSFULLY,171.032943,16.430000,187.462943,0.000000,16.430000,1.000000,8-15 88-103 120-127,-1.000000,""
350,w0,ft.C.8,1664.713165,8,-1.000000,1,COMPLETED_SUCCESSFULLY,1664.713165,59.000000,1723.713165,0.000000,59.000000,1.000000,104-111,-1.000000,""
351,w0,ft.C.16,1669.898325,16,-1.000000,1,COMPLETED_SUCCESSFULLY,1669.898325,32.300000,1702.198325,0.000000,32.300000,1.000000,16-23 48-55,-1.000000,""
352,w0,ft.C.8,1674.608945,8,-1.000000,1,COMPLETED_SUCCESSFULLY,1674.608945,59.000000,1733.608945,0.000000,59.000000,1.000000,88-95,-1.000000,""
353,w0,ft.C.8,1679.136868,8,-1.000000,1,COMPLETED_SUCCESSFULLY,1679.136868,59.000000,1738.136868,0.000000,59.000000,1.000000,40-47,-1.000000,""
354,w0,ft.C.8,1684.007064,8,-1.000000,1,COMPLETED_SUCCESSFULLY,1684.007064,59.000000,1743.007064,0.000000,59.000000,1.000000,56-63,-1.000000,""
355,w0,ft.C.8,1688.075419,8,-1.000000,1,COMPLETED_SUCCESSFULLY,1688.075419,59.000000,1747.075419,0.000000,59.000000,1.000000,8-15,-1.000000,""
356,w0,ft.C.32,1692.890486,32,-1.000000,1,COMPLETED_SUCCESSFULLY,1692.890486,16.430000,1709.320486,0.000000,16.430000,1.000000,24-31 64-87,-1.000000,""
357,w0,ft.C.16,1696.985363,16,-1.000000,1,COMPLETED_SUCCESSFULLY,1696.985363,32.300000,1729.285363,0.000000,32.300000,1.000000,112-127,-1.000000,""
358,w0,ft.C.16,1702.183840,16,-1.000000,1,COMPLETED_SUCCESSFULLY,1702.183840,32.300000,1734.483840,0.000000,32.300000,1.000000,0-7 128-135,-1.000000,""
359,w0,ft.C.16,1706.998537,16,-1.000000,1,COMPLETED_SUCCESSFULLY,1706.998537,32.300000,1739.298537,0.000000,32.300000,1.000000,16-23 32-39,-1.000000,""
36,w0,ft.C.16,176.560944,16,-1.000000,1,COMPLETED_SUCCESSFULLY,178.269011,32.300000,210.569011,1.708067,34.008067,1.052881,40-47 128-135,-1.000000,""
360,w0,ft.C.8,1711.623325,8,-1.000000,1,COMPLETED_SUCCESSFULLY,1711.623325,59.000000,1770.623325,0.000000,59.000000,1.000000,24-31,-1.000000,""
361,w0,ft.C.8,1716.775681,8,-1.000000,1,COMPLETED_SUCCESSFULLY,1716.775681,59.000000,1775.775681,0.000000,59.000000,1.000000,48-55,-1.000000,""
362,w0,ft.C.32,1721.324394,32,-1.000000,1,COMPLETED_SUCCESSFULLY,1721.324394,16.430000,1737.754394,0.000000,16.430000,1.000000,64-87 96-103,-1.000000,""
363,w0,ft.C.16,1726.919869,16,-1.000000,1,COMPLETED_SUCCESSFULLY,1729.285414,32.300000,1761.585414,2.365545,34.665545,1.073237,104-119,-1.000000,""
364,w0,ft.C.8,1731.689146,8,-1.000000,1,COMPLETED_SUCCESSFULLY,1731.689146,59.000000,1790.689146,0.000000,59.000000,1.000000,120-127,-1.000000,""
365,w0,ft.C.8,1736.829322,8,-1.000000,1,COMPLETED_SUCCESSFULLY,1736.829322,59.000000,1795.829322,0.000000,59.000000,1.000000,0-7,-1.000000,""
366,w0,ft.C.8,1739.846331,8,-1.000000,1,COMPLETED_SUCCESSFULLY,1739.846331,59.000000,1798.846331,0.000000,59.000000,1.000000,16-23,-1.000000,""
367,w0,ft.C.8,1745.274880,8,-1.000000,1,COMPLETED_SUCCESSFULLY,1745.274880,59.000000,1804.274880,0.000000,59.000000,1.000000,32-39,-1.000000,""
368,w0,ft.C.8,1750.036336,8,-1.000000,1,COMPLETED_SUCCESSFULLY,1750.036336,59.000000,1809.036336,0.000000,59.000000,1.000000,8-15,-1.000000,""
369,w0,ft.C.32,1755.043266,32,-1.000000,1,COMPLETED_SUCCESSFULLY,1755.043266,16.430000,1771.473266,0.000000,16.430000,1.000000,40-47 56-79,-1.000000,""
37,w0,ft.C.8,182.071787,8,-1.000000,1,COMPLETED_SUCCESSFULLY,182.638854,59.000000,241.638854,0.567068,59.567068,1.009611,56-63,-1.000000,""
370,w0,ft.C.8,1759.912825,8,-1.000000,1,COMPLETED_SUCCESSFULLY,1759.912825,59.000000,1818.912825,0.000000,59.000000,1.000000,80-87,-1.000000,""
371,w0,ft.C.8,1764.077017,8,-1.000000,1,COMPLETED_SUCCESSFULLY,1764.077017,59.000000,1823.077017,0.000000,59.000000,1.000000,88-95,-1.000000,""
372,w0,ft.C.32,1768.046735,32,-1.000000,1,COMPLETED_SUCCESSFULLY,1768.046735,16.430000,1784.476735,0.000000,16.430000,1.000000,96-119 128-135,-1.000000,""
373,w0,ft.C.16,1773.330097,16,-1.000000,1,COMPLETED_SUCCESSFULLY,1773.330097,32.300000,1805.630097,0.000000,32.300000,1.000000,24-31 40-47,-1.000000,""
374,w0,ft.C.16,1778.808592,16,-1.000000,1,COMPLETED_SUCCESSFULLY,1778.808592,32.300000,1811.108592,0.000000,32.300000,1.000000,48-63,-1.000000,""
375,w0,ft.C.16,1782.888034,16,-1.000000,1,COMPLETED_SUCCESSFULLY,1782.888034,32.300000,1815.188034,0.000000,32.300000,1.000000,64-79,-1.000000,""
376,w0,ft.C.32,1787.702702,32,-1.000000,1,COMPLETED_SUCCESSFULLY,1787.702702,16.430000,1804.132702,0.000000,16.430000,1.000000,96-119 128-135,-1.000000,""
377,w0,ft.C.16,1792.396028,16,-1.000000,1,COMPLETED_SUCCESSFULLY,1795.829370,32.300000,1828.129370,3.433342,35.733342,1.106295,0-7 120-127,-1.000000,""
378,w0,ft.C.8,1797.044997,8,-1.000000,1,COMPLETED_SUCCESSFULLY,1798.846379,59.000000,1857.846379,1.801382,60.801382,1.030532,16-23,-1.000000,""
379,w0,ft.C.16,1802.862610,16,-1.000000,1,COMPLETED_SUCCESSFULLY,1804.132753,32.300000,1836.432753,1.270143,33.570143,1.039323,96-111,-1.000000,""
38,w0,ft.C.8,185.936335,8,-1.000000,1,COMPLETED_SUCCESSFULLY,185.936335,59.000000,244.936335,0.000000,59.000000,1.000000,16-23,-1.000000,""
380,w0,ft.C.16,1807.448935,16,-1.000000,1,COMPLETED_SUCCESSFULLY,1807.448935,32.300000,1839.748935,0.000000,32.300000,1.000000,24-39,-1.000000,""
381,w0,ft.C.8,1811.701845,8,-1.000000,1,COMPLETED_SUCCESSFULLY,1811.701845,59.000000,1870.701845,0.000000,59.000000,1.000000,8-15,-1.000000,""
382,w0,ft.C.8,1817.392811,8,-1.000000,1,COMPLETED_SUCCESSFULLY,1817.392811,59.000000,1876.392811,0.000000,59.000000,1.000000,40-47,-1.000000,""
383,w0,ft.C.16,1822.646694,16,-1.000000,1,COMPLETED_SUCCESSFULLY,1822.646694,32.300000,1854.946694,0.000000,32.300000,1.000000,48-63,-1.000000,""
384,w0,ft.C.8,1827.524718,8,-1.000000,1,COMPLETED_SUCCESSFULLY,1827.524718,59.000000,1886.524718,0.000000,59.000000,1.000000,64-71,-1.000000,""
385,w0,ft.C.16,1833.006829,16,-1.000000,1,COMPLETED_SUCCESSFULLY,1833.006829,32.300000,1865.306829,0.000000,32.300000,1.000000,0-7 72-79,-1.000000,""
386,w0,ft.C.16,1837.169154,16,-1.000000,1,COMPLETED_SUCCESSFULLY,1837.169154,32.300000,1869.469154,0.000000,32.300000,1.000000,80-95,-1.000000,""
387,w0,ft.C.8,1842.493244,8,-1.000000,1,COMPLETED_SUCCESSFULLY,1842.493244,59.000000,1901.493244,0.000000,59.000000,1.000000,24-31,-1.000000,""
388,w0,ft.C.8,1846.850537,8,-1.000000,1,COMPLETED_SUCCESSFULLY,1846.850537,59.000000,1905.850537,0.000000,59.000000,1.000000,32-39,-1.000000,""
389,w0,ft.C.8,1851.992947,8,-1.000000,1,COMPLETED_SUCCESSFULLY,1851.992947,59.000000,1910.992947,0.000000,59.000000,1.000000,96-103,-1.000000,""
39,w0,ft.C.32,190.668459,32,-1.000000,1,COMPLETED_SUCCESSFULLY,190.668459,16.430000,207.098459,0.000000,16.430000,1.000000,8-15 24-39 48-55,-1.000000,""
390,w0,ft.C.16,1856.251755,16,-1.000000,1,COMPLETED_SUCCESSFULLY,1856.251755,32.300000,1888.551755,0.000000,32.300000,1.000000,48-63,-1.000000,""
391,w0,ft.C.16,1861.785968,16,-1.000000,1,COMPLETED_SUCCESSFULLY,1861.785968,32.300000,1894.085968,0.000000,32.300000,1.000000,16-23 104-111,-1.000000,""
392,w0,ft.C.8,1866.870051,8,-1.000000,1,COMPLETED_SUCCESSFULLY,1866.870051,59.000000,1925.870051,0.000000,59.000000,1.000000,0-7,-1.000000,""
393,w0,ft.C.8,1872.010404,8,-1.000000,1,COMPLETED_SUCCESSFULLY,1872.010404,59.000000,1931.010404,0.000000,59.000000,1.000000,8-15,-1.000000,""
394,w0,ft.C.8,1876.008817,8,-1.000000,1,COMPLETED_SUCCESSFULLY,1876.008817,59.000000,1935.008817,0.000000,59.000000,1.000000,72-79,-1.000000,""
395,w0,ft.C.16,1880.759961,16,-1.000000,1,COMPLETED_SUCCESSFULLY,1880.759961,32.300000,1913.059961,0.000000,32.300000,1.000000,40-47 80-87,-1.000000,""
396,w0,ft.C.16,1885.644692,16,-1.000000,1,COMPLETED_SUCCESSFULLY,1885.644692,32.300000,1917.944692,0.000000,32.300000,1.000000,88-95 112-119,-1.000000,""
397,w0,ft.C.8,1890.744737,8,-1.000000,1,COMPLETED_SUCCESSFULLY,1890.744737,59.000000,1949.744737,0.000000,59.000000,1.000000,48-55,-1.000000,""
398,w0,ft.C.8,1894.742439,8,-1.000000,1,COMPLETED_SUCCESSFULLY,1894.742440,59.000000,1953.742440,0.000001,59.000001,1.000000,16-23,-1.000000,""
399,w0,ft.C.32,1899.781334,32,-1.000000,1,COMPLETED_SUCCESSFULLY,1899.781334,16.430000,1916.211334,0.000000,16.430000,1.000000,56-71 104-111 120-127,-1.000000,""
4,w0,ft.C.8,21.459685,8,-1.000000,1,COMPLETED_SUCCESSFULLY,21.459685,59.000000,80.459685,0.000000,59.000000,1.000000,48-55,-1.000000,""
40,w0,ft.C.8,195.717355,8,-1.000000,1,COMPLETED_SUCCESSFULLY,195.717355,59.000000,254.717355,0.000000,59.000000,1.000000,0-7,-1.000000,""
400,w0,ft.C.8,1904.497921,8,-1.000000,1,COMPLETED_SUCCESSFULLY,1904.497921,59.000000,1963.497921,0.000000,59.000000,1.000000,24-31,-1.000000,""
401,w0,ft.C.8,1908.818032,8,-1.000000,1,COMPLETED_SUCCESSFULLY,1908.818032,59.000000,1967.818032,0.000000,59.000000,1.000000,32-39,-1.000000,""
402,w0,ft.C.8,1913.597295,8,-1.000000,1,COMPLETED_SUCCESSFULLY,1913.597295,59.000000,1972.597295,0.000000,59.000000,1.000000,40-47,-1.000000,""
403,w0,ft.C.16,1917.863312,16,-1.000000,1,COMPLETED_SUCCESSFULLY,1917.863312,32.300000,1950.163312,0.000000,32.300000,1.000000,56-71,-1.000000,""
404,w0,ft.C.32,1921.535352,32,-1.000000,1,COMPLETED_SUCCESSFULLY,1921.535352,16.430000,1937.965352,0.000000,16.430000,1.000000,80-111,-1.000000,""
405,w0,ft.C.8,1926.443451,8,-1.000000,1,COMPLETED_SUCCESSFULLY,1926.443451,59.000000,1985.443451,0.000000,59.000000,1.000000,0-7,-1.000000,""
406,w0,ft.C.16,1931.337100,16,-1.000000,1,COMPLETED_SUCCESSFULLY,1931.337100,32.300000,1963.637100,0.000000,32.300000,1.000000,8-15 112-119,-1.000000,""
407,w0,ft.C.32,1936.123892,32,-1.000000,1,COMPLETED_SUCCESSFULLY,1937.965403,16.430000,1954.395403,1.841511,18.271511,1.112082,72-103,-1.000000,""
408,w0,ft.C.16,1940.195286,16,-1.000000,1,COMPLETED_SUCCESSFULLY,1940.195286,32.300000,1972.495286,0.000000,32.300000,1.000000,104-111 120-127,-1.000000,""
409,w0,ft.C.16,1945.875648,16,-1.000000,1,COMPLETED_SUCCESSFULLY,1949.744788,32.300000,1982.044788,3.869140,36.169140,1.119788,48-55 128-135,-1.000000,""
41,w0,ft.C.32,201.258756,32,-1.000000,1,COMPLETED_SUCCESSFULLY,201.258756,16.430000,217.688756,0.000000,16.430000,1.000000,64-71 88-111,-1.000000,""
410,w0,ft.C.16,1949.767392,16,-1.000000,1,COMPLETED_SUCCESSFULLY,1950.163363,32.300000,1982.463363,0.395972,32.695972,1.012259,56-71,-1.000000,""
411,w0,ft.C.8,1955.069038,8,-1.000000,1,COMPLETED_SUCCESSFULLY,1955.069038,59.000000,2014.069038,0.000000,59.000000,1.000000,16-23,-1.000000,""
412,w0,ft.C.32,1959.111620,32,-1.000000,1,COMPLETED_SUCCESSFULLY,1959.111620,16.430000,1975.541620,0.000000,16.430000,1.000000,72-103,-1.000000,""
413,w0,ft.C.16,1964.030256,16,-1.000000,1,COMPLETED_SUCCESSFULLY,1964.030256,32.300000,1996.330256,0.000000,32.300000,1.000000,8-15 24-31,-1.000000,""
414,w0,ft.C.8,1968.180664,8,-1.000000,1,COMPLETED_SUCCESSFULLY,1968.180664,59.000000,2027.180664,0.000000,59.000000,1.000000,32-39,-1.000000,""
415,w0,ft.C.16,1972.849397,16,-1.000000,1,COMPLETED_SUCCESSFULLY,1972.849397,32.300000,2005.149397,0.000000,32.300000,1.000000,40-47 104-111,-1.000000,""
416,w0,ft.C.16,1977.812611,16,-1.000000,1,COMPLETED_SUCCESSFULLY,1977.812611,32.300000,2010.112611,0.000000,32.300000,1.000000,72-87,-1.000000,""
417,w0,ft.C.32,1982.992873,32,-1.000000,1,COMPLETED_SUCCESSFULLY,1982.992873,16.430000,1999.422873,0.000000,16.430000,1.000000,48-71 88-95,-1.000000,""
418,w0,ft.C.8,1988.100105,8,-1.000000,1,COMPLETED_SUCCESSFULLY,1988.100105,59.000000,2047.100105,0.000000,59.000000,1.000000,0-7,-1.000000,""
419,w0,ft.C.8,1992.385980,8,-1.000000,1,COMPLETED_SUCCESSFULLY,1992.385980,59.000000,2051.385980,0.000000,59.000000,1.000000,96-103,-1.000000,""
42,w0,ft.C.8,206.086328,8,-1.000000,1,COMPLETED_SUCCESSFULLY,206.086328,59.000000,265.086328,0.000000,59.000000,1.000000,120-127,-1.000000,""
420,w0,ft.C.8,1997.453306,8,-1.000000,1,COMPLETED_SUCCESSFULLY,1997.453306,59.000000,2056.453306,0.000000,59.000000,1.000000,8-15,-1.000000,""
421,w0,ft.C.8,2001.661975,8,-1.000000,1,COMPLETED_SUCCESSFULLY,2001.661975,59.000000,2060.661975,0.000000,59.000000,1.000000,24-31,-1.000000,""
422,w0,ft.C.8,2005.374454,8,-1.000000,1,COMPLETED_SUCCESSFULLY,2005.374454,59.000000,2064.374454,0.000000,59.000000,1.000000,40-47,-1.000000,""
423,w0,ft.C.16,2010.158184,16,-1.000000,1,COMPLETED_SUCCESSFULLY,2010.158184,32.300000,2042.458184,0.000000,32.300000,1.000000,48-63,-1.000000,""
424,w0,ft.C.16,2015.269933,16,-1.000000,1,COMPLETED_SUCCESSFULLY,2015.269933,32.300000,2047.569933,0.000000,32.300000,1.000000,16-23 64-71,-1.000000,""
425,w0,ft.C.8,2020.603555,8,-1.000000,1,COMPLETED_SUCCESSFULLY,2020.603555,59.000000,2079.603555,0.000001,59.000001,1.000000,72-79,-1.000000,""
426,w0,ft.C.8,2025.665356,8,-1.000000,1,COMPLETED_SUCCESSFULLY,2025.665356,59.000000,2084.665356,0.000000,59.000000,1.000000,80-87,-1.000000,""
427,w0,ft.C.16,2028.725519,16,-1.000000,1,COMPLETED_SUCCESSFULLY,2028.725519,32.300000,2061.025519,0.000000,32.300000,1.000000,32-39 88-95,-1.000000,""
428,w0,ft.C.32,2033.232976,32,-1.000000,1,COMPLETED_SUCCESSFULLY,2033.232976,16.430000,2049.662976,0.000000,16.430000,1.000000,104-135,-1.000000,""
429,w0,ft.C.16,2037.507836,16,-1.000000,1,COMPLETED_SUCCESSFULLY,2042.458235,32.300000,2074.758235,4.950399,37.250399,1.153263,48-63,-1.000000,""
43,w0,ft.C.8,210.969076,8,-1.000000,1,COMPLETED_SUCCESSFULLY,210.969076,59.000000,269.969076,0.000000,59.000000,1.000000,8-15,-1.000000,""
430,w0,ft.C.8,2042.760431,8,-1.000000,1,COMPLETED_SUCCESSFULLY,2047.100153,59.000000,2106.100153,4.339722,63.339722,1.073555,0-7,-1.000000,""
431,w0,ft.C.32,2047.827175,32,-1.000000,1,COMPLETED_SUCCESSFULLY,2049.663027,16.430000,2066.093027,1.835852,18.265852,1.111738,16-23 64-71 104-119,-1.000000,""
432,w0,ft.C.32,2052.260503,32,-1.000000,1,COMPLETED_SUCCESSFULLY,2056.453354,16.430000,2072.883354,4.192851,20.622851,1.255195,8-15 96-103 120-135,-1.000000,""
433,w0,ft.C.8,2057.334993,8,-1.000000,1,COMPLETED_SUCCESSFULLY,2060.662023,59.000000,2119.662023,3.327030,62.327030,1.056390,24-31,-1.000000,""
434,w0,ft.C.8,2062.165206,8,-1.000000,1,COMPLETED_SUCCESSFULLY,2062.165206,59.000000,2121.165206,0.000000,59.000000,1.000000,32-39,-1.000000,""
435,w0,ft.C.16,2066.944237,16,-1.000000,1,COMPLETED_SUCCESSFULLY,2066.944237,32.300000,2099.244237,0.000000,32.300000,1.000000,16-23 40-47,-1.000000,""
436,w0,ft.C.32,2071.974676,32,-1.000000,1,COMPLETED_SUCCESSFULLY,2071.974676,16.430000,2088.404676,0.000000,16.430000,1.000000,64-71 88-95 104-119,-1.000000,""
437,w0,ft.C.32,2076.605819,32,-1.000000,1,COMPLETED_SUCCESSFULLY,2076.605819,16.430000,2093.035819,0.000000,16.430000,1.000000,8-15 48-63 96-103,-1.000000,""
438,w0,ft.C.8,2081.384502,8,-1.000000,1,COMPLETED_SUCCESSFULLY,2081.384502,59.000000,2140.384502,0.000000,59.000000,1.000000,72-79,-1.000000,""
439,w0,ft.C.32,2086.245733,32,-1.000000,1,COMPLETED_SUCCESSFULLY,2088.404727,16.430000,2104.834727,2.158994,18.588994,1.131406,64-71 80-95 104-111,-1.000000,""
44,w0,ft.C.32,215.688879,32,-1.000000,1,COMPLETED_SUCCESSFULLY,215.688879,16.430000,232.118879,0.000000,16.430000,1.000000,24-55,-1.000000,""
440,w0,ft.C.8,2091.170131,8,-1.000000,1,COMPLETED_SUCCESSFULLY,2091.170131,59.000000,2150.170131,0.000000,59.000000,1.000000,112-119,-1.000000,""
441,w0,ft.C.16,2096.171989,16,-1.000000,1,COMPLETED_SUCCESSFULLY,2096.171989,32.300000,2128.471989,0.000000,32.300000,1.000000,8-15 48-55,-1.000000,""
442,w0,ft.C.16,2101.164609,16,-1.000000,1,COMPLETED_SUCCESSFULLY,2101.164609,32.300000,2133.464609,0.000000,32.300000,1.000000,16-23 40-47,-1.000000,""
443,w0,ft.C.16,2105.890116,16,-1.000000,1,COMPLETED_SUCCESSFULLY,2105.890116,32.300000,2138.190116,0.000000,32.300000,1.000000,56-71,-1.000000,""
444,w0,ft.C.8,2110.501353,8,-1.000000,1,COMPLETED_SUCCESSFULLY,2110.501353,59.000000,2169.501353,0.000000,59.000000,1.000000,0-7,-1.000000,""
445,w0,ft.C.32,2114.861050,32,-1.000000,1,COMPLETED_SUCCESSFULLY,2114.861050,16.430000,2131.291050,0.000000,16.430000,1.000000,80-111,-1.000000,""
446,w0,ft.C.16,2120.059248,16,-1.000000,1,COMPLETED_SUCCESSFULLY,2120.059248,32.300000,2152.359248,0.000000,32.300000,1.000000,24-31 120-127,-1.000000,""
447,w0,ft.C.16,2125.100029,16,-1.000000,1,COMPLETED_SUCCESSFULLY,2125.100029,32.300000,2157.400029,0.000000,32.300000,1.000000,32-39 128-135,-1.000000,""
448,w0,ft.C.8,2129.800524,8,-1.000000,1,COMPLETED_SUCCESSFULLY,2129.800524,59.000000,2188.800524,0.000000,59.000000,1.000000,8-15,-1.000000,""
449,w0,ft.C.8,2134.312754,8,-1.000000,1,COMPLETED_SUCCESSFULLY,2134.312754,59.000000,2193.312754,0.000000,59.000000,1.000000,16-23,-1.000000,""
45,w0,ft.C.16,220.900843,16,-1.000000,1,COMPLETED_SUCCESSFULLY,220.900843,32.300000,253.200843,0.000000,32.300000,1.000000,64-71 80-87,-1.000000,""
450,w0,ft.C.16,2139.300098,16,-1.000000,1,COMPLETED_SUCCESSFULLY,2139.300098,32.300000,2171.600098,0.000000,32.300000,1.000000,40-55,-1.000000,""
451,w0,ft.C.16,2144.136217,16,-1.000000,1,COMPLETED_SUCCESSFULLY,2144.136217,32.300000,2176.436217,0.000000,32.300000,1.000000,56-71,-1.000000,""
452,w0,ft.C.8,2148.953132,8,-1.000000,1,COMPLETED_SUCCESSFULLY,2148.953132,59.000000,2207.953132,0.000000,59.000000,1.000000,72-79,-1.000000,""
453,w0,ft.C.16,2153.562218,16,-1.000000,1,COMPLETED_SUCCESSFULLY,2153.562218,32.300000,2185.862218,0.000000,32.300000,1.000000,24-31 80-87,-1.000000,""
454,w0,ft.C.16,2158.126006,16,-1.000000,1,COMPLETED_SUCCESSFULLY,2158.126006,32.300000,2190.426006,0.000000,32.300000,1.000000,32-39 88-95,-1.000000,""
455,w0,ft.C.8,2163.337047,8,-1.000000,1,COMPLETED_SUCCESSFULLY,2163.337047,59.000000,2222.337047,0.000000,59.000000,1.000000,96-103,-1.000000,""
456,w0,ft.C.16,2168.051252,16,-1.000000,1,COMPLETED_SUCCESSFULLY,2168.051252,32.300000,2200.351252,0.000000,32.300000,1.000000,104-119,-1.000000,""
457,w0,ft.C.32,2172.683885,32,-1.000000,1,COMPLETED_SUCCESSFULLY,2172.683885,16.430000,2189.113885,0.000000,16.430000,1.000000,0-7 40-55 120-127,-1.000000,""
458,w0,ft.C.8,2176.728514,8,-1.000000,1,COMPLETED_SUCCESSFULLY,2176.728514,59.000000,2235.728514,0.000000,59.000000,1.000000,56-63,-1.000000,""
459,w0,ft.C.8,2180.736344,8,-1.000000,1,COMPLETED_SUCCESSFULLY,2180.736344,59.000000,2239.736344,0.000000,59.000000,1.000000,64-71,-1.000000,""
46,w0,ft.C.32,226.402275,32,-1.000000,1,COMPLETED_SUCCESSFULLY,226.402275,16.430000,242.832275,0.000000,16.430000,1.000000,72-79 88-111,-1.000000,""
460,w0,ft.C.32,2184.993021,32,-1.000000,1,COMPLETED_SUCCESSFULLY,2188.800572,16.430000,2205.230572,3.807551,20.237551,1.231744,8-15 24-31 80-87 128-135,-1.000000,""
461,w0,ft.C.32,2190.708927,32,-1.000000,1,COMPLETED_SUCCESSFULLY,2190.708927,16.430000,2207.138927,0.000000,16.430000,1.000000,0-7 32-55,-1.000000,""
462,w0,ft.C.8,2195.433233,8,-1.000000,1,COMPLETED_SUCCESSFULLY,2195.433233,59.000000,2254.433233,0.000000,59.000000,1.000000,16-23,-1.000000,""
463,w0,ft.C.16,2199.598431,16,-1.000000,1,COMPLETED_SUCCESSFULLY,2199.598431,32.300000,2231.898431,0.000000,32.300000,1.000000,88-95 120-127,-1.000000,""
464,w0,ft.C.8,2204.426223,8,-1.000000,1,COMPLETED_SUCCESSFULLY,2204.426223,59.000000,2263.426223,0.000000,59.000000,1.000000,104-111,-1.000000,""
465,w0,ft.C.8,2208.299485,8,-1.000000,1,COMPLETED_SUCCESSFULLY,2208.299485,59.000000,2267.299485,0.000000,59.000000,1.000000,0-7,-1.000000,""
466,w0,ft.C.8,2212.017298,8,-1.000000,1,COMPLETED_SUCCESSFULLY,2212.017298,59.000000,2271.017298,0.000000,59.000000,1.000000,8-15,-1.000000,""
467,w0,ft.C.8,2217.176238,8,-1.000000,1,COMPLETED_SUCCESSFULLY,2217.176238,59.000000,2276.176238,0.000000,59.000000,1.000000,24-31,-1.000000,""
468,w0,ft.C.8,2221.794069,8,-1.000000,1,COMPLETED_SUCCESSFULLY,2221.794069,59.000000,2280.794069,0.000000,59.000000,1.000000,32-39,-1.000000,""
469,w0,ft.C.8,2226.910352,8,-1.000000,1,COMPLETED_SUCCESSFULLY,2226.910352,59.000000,2285.910352,0.000000,59.000000,1.000000,40-47,-1.000000,""
47,w0,ft.C.16,229.861152,16,-1.000000,1,COMPLETED_SUCCESSFULLY,229.861152,32.300000,262.161152,0.000000,32.300000,1.000000,112-119 128-135,-1.000000,""
470,w0,ft.C.8,2231.719849,8,-1.000000,1,COMPLETED_SUCCESSFULLY,2231.719849,59.000000,2290.719849,0.000000,59.000000,1.000000,48-55,-1.000000,""
471,w0,ft.C.16,2236.837384,16,-1.000000,1,COMPLETED_SUCCESSFULLY,2236.837384,32.300000,2269.137384,0.000000,32.300000,1.000000,56-63 72-79,-1.000000,""
472,w0,ft.C.16,2241.597305,16,-1.000000,1,COMPLETED_SUCCESSFULLY,2241.597305,32.300000,2273.897305,0.000000,32.300000,1.000000,64-71 80-87,-1.000000,""
473,w0,ft.C.8,2244.499921,8,-1.000000,1,COMPLETED_SUCCESSFULLY,2244.499921,59.000000,2303.499921,0.000000,59.000000,1.000000,88-95,-1.000000,""
474,w0,ft.C.16,2249.810003,16,-1.000000,1,COMPLETED_SUCCESSFULLY,2249.810003,32.300000,2282.110003,0.000000,32.300000,1.000000,96-103 112-119,-1.000000,""
475,w0,ft.C.8,2254.892183,8,-1.000000,1,COMPLETED_SUCCESSFULLY,2254.892183,59.000000,2313.892183,0.000000,59.000000,1.000000,16-23,-1.000000,""
476,w0,ft.C.8,2259.595499,8,-1.000000,1,COMPLETED_SUCCESSFULLY,2259.595499,59.000000,2318.595499,0.000000,59.000000,1.000000,120-127,-1.000000,""
477,w0,ft.C.16,2264.056551,16,-1.000000,1,COMPLETED_SUCCESSFULLY,2264.056551,32.300000,2296.356551,0.000000,32.300000,1.000000,104-111 128-135,-1.000000,""
478,w0,ft.C.8,2269.016445,8,-1.000000,1,COMPLETED_SUCCESSFULLY,2269.016445,59.000000,2328.016445,0.000000,59.000000,1.000000,0-7,-1.000000,""
479,w0,ft.C.32,2274.126959,32,-1.000000,1,COMPLETED_SUCCESSFULLY,2274.126959,16.430000,2290.556959,0.000000,16.430000,1.000000,8-15 56-79,-1.000000,""
48,w0,ft.C.16,235.108498,16,-1.000000,1,COMPLETED_SUCCESSFULLY,235.108498,32.300000,267.408498,0.000000,32.300000,1.000000,24-39,-1.000000,""
480,w0,ft.C.8,2279.235305,8,-1.000000,1,COMPLETED_SUCCESSFULLY,2279.235305,59.000000,2338.235305,0.000000,59.000000,1.000000,24-31,-1.000000,""
481,w0,ft.C.32,2284.293016,32,-1.000000,1,COMPLETED_SUCCESSFULLY,2284.293016,16.430000,2300.723016,0.000000,16.430000,1.000000,32-39 80-87 96-103 112-119,-1.000000,""
482,w0,ft.C.32,2289.144493,32,-1.000000,1,COMPLETED_SUCCESSFULLY,2290.557007,16.430000,2306.987007,1.412514,17.842514,1.085972,8-15 40-47 56-71,-1.000000,""
483,w0,ft.C.8,2294.903077,8,-1.000000,1,COMPLETED_SUCCESSFULLY,2294.903077,59.000000,2353.903077,0.000000,59.000000,1.000000,48-55,-1.000000,""
484,w0,ft.C.8,2299.983544,8,-1.000000,1,COMPLETED_SUCCESSFULLY,2299.983544,59.000000,2358.983544,0.000000,59.000000,1.000000,72-79,-1.000000,""
485,w0,ft.C.16,2304.818748,16,-1.000000,1,COMPLETED_SUCCESSFULLY,2304.818748,32.300000,2337.118748,0.000000,32.300000,1.000000,32-39 80-87,-1.000000,""
486,w0,ft.C.8,2309.474779,8,-1.000000,1,COMPLETED_SUCCESSFULLY,2309.474779,59.000000,2368.474779,0.000000,59.000000,1.000000,8-15,-1.000000,""
487,w0,ft.C.16,2314.769132,16,-1.000000,1,COMPLETED_SUCCESSFULLY,2314.769132,32.300000,2347.069132,0.000000,32.300000,1.000000,16-23 40-47,-1.000000,""
488,w0,ft.C.32,2319.974907,32,-1.000000,1,COMPLETED_SUCCESSFULLY,2319.974907,16.430000,2336.404907,0.000000,16.430000,1.000000,56-71 88-103,-1.000000,""
489,w0,ft.C.32,2325.732819,32,-1.000000,1,COMPLETED_SUCCESSFULLY,2325.732819,16.430000,2342.162819,0.000000,16.430000,1.000000,104-135,-1.000000,""
49,w0,ft.C.16,239.704104,16,-1.000000,1,COMPLETED_SUCCESSFULLY,239.704104,32.300000,272.004104,0.000000,32.300000,1.000000,40-55,-1.000000,""
490,w0,ft.C.8,2330.450736,8,-1.000000,1,COMPLETED_SUCCESSFULLY,2330.450736,59.000000,2389.450736,0.000000,59.000000,1.000000,0-7,-1.000000,""
491,w0,ft.C.8,2333.431039,8,-1.000000,1,COMPLETED_SUCCESSFULLY,2336.404958,59.000000,2395.404958,2.973919,61.973919,1.050405,56-63,-1.000000,""
492,w0,ft.C.16,2338.237920,16,-1.000000,1,COMPLETED_SUCCESSFULLY,2338.237920,32.300000,2370.537920,0.000000,32.300000,1.000000,24-39,-1.000000,""
493,w0,ft.C.8,2343.093057,8,-1.000000,1,COMPLETED_SUCCESSFULLY,2343.093057,59.000000,2402.093057,0.000000,59.000000,1.000000,64-71,-1.000000,""
494,w0,ft.C.16,2347.050373,16,-1.000000,1,COMPLETED_SUCCESSFULLY,2347.050373,32.300000,2379.350373,0.000000,32.300000,1.000000,80-95,-1.000000,""
495,w0,ft.C.16,2352.119614,16,-1.000000,1,COMPLETED_SUCCESSFULLY,2352.119614,32.300000,2384.419614,0.000000,32.300000,1.000000,16-23 40-47,-1.000000,""
496,w0,ft.C.32,2355.577350,32,-1.000000,1,COMPLETED_SUCCESSFULLY,2355.577350,16.430000,2372.007350,0.000000,16.430000,1.000000,48-55 96-119,-1.000000,""
497,w0,ft.C.8,2360.378984,8,-1.000000,1,COMPLETED_SUCCESSFULLY,2360.378984,59.000000,2419.378984,0.000000,59.000000,1.000000,72-79,-1.000000,""
498,w0,ft.C.16,2364.708028,16,-1.000000,1,COMPLETED_SUCCESSFULLY,2364.708028,32.300000,2397.008028,0.000000,32.300000,1.000000,120-135,-1.000000,""
499,w0,ft.C.8,2370.012451,8,-1.000000,1,COMPLETED_SUCCESSFULLY,2370.012451,59.000000,2429.012451,0.000000,59.000000,1.000000,8-15,-1.000000,""
5,w0,ft.C.8,26.660690,8,-1.000000,1,COMPLETED_SUCCESSFULLY,26.660690,59.000000,85.660690,0.000000,59.000000,1.000000,56-63,-1.000000,""
50,w0,ft.C.16,243.318915,16,-1.000000,1,COMPLETED_SUCCESSFULLY,243.318915,32.300000,275.618915,0.000000,32.300000,1.000000,56-63 72-79,-1.000000,""
500,w0,ft.C.32,2375.009865,32,-1.000000,1,COMPLETED_SUCCESSFULLY,2375.009865,16.430000,2391.439865,0.000000,16.430000,1.000000,24-39 48-55 96-103,-1.000000,""
501,w0,ft.C.8,2379.877933,8,-1.000000,1,COMPLETED_SUCCESSFULLY,2379.877933,59.000000,2438.877933,0.000000,59.000000,1.000000,80-87,-1.000000,""
502,w0,ft.C.16,2384.972858,16,-1.000000,1,COMPLETED_SUCCESSFULLY,2384.972858,32.300000,2417.272858,0.000000,32.300000,1.000000,16-23 40-47,-1.000000,""
503,w0,ft.C.16,2390.253548,16,-1.000000,1,COMPLETED_SUCCESSFULLY,2390.253548,32.300000,2422.553548,0.000000,32.300000,1.000000,0-7 88-95,-1.000000,""
504,w0,ft.C.8,2394.772195,8,-1.000000,1,COMPLETED_SUCCESSFULLY,2394.772195,59.000000,2453.772195,0.000000,59.000000,1.000000,24-31,-1.000000,""
505,w0,ft.C.16,2399.035933,16,-1.000000,1,COMPLETED_SUCCESSFULLY,2399.035933,32.300000,2431.335933,0.000000,32.300000,1.000000,32-39 48-55,-1.000000,""
506,w0,ft.C.8,2403.292864,8,-1.000000,1,COMPLETED_SUCCESSFULLY,2403.292864,59.000000,2462.292864,0.000000,59.000000,1.000000,56-63,-1.000000,""
507,w0,ft.C.8,2407.708563,8,-1.000000,1,COMPLETED_SUCCESSFULLY,2407.708563,59.000000,2466.708563,0.000000,59.000000,1.000000,64-71,-1.000000,""
508,w0,ft.C.32,2411.701187,32,-1.000000,1,COMPLETED_SUCCESSFULLY,2411.701187,16.430000,2428.131187,0.000000,16.430000,1.000000,96-127,-1.000000,""
509,w0,ft.C.8,2416.611056,8,-1.000000,1,COMPLETED_SUCCESSFULLY,2416.611056,59.000000,2475.611056,0.000000,59.000000,1.000000,128-135,-1.000000,""
51,w0,ft.C.8,248.048421,8,-1.000000,1,COMPLETED_SUCCESSFULLY,248.048421,59.000000,307.048421,0.000000,59.000000,1.000000,16-23,-1.000000,""
510,w0,ft.C.8,2421.831741,8,-1.000000,1,COMPLETED_SUCCESSFULLY,2421.831741,59.000000,2480.831741,0.000000,59.000000,1.000000,16-23,-1.000000,""
511,w0,ft.C.32,2427.144164,32,-1.000000,1,COMPLETED_SUCCESSFULLY,2427.144164,16.430000,2443.574164,0.000000,16.430000,1.000000,0-7 40-47 72-79 88-95,-1.000000,""
52,w0,ft.C.16,253.154538,16,-1.000000,1,COMPLETED_SUCCESSFULLY,253.154538,32.300000,285.454538,0.000000,32.300000,1.000000,88-103,-1.000000,""
53,w0,ft.C.8,257.773780,8,-1.000000,1,COMPLETED_SUCCESSFULLY,257.773780,59.000000,316.773780,0.000000,59.000000,1.000000,0-7,-1.000000,""
54,w0,ft.C.8,262.290966,8,-1.000000,1,COMPLETED_SUCCESSFULLY,262.290966,59.000000,321.290966,0.000000,59.000000,1.000000,64-71,-1.000000,""
55,w0,ft.C.8,267.028886,8,-1.000000,1,COMPLETED_SUCCESSFULLY,267.028886,59.000000,326.028886,0.000000,59.000000,1.000000,80-87,-1.000000,""
56,w0,ft.C.8,270.992672,8,-1.000000,1,COMPLETED_SUCCESSFULLY,270.992672,59.000000,329.992672,0.000000,59.000000,1.000000,8-15,-1.000000,""
57,w0,ft.C.32,275.353075,32,-1.000000,1,COMPLETED_SUCCESSFULLY,275.353075,16.430000,291.783075,0.000000,16.430000,1.000000,24-55,-1.000000,""
58,w0,ft.C.8,280.771020,8,-1.000000,1,COMPLETED_SUCCESSFULLY,280.771020,59.000000,339.771020,0.000000,59.000000,1.000000,56-63,-1.000000,""
59,w0,ft.C.16,284.487830,16,-1.000000,1,COMPLETED_SUCCESSFULLY,284.487830,32.300000,316.787830,0.000000,32.300000,1.000000,72-79 104-111,-1.000000,""
6,w0,ft.C.32,31.665536,32,-1.000000,1,COMPLETED_SUCCESSFULLY,31.665536,16.430000,48.095536,0.000000,16.430000,1.000000,64-95,-1.000000,""
60,w0,ft.C.16,289.916195,16,-1.000000,1,COMPLETED_SUCCESSFULLY,289.916195,32.300000,322.216195,0.000000,32.300000,1.000000,88-103,-1.000000,""
61,w0,ft.C.16,295.084860,16,-1.000000,1,COMPLETED_SUCCESSFULLY,295.084860,32.300000,327.384860,0.000000,32.300000,1.000000,24-39,-1.000000,""
62,w0,ft.C.16,300.077564,16,-1.000000,1,COMPLETED_SUCCESSFULLY,300.077564,32.300000,332.377564,0.000000,32.300000,1.000000,40-55,-1.000000,""
63,w0,ft.C.32,304.775205,32,-1.000000,1,COMPLETED_SUCCESSFULLY,307.048469,16.430000,323.478469,2.273264,18.703264,1.138361,16-23 112-135,-1.000000,""
64,w0,ft.C.8,309.578836,8,-1.000000,1,COMPLETED_SUCCESSFULLY,316.773828,59.000000,375.773828,7.194992,66.194992,1.121949,0-7,-1.000000,""
65,w0,ft.C.8,313.703191,8,-1.000000,1,COMPLETED_SUCCESSFULLY,316.787881,59.000000,375.787881,3.084690,62.084690,1.052283,72-79,-1.000000,""
66,w0,ft.C.8,318.261441,8,-1.000000,1,COMPLETED_SUCCESSFULLY,318.261441,59.000000,377.261441,0.000000,59.000000,1.000000,104-111,-1.000000,""
67,w0,ft.C.8,322.731396,8,-1.000000,1,COMPLETED_SUCCESSFULLY,322.731396,59.000000,381.731396,0.000000,59.000000,1.000000,64-71,-1.000000,""
68,w0,ft.C.32,327.509753,32,-1.000000,1,COMPLETED_SUCCESSFULLY,327.509753,16.430000,343.939753,0.000000,16.430000,1.000000,16-39 80-87,-1.000000,""
69,w0,ft.C.8,331.869231,8,-1.000000,1,COMPLETED_SUCCESSFULLY,331.869231,59.000000,390.869231,0.000000,59.000000,1.000000,8-15,-1.000000,""
7,w0,ft.C.8,35.873892,8,-1.000000,1,COMPLETED_SUCCESSFULLY,35.873892,59.000000,94.873892,0.000000,59.000000,1.000000,96-103,-1.000000,""
70,w0,ft.C.8,336.920328,8,-1.000000,1,COMPLETED_SUCCESSFULLY,336.920328,59.000000,395.920328,0.000000,59.000000,1.000000,40-47,-1.000000,""
71,w0,ft.C.8,342.111847,8,-1.000000,1,COMPLETED_SUCCESSFULLY,342.111847,59.000000,401.111847,0.000000,59.000000,1.000000,48-55,-1.000000,""
72,w0,ft.C.8,347.753451,8,-1.000000,1,COMPLETED_SUCCESSFULLY,347.753451,59.000000,406.753451,0.000000,59.000000,1.000000,16-23,-1.000000,""
73,w0,ft.C.32,351.632760,32,-1.000000,1,COMPLETED_SUCCESSFULLY,351.632760,16.430000,368.062760,0.000000,16.430000,1.000000,24-39 56-63 80-87,-1.000000,""
74,w0,ft.C.16,356.722486,16,-1.000000,1,COMPLETED_SUCCESSFULLY,356.722486,32.300000,389.022486,0.000000,32.300000,1.000000,88-103,-1.000000,""
75,w0,ft.C.8,361.762650,8,-1.000000,1,COMPLETED_SUCCESSFULLY,361.762650,59.000000,420.762650,0.000000,59.000000,1.000000,112-119,-1.000000,""
76,w0,ft.C.8,366.767361,8,-1.000000,1,COMPLETED_SUCCESSFULLY,366.767361,59.000000,425.767361,0.000000,59.000000,1.000000,120-127,-1.000000,""
77,w0,ft.C.32,371.537989,32,-1.000000,1,COMPLETED_SUCCESSFULLY,371.537989,16.430000,387.967989,0.000000,16.430000,1.000000,24-39 56-63 80-87,-1.000000,""
78,w0,ft.C.32,376.871850,32,-1.000000,1,COMPLETED_SUCCESSFULLY,377.261492,16.430000,393.691492,0.389642,16.819642,1.023715,0-7 72-79 104-111 128-135,-1.000000,""
79,w0,ft.C.16,381.787542,16,-1.000000,1,COMPLETED_SUCCESSFULLY,387.968037,32.300000,420.268037,6.180495,38.480495,1.191347,24-39,-1.000000,""
8,w0,ft.C.16,41.191306,16,-1.000000,1,COMPLETED_SUCCESSFULLY,41.191306,32.300000,73.491306,0.000000,32.300000,1.000000,8-23,-1.000000,""
80,w0,ft.C.8,387.119972,8,-1.000000,1,COMPLETED_SUCCESSFULLY,387.968037,59.000000,446.968037,0.848065,59.848065,1.014374,56-63,-1.000000,""
81,w0,ft.C.16,392.016595,16,-1.000000,1,COMPLETED_SUCCESSFULLY,392.016595,32.300000,424.316595,0.000000,32.300000,1.000000,8-15 64-71,-1.000000,""
82,w0,ft.C.8,397.138845,8,-1.000000,1,COMPLETED_SUCCESSFULLY,397.138845,59.000000,456.138845,0.000000,59.000000,1.000000,0-7,-1.000000,""
83,w0,ft.C.8,402.157617,8,-1.000000,1,COMPLETED_SUCCESSFULLY,402.157617,59.000000,461.157617,0.000000,59.000000,1.000000,40-47,-1.000000,""
84,w0,ft.C.8,406.657353,8,-1.000000,1,COMPLETED_SUCCESSFULLY,406.657353,59.000000,465.657353,0.000000,59.000000,1.000000,48-55,-1.000000,""
85,w0,ft.C.8,411.370831,8,-1.000000,1,COMPLETED_SUCCESSFULLY,411.370831,59.000000,470.370831,0.000000,59.000000,1.000000,16-23,-1.000000,""
86,w0,ft.C.16,415.826718,16,-1.000000,1,COMPLETED_SUCCESSFULLY,415.826718,32.300000,448.126718,0.000000,32.300000,1.000000,72-87,-1.000000,""
87,w0,ft.C.8,420.109555,8,-1.000000,1,COMPLETED_SUCCESSFULLY,420.109555,59.000000,479.109555,0.000000,59.000000,1.000000,88-95,-1.000000,""
88,w0,ft.C.16,425.844065,16,-1.000000,1,COMPLETED_SUCCESSFULLY,425.844065,32.300000,458.144065,0.000000,32.300000,1.000000,8-15 24-31,-1.000000,""
89,w0,ft.C.16,430.095994,16,-1.000000,1,COMPLETED_SUCCESSFULLY,430.095994,32.300000,462.395994,0.000000,32.300000,1.000000,32-39 64-71,-1.000000,""
9,w0,ft.C.16,46.443267,16,-1.000000,1,COMPLETED_SUCCESSFULLY,46.443267,32.300000,78.743267,0.000000,32.300000,1.000000,104-119,-1.000000,""
90,w0,ft.C.8,435.103815,8,-1.000000,1,COMPLETED_SUCCESSFULLY,435.103815,59.000000,494.103815,0.000000,59.000000,1.000000,96-103,-1.000000,""
91,w0,ft.C.8,440.025215,8,-1.000000,1,COMPLETED_SUCCESSFULLY,440.025215,59.000000,499.025215,0.000000,59.000000,1.000000,104-111,-1.000000,""
92,w0,ft.C.8,445.670564,8,-1.000000,1,COMPLETED_SUCCESSFULLY,445.670564,59.000000,504.670564,0.000000,59.000000,1.000000,112-119,-1.000000,""
93,w0,ft.C.8,449.845026,8,-1.000000,1,COMPLETED_SUCCESSFULLY,449.845026,59.000000,508.845026,0.000000,59.000000,1.000000,56-63,-1.000000,""
94,w0,ft.C.8,455.050096,8,-1.000000,1,COMPLETED_SUCCESSFULLY,455.050096,59.000000,514.050096,0.000000,59.000000,1.000000,72-79,-1.000000,""
95,w0,ft.C.8,459.240280,8,-1.000000,1,COMPLETED_SUCCESSFULLY,459.240280,59.000000,518.240280,0.000000,59.000000,1.000000,0-7,-1.000000,""
96,w0,ft.C.8,463.728721,8,-1.000000,1,COMPLETED_SUCCESSFULLY,463.728721,59.000000,522.728721,0.000000,59.000000,1.000000,8-15,-1.000000,""
97,w0,ft.C.16,468.441659,16,-1.000000,1,COMPLETED_SUCCESSFULLY,468.441659,32.300000,500.741659,0.000000,32.300000,1.000000,24-39,-1.000000,""
98,w0,ft.C.8,473.730149,8,-1.000000,1,COMPLETED_SUCCESSFULLY,473.730149,59.000000,532.730149,0.000000,59.000000,1.000000,16-23,-1.000000,""
99,w0,ft.C.8,478.506221,8,-1.000000,1,COMPLETED_SUCCESSFULLY,478.506221,59.000000,537.506221,0.000000,59.000000,1.000000,40-47,-1.000000,""
