job_id,workload_name,profile,submission_time,requested_number_of_resources,requested_time,success,final_state,starting_time,execution_time,finish_time,waiting_time,turnaround_time,stretch,allocated_resources,consumed_energy,metadata
0,w0,ft.C.8,4.403767,8,-1.000000,1,COMPLETED_SUCCESSFULLY,4.403767,55.118807,59.522574,0.000000,55.118808,1.000000,0-7,-1.000000,""
1,w0,ft.C.16,7.950990,16,-1.000000,1,COMPLETED_SUCCESSFULLY,7.950990,29.527974,37.478964,0.000000,29.527974,1.000000,8-23,-1.000000,""
10,w0,ft.C.8,51.111754,8,-1.000000,1,COMPLETED_SUCCESSFULLY,51.111754,55.118810,106.230565,0.000000,55.118810,1.000000,32-39,-1.000000,""
100,w0,ft.C.8,484.134764,8,-1.000000,1,COMPLETED_SUCCESSFULLY,484.134764,55.118807,539.253571,0.000000,55.118807,1.000000,64-71,-1.000000,""
101,w0,ft.C.32,490.271556,32,-1.000000,1,COMPLETED_SUCCESSFULLY,490.271556,15.256186,505.527742,0.000000,15.256186,1.000000,80-103 112-119,-1.000000,""
102,w0,ft.C.8,495.457298,8,-1.000000,1,COMPLETED_SUCCESSFULLY,495.457298,55.118807,550.576106,0.000000,55.118807,1.000000,104-111,-1.000000,""
103,w0,ft.C.8,500.460921,8,-1.000000,1,COMPLETED_SUCCESSFULLY,500.460921,55.118807,555.579728,0.000000,55.118808,1.000000,24-31,-1.000000,""
104,w0,ft.C.8,505.148757,8,-1.000000,1,COMPLETED_SUCCESSFULLY,505.148757,55.118810,560.267567,0.000000,55.118810,1.000000,32-39,-1.000000,""
105,w0,ft.C.8,510.414899,8,-1.000000,1,COMPLETED_SUCCESSFULLY,510.414899,55.118807,565.533707,0.000000,55.118807,1.000000,16-23,-1.000000,""
106,w0,ft.C.8,514.834085,8,-1.000000,1,COMPLETED_SUCCESSFULLY,514.834085,55.118807,569.952892,0.000000,55.118807,1.000000,0-7,-1.000000,""
107,w0,ft.C.8,519.821206,8,-1.000000,1,COMPLETED_SUCCESSFULLY,519.821206,55.118807,574.940014,0.000000,55.118807,1.000000,8-15,-1.000000,""
108,w0,ft.C.8,524.133293,8,-1.000000,1,COMPLETED_SUCCESSFULLY,524.133293,55.118807,579.252100,0.000000,55.118807,1.000000,40-47,-1.000000,""
109,w0,ft.C.32,529.525341,32,-1.000000,1,COMPLETED_SUCCESSFULLY,529.525341,21.978392,551.503733,0.000000,21.978392,1.000000,48-55 72-95,-1.000000,""
11,w0,ft.C.32,55.248824,32,-1.000000,1,COMPLETED_SUCCESSFULLY,55.248824,31.219554,86.468378,0.000000,31.219554,1.000000,40-47 64-87,-1.000000,""
110,w0,ft.C.8,534.632877,8,-1.000000,1,COMPLETED_SUCCESSFULLY,534.632877,55.118807,589.751684,0.000000,55.118808,1.000000,56-63,-1.000000,""
111,w0,ft.C.16,539.654116,16,-1.000000,1,COMPLETED_SUCCESSFULLY,539.654116,34.753004,574.407120,0.000000,34.753004,1.000000,64-71 96-103,-1.000000,""
112,w0,ft.C.8,544.303976,8,-1.000000,1,COMPLETED_SUCCESSFULLY,544.303976,55.118807,599.422783,0.000000,55.118807,1.000000,112-119,-1.000000,""
113,w0,ft.C.8,549.434842,8,-1.000000,1,COMPLETED_SUCCESSFULLY,549.434842,55.118807,604.553650,0.000000,55.118807,1.000000,120-127,-1.000000,""
114,w0,ft.C.32,554.794891,32,-1.000000,1,COMPLETED_SUCCESSFULLY,554.794891,23.921949,578.716840,0.000000,23.921950,1.000000,48-55 72-95,-1.000000,""
115,w0,ft.C.32,559.953041,32,-1.000000,1,COMPLETED_SUCCESSFULLY,574.940062,15.256183,590.196245,14.987021,30.243204,1.982357,0-31,-1.000000,""
116,w0,ft.C.8,565.321982,8,-1.000000,1,COMPLETED_SUCCESSFULLY,574.940062,55.118807,630.058869,9.618080,64.736887,1.174497,32-39,-1.000000,""
117,w0,ft.C.32,568.617392,32,-1.000000,1,COMPLETED_SUCCESSFULLY,578.716891,25.278288,603.995179,10.099499,35.377787,1.399533,64-95,-1.000000,""
118,w0,ft.C.16,573.641539,16,-1.000000,1,COMPLETED_SUCCESSFULLY,578.716891,30.773545,609.490436,5.075353,35.848897,1.164926,96-111,-1.000000,""
119,w0,ft.C.16,578.634311,16,-1.000000,1,COMPLETED_SUCCESSFULLY,579.252151,29.527974,608.780125,0.617840,30.145814,1.020924,40-55,-1.000000,""
12,w0,ft.C.16,60.678619,16,-1.000000,1,COMPLETED_SUCCESSFULLY,60.678619,37.960420,98.639039,0.000000,37.960421,1.000000,0-7 88-95,-1.000000,""
120,w0,ft.C.32,583.614419,32,-1.000000,1,COMPLETED_SUCCESSFULLY,590.196293,15.256183,605.452476,6.581874,21.838057,1.431423,0-31,-1.000000,""
121,w0,ft.C.8,587.509257,8,-1.000000,1,COMPLETED_SUCCESSFULLY,590.196293,55.118807,645.315100,2.687037,57.805844,1.048750,56-63,-1.000000,""
122,w0,ft.C.8,592.268385,8,-1.000000,1,COMPLETED_SUCCESSFULLY,592.268385,55.118807,647.387192,0.000000,55.118807,1.000000,128-135,-1.000000,""
123,w0,ft.C.8,595.833170,8,-1.000000,1,COMPLETED_SUCCESSFULLY,599.422834,55.118807,654.541641,3.589665,58.708472,1.065126,112-119,-1.000000,""
124,w0,ft.C.32,600.075056,32,-1.000000,1,COMPLETED_SUCCESSFULLY,603.995230,20.406501,624.401732,3.920174,24.326676,1.192104,64-95,-1.000000,""
125,w0,ft.C.8,605.325679,8,-1.000000,1,COMPLETED_SUCCESSFULLY,605.325679,55.118807,660.444486,0.000000,55.118807,1.000000,120-127,-1.000000,""
126,w0,ft.C.8,610.675670,8,-1.000000,1,COMPLETED_SUCCESSFULLY,610.675670,55.118807,665.794477,0.000000,55.118808,1.000000,0-7,-1.000000,""
127,w0,ft.C.16,614.702077,16,-1.000000,1,COMPLETED_SUCCESSFULLY,614.702077,29.527974,644.230051,0.000000,29.527974,1.000000,8-23,-1.000000,""
128,w0,ft.C.16,619.706542,16,-1.000000,1,COMPLETED_SUCCESSFULLY,619.706542,31.919406,651.625948,0.000000,31.919406,1.000000,24-31 40-47,-1.000000,""
129,w0,ft.C.8,625.272785,8,-1.000000,1,COMPLETED_SUCCESSFULLY,625.272785,55.118807,680.391592,0.000000,55.118807,1.000000,48-55,-1.000000,""
13,w0,ft.C.16,65.330319,16,-1.000000,1,COMPLETED_SUCCESSFULLY,65.330319,29.527974,94.858293,0.000000,29.527974,1.000000,120-135,-1.000000,""
130,w0,ft.C.32,630.212147,32,-1.000000,1,COMPLETED_SUCCESSFULLY,630.212147,25.999304,656.211451,0.000000,25.999304,1.000000,32-39 64-87,-1.000000,""
131,w0,ft.C.32,634.001200,32,-1.000000,1,COMPLETED_SUCCESSFULLY,654.541692,31.139804,685.681497,20.540492,51.680297,1.659622,88-119,-1.000000,""
132,w0,ft.C.8,638.561509,8,-1.000000,1,COMPLETED_SUCCESSFULLY,654.541692,55.118807,709.660500,15.980183,71.098990,1.289923,8-15,-1.000000,""
133,w0,ft.C.8,643.171115,8,-1.000000,1,COMPLETED_SUCCESSFULLY,654.541692,55.118807,709.660500,11.370578,66.489385,1.206292,16-23,-1.000000,""
134,w0,ft.C.32,647.409276,32,-1.000000,1,COMPLETED_SUCCESSFULLY,656.211499,31.139843,687.351342,8.802223,39.942066,1.282668,56-87,-1.000000,""
135,w0,ft.C.8,652.156068,8,-1.000000,1,COMPLETED_SUCCESSFULLY,656.211499,55.118807,711.330306,4.055431,59.174238,1.073576,24-31,-1.000000,""
136,w0,ft.C.8,657.288660,8,-1.000000,1,COMPLETED_SUCCESSFULLY,657.288660,55.118810,712.407470,0.000000,55.118810,1.000000,32-39,-1.000000,""
137,w0,ft.C.32,662.095147,32,-1.000000,1,COMPLETED_SUCCESSFULLY,685.681548,31.139699,716.821247,23.586401,54.726100,1.757438,88-119,-1.000000,""
138,w0,ft.C.8,666.740818,8,-1.000000,1,COMPLETED_SUCCESSFULLY,685.681548,55.118807,740.800355,18.940730,74.059537,1.343635,0-7,-1.000000,""
139,w0,ft.C.8,670.729781,8,-1.000000,1,COMPLETED_SUCCESSFULLY,685.681548,55.118807,740.800355,14.951767,70.070574,1.271264,40-47,-1.000000,""
14,w0,ft.C.8,71.004578,8,-1.000000,1,COMPLETED_SUCCESSFULLY,71.004578,55.118807,126.123385,0.000000,55.118807,1.000000,8-15,-1.000000,""
140,w0,ft.C.32,675.450002,32,-1.000000,1,COMPLETED_SUCCESSFULLY,687.351393,21.370536,708.721929,11.901391,33.271927,1.556907,48-79,-1.000000,""
141,w0,ft.C.32,680.123232,32,-1.000000,1,COMPLETED_SUCCESSFULLY,708.721980,21.370493,730.092473,28.598748,49.969241,2.338235,48-79,-1.000000,""
142,w0,ft.C.16,685.168330,16,-1.000000,1,COMPLETED_SUCCESSFULLY,708.721980,29.527974,738.249954,23.553650,53.081624,1.797672,120-135,-1.000000,""
143,w0,ft.C.32,690.220193,32,-1.000000,1,COMPLETED_SUCCESSFULLY,712.407518,15.256186,727.663705,22.187326,37.443512,2.454317,8-39,-1.000000,""
144,w0,ft.C.32,695.880099,32,-1.000000,1,COMPLETED_SUCCESSFULLY,716.821298,20.517806,737.339104,20.941199,41.459005,2.020635,80-111,-1.000000,""
145,w0,ft.C.8,700.063472,8,-1.000000,1,COMPLETED_SUCCESSFULLY,716.821298,55.118807,771.940105,16.757826,71.876633,1.304031,112-119,-1.000000,""
146,w0,ft.C.8,705.032119,8,-1.000000,1,COMPLETED_SUCCESSFULLY,727.663753,55.118807,782.782560,22.631634,77.750441,1.410597,8-15,-1.000000,""
147,w0,ft.C.16,709.286597,16,-1.000000,1,COMPLETED_SUCCESSFULLY,727.663753,29.527974,757.191727,18.377156,47.905130,1.622364,16-31,-1.000000,""
148,w0,ft.C.8,713.884443,8,-1.000000,1,COMPLETED_SUCCESSFULLY,727.663753,55.118807,782.782560,13.779310,68.898117,1.249993,32-39,-1.000000,""
149,w0,ft.C.8,717.840909,8,-1.000000,1,COMPLETED_SUCCESSFULLY,730.092524,55.118807,785.211331,12.251616,67.370423,1.222277,48-55,-1.000000,""
15,w0,ft.C.32,76.198702,32,-1.000000,1,COMPLETED_SUCCESSFULLY,76.198702,30.968442,107.167144,0.000000,30.968443,1.000000,16-31 104-119,-1.000000,""
150,w0,ft.C.8,722.422016,8,-1.000000,1,COMPLETED_SUCCESSFULLY,730.092524,55.118807,785.211331,7.670508,62.789315,1.139163,56-63,-1.000000,""
151,w0,ft.C.32,727.819405,32,-1.000000,1,COMPLETED_SUCCESSFULLY,737.339155,23.599692,760.938847,9.519750,33.119441,1.403384,64-95,-1.000000,""
152,w0,ft.C.8,732.992813,8,-1.000000,1,COMPLETED_SUCCESSFULLY,737.339155,55.118810,792.457965,4.346342,59.465152,1.078854,96-103,-1.000000,""
153,w0,ft.C.8,737.344042,8,-1.000000,1,COMPLETED_SUCCESSFULLY,737.344042,55.118807,792.462850,0.000000,55.118807,1.000000,104-111,-1.000000,""
154,w0,ft.C.8,741.988622,8,-1.000000,1,COMPLETED_SUCCESSFULLY,741.988622,55.118807,797.107430,0.000000,55.118807,1.000000,0-7,-1.000000,""
155,w0,ft.C.16,745.846629,16,-1.000000,1,COMPLETED_SUCCESSFULLY,745.846629,38.591680,784.438309,0.000000,38.591680,1.000000,40-47 120-127,-1.000000,""
156,w0,ft.C.8,750.337683,8,-1.000000,1,COMPLETED_SUCCESSFULLY,750.337683,55.118807,805.456490,0.000001,55.118808,1.000000,128-135,-1.000000,""
157,w0,ft.C.8,754.935654,8,-1.000000,1,COMPLETED_SUCCESSFULLY,757.191775,55.118807,812.310582,2.256122,57.374929,1.040932,16-23,-1.000000,""
158,w0,ft.C.8,760.002923,8,-1.000000,1,COMPLETED_SUCCESSFULLY,760.002923,55.118807,815.121730,0.000000,55.118808,1.000000,24-31,-1.000000,""
159,w0,ft.C.32,764.175078,32,-1.000000,1,COMPLETED_SUCCESSFULLY,764.175078,26.185179,790.360258,0.000000,26.185179,1.000000,64-95,-1.000000,""
16,w0,ft.C.32,81.029423,32,-1.000000,1,COMPLETED_SUCCESSFULLY,86.468429,15.256183,101.724612,5.439007,20.695190,1.356512,40-71,-1.000000,""
160,w0,ft.C.8,768.923979,8,-1.000000,1,COMPLETED_SUCCESSFULLY,771.940156,55.118807,827.058963,3.016177,58.134984,1.054721,112-119,-1.000000,""
161,w0,ft.C.8,774.028444,8,-1.000000,1,COMPLETED_SUCCESSFULLY,782.782656,55.118807,837.901463,8.754213,63.873020,1.158824,8-15,-1.000000,""
162,w0,ft.C.8,778.684260,8,-1.000000,1,COMPLETED_SUCCESSFULLY,782.782656,55.118807,837.901463,4.098397,59.217204,1.074356,32-39,-1.000000,""
163,w0,ft.C.8,783.811779,8,-1.000000,1,COMPLETED_SUCCESSFULLY,784.438360,55.118807,839.557168,0.626582,55.745389,1.011368,40-47,-1.000000,""
164,w0,ft.C.16,789.288463,16,-1.000000,1,COMPLETED_SUCCESSFULLY,789.288463,29.527974,818.816438,0.000000,29.527974,1.000000,48-63,-1.000000,""
165,w0,ft.C.8,793.815812,8,-1.000000,1,COMPLETED_SUCCESSFULLY,793.815812,55.118807,848.934619,0.000000,55.118808,1.000000,64-71,-1.000000,""
166,w0,ft.C.16,798.647649,16,-1.000000,1,COMPLETED_SUCCESSFULLY,798.647649,30.799988,829.447638,0.000000,30.799988,1.000000,0-7 72-79,-1.000000,""
167,w0,ft.C.32,802.931641,32,-1.000000,1,COMPLETED_SUCCESSFULLY,802.931641,25.082327,828.013968,0.000000,25.082327,1.000000,80-111,-1.000000,""
168,w0,ft.C.8,807.972366,8,-1.000000,1,COMPLETED_SUCCESSFULLY,807.972366,55.118807,863.091173,0.000000,55.118807,1.000000,120-127,-1.000000,""
169,w0,ft.C.8,813.269117,8,-1.000000,1,COMPLETED_SUCCESSFULLY,813.269117,55.118807,868.387924,0.000000,55.118807,1.000000,16-23,-1.000000,""
17,w0,ft.C.32,85.207201,32,-1.000000,1,COMPLETED_SUCCESSFULLY,98.639087,15.256183,113.895271,13.431886,28.688069,1.880422,72-103,-1.000000,""
170,w0,ft.C.32,818.514866,32,-1.000000,1,COMPLETED_SUCCESSFULLY,828.014019,22.856744,850.870763,9.499153,32.355897,1.415595,80-111,-1.000000,""
171,w0,ft.C.8,822.997643,8,-1.000000,1,COMPLETED_SUCCESSFULLY,828.014019,55.118807,883.132826,5.016376,60.135183,1.091010,24-31,-1.000000,""
172,w0,ft.C.16,828.293868,16,-1.000000,1,COMPLETED_SUCCESSFULLY,828.293868,29.527974,857.821843,0.000000,29.527974,1.000000,48-63,-1.000000,""
173,w0,ft.C.32,833.116719,32,-1.000000,1,COMPLETED_SUCCESSFULLY,833.116719,31.261918,864.378637,0.000000,31.261918,1.000000,0-7 72-79 112-119 128-135,-1.000000,""
174,w0,ft.C.32,836.731974,32,-1.000000,1,COMPLETED_SUCCESSFULLY,850.870814,20.611632,871.482446,14.138841,34.750472,1.685964,80-111,-1.000000,""
175,w0,ft.C.32,841.911250,32,-1.000000,1,COMPLETED_SUCCESSFULLY,857.821894,15.256183,873.078077,15.910644,31.166827,2.042898,32-63,-1.000000,""
176,w0,ft.C.8,845.278460,8,-1.000000,1,COMPLETED_SUCCESSFULLY,857.821894,55.118807,912.940701,12.543434,67.662241,1.227571,8-15,-1.000000,""
177,w0,ft.C.8,850.230530,8,-1.000000,1,COMPLETED_SUCCESSFULLY,857.821894,55.118807,912.940701,7.591364,62.710171,1.137727,64-71,-1.000000,""
178,w0,ft.C.8,854.063439,8,-1.000000,1,COMPLETED_SUCCESSFULLY,863.091224,55.118807,918.210031,9.027785,64.146593,1.163788,120-127,-1.000000,""
179,w0,ft.C.8,858.723956,8,-1.000000,1,COMPLETED_SUCCESSFULLY,864.378685,55.118807,919.497493,5.654730,60.773537,1.102592,0-7,-1.000000,""
18,w0,ft.C.16,90.162254,16,-1.000000,1,COMPLETED_SUCCESSFULLY,98.639087,29.527974,128.167062,8.476834,38.004808,1.287078,120-135,-1.000000,""
180,w0,ft.C.8,863.145680,8,-1.000000,1,COMPLETED_SUCCESSFULLY,864.378685,55.118807,919.497493,1.233006,56.351813,1.022370,72-79,-1.000000,""
181,w0,ft.C.16,867.262491,16,-1.000000,1,COMPLETED_SUCCESSFULLY,867.262491,29.527974,896.790465,0.000000,29.527975,1.000000,112-119 128-135,-1.000000,""
182,w0,ft.C.8,871.067721,8,-1.000000,1,COMPLETED_SUCCESSFULLY,871.067721,55.118807,926.186528,0.000000,55.118807,1.000000,16-23,-1.000000,""
183,w0,ft.C.16,875.375111,16,-1.000000,1,COMPLETED_SUCCESSFULLY,875.375111,31.591450,906.966561,0.000000,31.591450,1.000000,32-47,-1.000000,""
184,w0,ft.C.8,879.859844,8,-1.000000,1,COMPLETED_SUCCESSFULLY,879.859844,55.118807,934.978651,0.000000,55.118808,1.000000,48-55,-1.000000,""
185,w0,ft.C.8,884.590165,8,-1.000000,1,COMPLETED_SUCCESSFULLY,884.590165,55.118807,939.708972,0.000000,55.118807,1.000000,24-31,-1.000000,""
186,w0,ft.C.32,889.404939,32,-1.000000,1,COMPLETED_SUCCESSFULLY,889.404939,23.536301,912.941240,0.000000,23.536301,1.000000,56-63 80-103,-1.000000,""
187,w0,ft.C.8,894.650507,8,-1.000000,1,COMPLETED_SUCCESSFULLY,894.650507,55.118807,949.769314,0.000000,55.118807,1.000000,104-111,-1.000000,""
188,w0,ft.C.8,899.533097,8,-1.000000,1,COMPLETED_SUCCESSFULLY,899.533097,55.118807,954.651904,0.000000,55.118807,1.000000,112-119,-1.000000,""
189,w0,ft.C.8,903.750524,8,-1.000000,1,COMPLETED_SUCCESSFULLY,903.750524,55.118807,958.869331,0.000000,55.118808,1.000000,128-135,-1.000000,""
19,w0,ft.C.8,95.549805,8,-1.000000,1,COMPLETED_SUCCESSFULLY,98.639087,55.118807,153.757895,3.089282,58.208089,1.056048,0-7,-1.000000,""
190,w0,ft.C.8,907.624731,8,-1.000000,1,COMPLETED_SUCCESSFULLY,907.624731,55.118810,962.743541,0.000000,55.118811,1.000000,32-39,-1.000000,""
191,w0,ft.C.8,913.215153,8,-1.000000,1,COMPLETED_SUCCESSFULLY,913.215153,55.118807,968.333960,0.000000,55.118807,1.000000,8-15,-1.000000,""
192,w0,ft.C.8,918.790628,8,-1.000000,1,COMPLETED_SUCCESSFULLY,918.790628,55.118807,973.909435,0.000000,55.118808,1.000000,40-47,-1.000000,""
193,w0,ft.C.8,923.326437,8,-1.000000,1,COMPLETED_SUCCESSFULLY,923.326437,55.118807,978.445244,0.000000,55.118808,1.000000,0-7,-1.000000,""
194,w0,ft.C.8,927.764435,8,-1.000000,1,COMPLETED_SUCCESSFULLY,927.764435,55.118807,982.883242,0.000000,55.118807,1.000000,16-23,-1.000000,""
195,w0,ft.C.32,931.888885,32,-1.000000,1,COMPLETED_SUCCESSFULLY,931.888885,36.195661,968.084546,0.000000,36.195661,1.000000,56-87,-1.000000,""
196,w0,ft.C.16,937.303838,16,-1.000000,1,COMPLETED_SUCCESSFULLY,937.303838,39.429310,976.733148,0.000000,39.429310,1.000000,48-55 88-95,-1.000000,""
197,w0,ft.C.32,943.076599,32,-1.000000,1,COMPLETED_SUCCESSFULLY,954.651955,24.770311,979.422266,11.575357,36.345668,1.467308,96-127,-1.000000,""
198,w0,ft.C.16,946.556094,16,-1.000000,1,COMPLETED_SUCCESSFULLY,962.743589,29.527974,992.271563,16.187495,45.715469,1.548209,24-39,-1.000000,""
199,w0,ft.C.8,951.528739,8,-1.000000,1,COMPLETED_SUCCESSFULLY,962.743589,55.118807,1017.862396,11.214850,66.333657,1.203467,128-135,-1.000000,""
2,w0,ft.C.8,12.302045,8,-1.000000,1,COMPLETED_SUCCESSFULLY,12.302045,55.118807,67.420852,0.000000,55.118808,1.000000,24-31,-1.000000,""
20,w0,ft.C.16,99.945175,16,-1.000000,1,COMPLETED_SUCCESSFULLY,101.724663,29.527974,131.252638,1.779488,31.307462,1.060264,40-55,-1.000000,""
200,w0,ft.C.8,955.618046,8,-1.000000,1,COMPLETED_SUCCESSFULLY,968.084597,55.118807,1023.203405,12.466552,67.585359,1.226176,56-63,-1.000000,""
201,w0,ft.C.8,961.003996,8,-1.000000,1,COMPLETED_SUCCESSFULLY,968.084597,55.118807,1023.203405,7.080601,62.199409,1.128461,64-71,-1.000000,""
202,w0,ft.C.32,966.196868,32,-1.000000,1,COMPLETED_SUCCESSFULLY,979.422318,15.256183,994.678501,13.225451,28.481634,1.866891,72-103,-1.000000,""
203,w0,ft.C.8,970.747062,8,-1.000000,1,COMPLETED_SUCCESSFULLY,979.422318,55.118807,1034.541125,8.675256,63.794063,1.157392,0-7,-1.000000,""
204,w0,ft.C.16,976.070140,16,-1.000000,1,COMPLETED_SUCCESSFULLY,979.422318,29.527974,1008.950292,3.352178,32.880152,1.113525,40-55,-1.000000,""
205,w0,ft.C.8,981.046143,8,-1.000000,1,COMPLETED_SUCCESSFULLY,981.046143,55.118807,1036.164950,0.000000,55.118808,1.000000,8-15,-1.000000,""
206,w0,ft.C.8,986.082476,8,-1.000000,1,COMPLETED_SUCCESSFULLY,986.082476,55.118807,1041.201283,0.000000,55.118807,1.000000,16-23,-1.000000,""
207,w0,ft.C.16,991.368543,16,-1.000000,1,COMPLETED_SUCCESSFULLY,991.368543,29.527974,1020.896517,0.000000,29.527975,1.000000,104-119,-1.000000,""
208,w0,ft.C.16,996.560155,16,-1.000000,1,COMPLETED_SUCCESSFULLY,996.560155,29.527977,1026.088132,0.000000,29.527977,1.000000,24-39,-1.000000,""
209,w0,ft.C.8,1001.573476,8,-1.000000,1,COMPLETED_SUCCESSFULLY,1001.573476,55.118810,1056.692286,0.000000,55.118810,1.000000,72-79,-1.000000,""
21,w0,ft.C.8,105.215463,8,-1.000000,1,COMPLETED_SUCCESSFULLY,105.215463,55.118807,160.334270,0.000000,55.118807,1.000000,56-63,-1.000000,""
210,w0,ft.C.16,1005.436445,16,-1.000000,1,COMPLETED_SUCCESSFULLY,1005.436445,29.527974,1034.964419,0.000000,29.527974,1.000000,80-95,-1.000000,""
211,w0,ft.C.8,1009.969088,8,-1.000000,1,COMPLETED_SUCCESSFULLY,1009.969088,55.118807,1065.087895,0.000000,55.118807,1.000000,40-47,-1.000000,""
212,w0,ft.C.32,1015.668586,32,-1.000000,1,COMPLETED_SUCCESSFULLY,1020.896568,15.256183,1036.152751,5.227982,20.484165,1.342680,96-127,-1.000000,""
213,w0,ft.C.8,1019.748008,8,-1.000000,1,COMPLETED_SUCCESSFULLY,1020.896568,55.118807,1076.015375,1.148560,56.267367,1.020838,48-55,-1.000000,""
214,w0,ft.C.8,1024.240349,8,-1.000000,1,COMPLETED_SUCCESSFULLY,1024.240349,55.118807,1079.359156,0.000000,55.118807,1.000000,56-63,-1.000000,""
215,w0,ft.C.8,1029.057997,8,-1.000000,1,COMPLETED_SUCCESSFULLY,1029.057997,55.118807,1084.176804,0.000000,55.118808,1.000000,24-31,-1.000000,""
216,w0,ft.C.8,1033.874398,8,-1.000000,1,COMPLETED_SUCCESSFULLY,1033.874398,55.118810,1088.993208,0.000000,55.118811,1.000000,32-39,-1.000000,""
217,w0,ft.C.8,1037.579193,8,-1.000000,1,COMPLETED_SUCCESSFULLY,1037.579193,55.118807,1092.698000,0.000000,55.118807,1.000000,0-7,-1.000000,""
218,w0,ft.C.8,1041.680024,8,-1.000000,1,COMPLETED_SUCCESSFULLY,1041.680024,55.118807,1096.798831,0.000000,55.118807,1.000000,8-15,-1.000000,""
219,w0,ft.C.8,1045.357805,8,-1.000000,1,COMPLETED_SUCCESSFULLY,1045.357805,55.118807,1100.476612,0.000000,55.118807,1.000000,16-23,-1.000000,""
22,w0,ft.C.8,110.725999,8,-1.000000,1,COMPLETED_SUCCESSFULLY,110.725999,55.118807,165.844806,0.000000,55.118808,1.000000,16-23,-1.000000,""
220,w0,ft.C.8,1049.917102,8,-1.000000,1,COMPLETED_SUCCESSFULLY,1049.917102,55.118807,1105.035909,0.000000,55.118808,1.000000,64-71,-1.000000,""
221,w0,ft.C.8,1054.865096,8,-1.000000,1,COMPLETED_SUCCESSFULLY,1054.865096,55.118807,1109.983903,0.000000,55.118807,1.000000,80-87,-1.000000,""
222,w0,ft.C.8,1059.971148,8,-1.000000,1,COMPLETED_SUCCESSFULLY,1059.971148,55.118810,1115.089958,0.000000,55.118810,1.000000,72-79,-1.000000,""
223,w0,ft.C.8,1064.199215,8,-1.000000,1,COMPLETED_SUCCESSFULLY,1064.199215,55.118807,1119.318022,0.000000,55.118808,1.000000,88-95,-1.000000,""
224,w0,ft.C.16,1068.361735,16,-1.000000,1,COMPLETED_SUCCESSFULLY,1068.361735,29.527977,1097.889712,0.000000,29.527977,1.000000,40-47 96-103,-1.000000,""
225,w0,ft.C.8,1072.642683,8,-1.000000,1,COMPLETED_SUCCESSFULLY,1072.642683,55.118807,1127.761490,0.000000,55.118807,1.000000,104-111,-1.000000,""
226,w0,ft.C.8,1078.017971,8,-1.000000,1,COMPLETED_SUCCESSFULLY,1078.017971,55.118807,1133.136778,0.000000,55.118808,1.000000,48-55,-1.000000,""
227,w0,ft.C.8,1082.863881,8,-1.000000,1,COMPLETED_SUCCESSFULLY,1082.863881,55.118807,1137.982688,0.000000,55.118807,1.000000,56-63,-1.000000,""
228,w0,ft.C.8,1087.627064,8,-1.000000,1,COMPLETED_SUCCESSFULLY,1087.627064,55.118807,1142.745871,0.000000,55.118807,1.000000,24-31,-1.000000,""
229,w0,ft.C.8,1092.597175,8,-1.000000,1,COMPLETED_SUCCESSFULLY,1092.597175,55.118810,1147.715985,0.000000,55.118810,1.000000,32-39,-1.000000,""
23,w0,ft.C.16,115.457999,16,-1.000000,1,COMPLETED_SUCCESSFULLY,115.457999,29.527977,144.985976,0.000000,29.527977,1.000000,24-39,-1.000000,""
230,w0,ft.C.8,1097.795258,8,-1.000000,1,COMPLETED_SUCCESSFULLY,1097.795258,55.118807,1152.914065,0.000000,55.118808,1.000000,0-7,-1.000000,""
231,w0,ft.C.32,1102.335708,32,-1.000000,1,COMPLETED_SUCCESSFULLY,1102.335708,31.308757,1133.644466,0.000000,31.308757,1.000000,8-23 40-47 96-103,-1.000000,""
232,w0,ft.C.16,1107.256313,16,-1.000000,1,COMPLETED_SUCCESSFULLY,1107.256313,51.035592,1158.291905,0.000000,51.035592,1.000000,64-71 112-119,-1.000000,""
233,w0,ft.C.16,1112.530596,16,-1.000000,1,COMPLETED_SUCCESSFULLY,1112.530596,46.773169,1159.303765,0.000000,46.773169,1.000000,80-87 120-127,-1.000000,""
234,w0,ft.C.16,1117.563142,16,-1.000000,1,COMPLETED_SUCCESSFULLY,1117.563142,47.769857,1165.333000,0.000000,47.769857,1.000000,72-79 128-135,-1.000000,""
235,w0,ft.C.16,1123.085968,16,-1.000000,1,COMPLETED_SUCCESSFULLY,1133.644514,29.527974,1163.172488,10.558546,40.086520,1.357578,8-23,-1.000000,""
236,w0,ft.C.8,1127.484664,8,-1.000000,1,COMPLETED_SUCCESSFULLY,1133.644514,55.118807,1188.763321,6.159850,61.278658,1.111756,40-47,-1.000000,""
237,w0,ft.C.16,1131.218404,16,-1.000000,1,COMPLETED_SUCCESSFULLY,1133.644514,29.527974,1163.172488,2.426110,31.954084,1.082163,88-103,-1.000000,""
238,w0,ft.C.32,1136.006873,32,-1.000000,1,COMPLETED_SUCCESSFULLY,1163.172587,15.256183,1178.428770,27.165715,42.421898,2.780636,0-31,-1.000000,""
239,w0,ft.C.8,1141.474373,8,-1.000000,1,COMPLETED_SUCCESSFULLY,1163.172587,55.118807,1218.291394,21.698214,76.817021,1.393663,32-39,-1.000000,""
24,w0,ft.C.8,119.268960,8,-1.000000,1,COMPLETED_SUCCESSFULLY,119.268960,55.118807,174.387767,0.000000,55.118808,1.000000,64-71,-1.000000,""
240,w0,ft.C.8,1146.857777,8,-1.000000,1,COMPLETED_SUCCESSFULLY,1163.172587,55.118807,1218.291394,16.314810,71.433617,1.295994,48-55,-1.000000,""
241,w0,ft.C.8,1152.190408,8,-1.000000,1,COMPLETED_SUCCESSFULLY,1163.172587,55.118807,1218.291394,10.982179,66.100987,1.199246,56-63,-1.000000,""
242,w0,ft.C.8,1156.754333,8,-1.000000,1,COMPLETED_SUCCESSFULLY,1163.172587,55.118807,1218.291394,6.418255,61.537062,1.116444,64-71,-1.000000,""
243,w0,ft.C.32,1160.021346,32,-1.000000,1,COMPLETED_SUCCESSFULLY,1163.172587,16.112706,1179.285293,3.151242,19.263948,1.195575,80-111,-1.000000,""
244,w0,ft.C.8,1165.310460,8,-1.000000,1,COMPLETED_SUCCESSFULLY,1165.310460,55.118807,1220.429267,0.000000,55.118807,1.000000,112-119,-1.000000,""
245,w0,ft.C.8,1169.576222,8,-1.000000,1,COMPLETED_SUCCESSFULLY,1169.576222,55.118810,1224.695032,0.000000,55.118810,1.000000,72-79,-1.000000,""
246,w0,ft.C.32,1174.013777,32,-1.000000,1,COMPLETED_SUCCESSFULLY,1178.428818,15.256183,1193.685002,4.415041,19.671224,1.289394,0-31,-1.000000,""
247,w0,ft.C.16,1178.697180,16,-1.000000,1,COMPLETED_SUCCESSFULLY,1178.697180,29.527974,1208.225154,0.000000,29.527974,1.000000,120-135,-1.000000,""
248,w0,ft.C.8,1183.777221,8,-1.000000,1,COMPLETED_SUCCESSFULLY,1183.777221,55.118807,1238.896028,0.000000,55.118807,1.000000,80-87,-1.000000,""
249,w0,ft.C.32,1188.632512,32,-1.000000,1,COMPLETED_SUCCESSFULLY,1193.685050,15.256183,1208.941233,5.052538,20.308722,1.331180,0-31,-1.000000,""
25,w0,ft.C.8,123.638803,8,-1.000000,1,COMPLETED_SUCCESSFULLY,123.638803,55.118810,178.757614,0.000000,55.118810,1.000000,72-79,-1.000000,""
250,w0,ft.C.8,1192.429299,8,-1.000000,1,COMPLETED_SUCCESSFULLY,1193.685050,55.118807,1248.803857,1.255751,56.374558,1.022783,40-47,-1.000000,""
251,w0,ft.C.8,1196.640845,8,-1.000000,1,COMPLETED_SUCCESSFULLY,1196.640845,55.118807,1251.759652,0.000000,55.118807,1.000000,88-95,-1.000000,""
252,w0,ft.C.32,1201.758566,32,-1.000000,1,COMPLETED_SUCCESSFULLY,1208.941281,15.256183,1224.197464,7.182715,22.438899,1.470807,0-31,-1.000000,""
253,w0,ft.C.8,1206.596983,8,-1.000000,1,COMPLETED_SUCCESSFULLY,1208.941281,55.118807,1264.060088,2.344299,57.463106,1.042532,96-103,-1.000000,""
254,w0,ft.C.8,1211.652651,8,-1.000000,1,COMPLETED_SUCCESSFULLY,1211.652651,55.118807,1266.771459,0.000000,55.118807,1.000000,104-111,-1.000000,""
255,w0,ft.C.8,1217.434939,8,-1.000000,1,COMPLETED_SUCCESSFULLY,1217.434939,55.118807,1272.553746,0.000000,55.118808,1.000000,120-127,-1.000000,""
256,w0,ft.C.8,1222.629635,8,-1.000000,1,COMPLETED_SUCCESSFULLY,1222.629635,55.118810,1277.748446,0.000000,55.118810,1.000000,32-39,-1.000000,""
257,w0,ft.C.8,1227.376807,8,-1.000000,1,COMPLETED_SUCCESSFULLY,1227.376807,55.118807,1282.495614,0.000000,55.118808,1.000000,0-7,-1.000000,""
258,w0,ft.C.32,1232.446297,32,-1.000000,1,COMPLETED_SUCCESSFULLY,1232.446297,17.980328,1250.426625,0.000000,17.980328,1.000000,8-31 48-55,-1.000000,""
259,w0,ft.C.16,1236.511703,16,-1.000000,1,COMPLETED_SUCCESSFULLY,1236.511703,29.527974,1266.039677,0.000000,29.527974,1.000000,56-71,-1.000000,""
26,w0,ft.C.8,128.765773,8,-1.000000,1,COMPLETED_SUCCESSFULLY,128.765773,55.118807,183.884580,0.000000,55.118808,1.000000,8-15,-1.000000,""
260,w0,ft.C.32,1241.645186,32,-1.000000,1,COMPLETED_SUCCESSFULLY,1241.645186,17.845055,1259.490242,0.000000,17.845055,1.000000,72-87 112-119 128-135,-1.000000,""
261,w0,ft.C.16,1246.928009,16,-1.000000,1,COMPLETED_SUCCESSFULLY,1250.426673,29.527974,1279.954647,3.498664,33.026639,1.118486,8-23,-1.000000,""
262,w0,ft.C.8,1251.904681,8,-1.000000,1,COMPLETED_SUCCESSFULLY,1251.904681,55.118807,1307.023488,0.000000,55.118807,1.000000,24-31,-1.000000,""
263,w0,ft.C.8,1256.308120,8,-1.000000,1,COMPLETED_SUCCESSFULLY,1256.308120,55.118807,1311.426927,0.000000,55.118807,1.000000,40-47,-1.000000,""
264,w0,ft.C.8,1260.446803,8,-1.000000,1,COMPLETED_SUCCESSFULLY,1260.446803,55.118807,1315.565610,0.000000,55.118808,1.000000,48-55,-1.000000,""
265,w0,ft.C.16,1264.833787,16,-1.000000,1,COMPLETED_SUCCESSFULLY,1264.833787,29.527977,1294.361764,0.000000,29.527977,1.000000,72-87,-1.000000,""
266,w0,ft.C.8,1268.625465,8,-1.000000,1,COMPLETED_SUCCESSFULLY,1268.625465,55.118807,1323.744272,0.000000,55.118808,1.000000,56-63,-1.000000,""
267,w0,ft.C.32,1273.713947,32,-1.000000,1,COMPLETED_SUCCESSFULLY,1273.713947,23.860040,1297.573987,0.000000,23.860040,1.000000,64-71 88-111,-1.000000,""
268,w0,ft.C.16,1279.185365,16,-1.000000,1,COMPLETED_SUCCESSFULLY,1279.185365,34.473453,1313.658818,0.000000,34.473453,1.000000,32-39 112-119,-1.000000,""
269,w0,ft.C.8,1283.609809,8,-1.000000,1,COMPLETED_SUCCESSFULLY,1283.609809,55.118807,1338.728616,0.000000,55.118808,1.000000,0-7,-1.000000,""
27,w0,ft.C.8,133.539465,8,-1.000000,1,COMPLETED_SUCCESSFULLY,133.539465,55.118807,188.658272,0.000000,55.118808,1.000000,40-47,-1.000000,""
270,w0,ft.C.8,1287.336518,8,-1.000000,1,COMPLETED_SUCCESSFULLY,1287.336518,55.118807,1342.455325,0.000000,55.118807,1.000000,8-15,-1.000000,""
271,w0,ft.C.32,1292.127731,32,-1.000000,1,COMPLETED_SUCCESSFULLY,1297.574038,21.175609,1318.749647,5.446307,26.621916,1.257197,64-95,-1.000000,""
272,w0,ft.C.16,1296.459149,16,-1.000000,1,COMPLETED_SUCCESSFULLY,1297.574038,34.876228,1332.450266,1.114889,35.991117,1.031967,96-111,-1.000000,""
273,w0,ft.C.16,1301.350729,16,-1.000000,1,COMPLETED_SUCCESSFULLY,1301.350729,35.128116,1336.478845,0.000000,35.128116,1.000000,16-23 120-127,-1.000000,""
274,w0,ft.C.16,1305.876022,16,-1.000000,1,COMPLETED_SUCCESSFULLY,1313.658866,29.527977,1343.186843,7.782844,37.310822,1.263575,24-39,-1.000000,""
275,w0,ft.C.16,1310.052527,16,-1.000000,1,COMPLETED_SUCCESSFULLY,1315.565661,29.527974,1345.093635,5.513134,35.041109,1.186709,40-55,-1.000000,""
276,w0,ft.C.32,1314.481658,32,-1.000000,1,COMPLETED_SUCCESSFULLY,1318.749698,21.234185,1339.983883,4.268040,25.502225,1.200999,64-95,-1.000000,""
277,w0,ft.C.8,1319.622284,8,-1.000000,1,COMPLETED_SUCCESSFULLY,1319.622284,55.118807,1374.741092,0.000000,55.118807,1.000000,112-119,-1.000000,""
278,w0,ft.C.8,1324.475430,8,-1.000000,1,COMPLETED_SUCCESSFULLY,1324.475430,55.118807,1379.594237,0.000000,55.118807,1.000000,56-63,-1.000000,""
279,w0,ft.C.8,1327.603459,8,-1.000000,1,COMPLETED_SUCCESSFULLY,1327.603459,55.118807,1382.722266,0.000000,55.118807,1.000000,128-135,-1.000000,""
28,w0,ft.C.32,137.328922,32,-1.000000,1,COMPLETED_SUCCESSFULLY,137.328922,17.098622,154.427544,0.000000,17.098622,1.000000,48-55 80-103,-1.000000,""
280,w0,ft.C.8,1332.640550,8,-1.000000,1,COMPLETED_SUCCESSFULLY,1332.640550,55.118810,1387.759360,0.000000,55.118810,1.000000,96-103,-1.000000,""
281,w0,ft.C.8,1337.509854,8,-1.000000,1,COMPLETED_SUCCESSFULLY,1337.509854,55.118807,1392.628661,0.000000,55.118807,1.000000,16-23,-1.000000,""
282,w0,ft.C.16,1341.530998,16,-1.000000,1,COMPLETED_SUCCESSFULLY,1341.530998,29.527977,1371.058976,0.000000,29.527977,1.000000,0-7 64-71,-1.000000,""
283,w0,ft.C.16,1345.426097,16,-1.000000,1,COMPLETED_SUCCESSFULLY,1345.426097,29.527974,1374.954072,0.000000,29.527974,1.000000,8-15 24-31,-1.000000,""
284,w0,ft.C.8,1350.069198,8,-1.000000,1,COMPLETED_SUCCESSFULLY,1350.069198,55.118810,1405.188009,0.000000,55.118810,1.000000,32-39,-1.000000,""
285,w0,ft.C.8,1355.166896,8,-1.000000,1,COMPLETED_SUCCESSFULLY,1355.166896,55.118807,1410.285703,0.000000,55.118807,1.000000,40-47,-1.000000,""
286,w0,ft.C.8,1360.589690,8,-1.000000,1,COMPLETED_SUCCESSFULLY,1360.589690,55.118807,1415.708498,0.000000,55.118807,1.000000,48-55,-1.000000,""
287,w0,ft.C.16,1365.045923,16,-1.000000,1,COMPLETED_SUCCESSFULLY,1365.045923,29.527977,1394.573900,0.000000,29.527977,1.000000,72-87,-1.000000,""
288,w0,ft.C.8,1368.347992,8,-1.000000,1,COMPLETED_SUCCESSFULLY,1368.347992,55.118807,1423.466799,0.000000,55.118807,1.000000,88-95,-1.000000,""
289,w0,ft.C.32,1373.259411,32,-1.000000,1,COMPLETED_SUCCESSFULLY,1373.259411,17.813320,1391.072732,0.000000,17.813320,1.000000,0-7 64-71 104-111 120-127,-1.000000,""
29,w0,ft.C.8,141.799425,8,-1.000000,1,COMPLETED_SUCCESSFULLY,141.799425,55.118807,196.918232,0.000000,55.118807,1.000000,104-111,-1.000000,""
290,w0,ft.C.8,1378.487784,8,-1.000000,1,COMPLETED_SUCCESSFULLY,1378.487784,55.118807,1433.606591,0.000000,55.118808,1.000000,8-15,-1.000000,""
291,w0,ft.C.8,1382.230247,8,-1.000000,1,COMPLETED_SUCCESSFULLY,1382.230247,55.118807,1437.349054,0.000000,55.118808,1.000000,24-31,-1.000000,""
292,w0,ft.C.32,1385.752237,32,-1.000000,1,COMPLETED_SUCCESSFULLY,1391.072780,17.157871,1408.230651,5.320543,22.478414,1.310093,96-127,-1.000000,""
293,w0,ft.C.8,1390.475075,8,-1.000000,1,COMPLETED_SUCCESSFULLY,1391.072780,55.118807,1446.191587,0.597705,55.716513,1.010844,0-7,-1.000000,""
294,w0,ft.C.16,1395.674688,16,-1.000000,1,COMPLETED_SUCCESSFULLY,1395.674688,49.679962,1445.354650,0.000000,49.679962,1.000000,16-23 56-63,-1.000000,""
295,w0,ft.C.32,1399.676431,32,-1.000000,1,COMPLETED_SUCCESSFULLY,1399.676431,43.133729,1442.810160,0.000000,43.133729,1.000000,64-87 128-135,-1.000000,""
296,w0,ft.C.8,1403.155630,8,-1.000000,1,COMPLETED_SUCCESSFULLY,1405.188057,55.118810,1460.306867,2.032427,57.151238,1.036874,32-39,-1.000000,""
297,w0,ft.C.8,1406.379466,8,-1.000000,1,COMPLETED_SUCCESSFULLY,1408.230702,55.118810,1463.349513,1.851236,56.970046,1.033586,96-103,-1.000000,""
298,w0,ft.C.16,1411.298018,16,-1.000000,1,COMPLETED_SUCCESSFULLY,1411.298018,54.152790,1465.450808,0.000000,54.152791,1.000000,40-47 104-111,-1.000000,""
299,w0,ft.C.8,1415.763602,8,-1.000000,1,COMPLETED_SUCCESSFULLY,1415.763602,55.118807,1470.882410,0.000000,55.118807,1.000000,48-55,-1.000000,""
3,w0,ft.C.16,17.481270,16,-1.000000,1,COMPLETED_SUCCESSFULLY,17.481270,29.527977,47.009247,0.000000,29.527977,1.000000,32-47,-1.000000,""
30,w0,ft.C.8,147.462451,8,-1.000000,1,COMPLETED_SUCCESSFULLY,147.462451,55.118807,202.581259,0.000000,55.118807,1.000000,24-31,-1.000000,""
300,w0,ft.C.16,1420.524203,16,-1.000000,1,COMPLETED_SUCCESSFULLY,1420.524203,29.527974,1450.052177,0.000000,29.527974,1.000000,112-127,-1.000000,""
301,w0,ft.C.8,1425.314874,8,-1.000000,1,COMPLETED_SUCCESSFULLY,1425.314874,55.118807,1480.433681,0.000000,55.118807,1.000000,88-95,-1.000000,""
302,w0,ft.C.16,1430.585960,16,-1.000000,1,COMPLETED_SUCCESSFULLY,1442.810211,43.028329,1485.838541,12.224252,55.252581,1.284098,64-79,-1.000000,""
303,w0,ft.C.8,1435.654034,8,-1.000000,1,COMPLETED_SUCCESSFULLY,1442.810211,55.118807,1497.929018,7.156177,62.274984,1.129832,8-15,-1.000000,""
304,w0,ft.C.8,1440.929319,8,-1.000000,1,COMPLETED_SUCCESSFULLY,1442.810211,55.118807,1497.929018,1.880892,56.999699,1.034124,24-31,-1.000000,""
305,w0,ft.C.16,1445.064944,16,-1.000000,1,COMPLETED_SUCCESSFULLY,1445.064944,31.515944,1476.580888,0.000000,31.515944,1.000000,80-87 128-135,-1.000000,""
306,w0,ft.C.8,1449.945041,8,-1.000000,1,COMPLETED_SUCCESSFULLY,1449.945041,55.118807,1505.063848,0.000000,55.118807,1.000000,0-7,-1.000000,""
307,w0,ft.C.16,1453.975462,16,-1.000000,1,COMPLETED_SUCCESSFULLY,1453.975462,41.698061,1495.673523,0.000000,41.698061,1.000000,16-23 56-63,-1.000000,""
308,w0,ft.C.8,1459.627286,8,-1.000000,1,COMPLETED_SUCCESSFULLY,1459.627286,55.118807,1514.746093,0.000000,55.118807,1.000000,112-119,-1.000000,""
309,w0,ft.C.8,1464.370462,8,-1.000000,1,COMPLETED_SUCCESSFULLY,1464.370462,55.118810,1519.489273,0.000000,55.118810,1.000000,32-39,-1.000000,""
31,w0,ft.C.16,152.551332,16,-1.000000,1,COMPLETED_SUCCESSFULLY,152.551332,32.803545,185.354877,0.000000,32.803546,1.000000,32-39 112-119,-1.000000,""
310,w0,ft.C.8,1470.359155,8,-1.000000,1,COMPLETED_SUCCESSFULLY,1470.359155,55.118807,1525.477962,0.000000,55.118807,1.000000,40-47,-1.000000,""
311,w0,ft.C.8,1474.415112,8,-1.000000,1,COMPLETED_SUCCESSFULLY,1474.415112,55.118807,1529.533919,0.000000,55.118808,1.000000,48-55,-1.000000,""
312,w0,ft.C.8,1478.958814,8,-1.000000,1,COMPLETED_SUCCESSFULLY,1478.958814,55.118807,1534.077622,0.000000,55.118807,1.000000,80-87,-1.000000,""
313,w0,ft.C.16,1484.472322,16,-1.000000,1,COMPLETED_SUCCESSFULLY,1484.472322,29.527977,1514.000299,0.000000,29.527977,1.000000,88-103,-1.000000,""
314,w0,ft.C.16,1489.036766,16,-1.000000,1,COMPLETED_SUCCESSFULLY,1489.036766,31.309760,1520.346526,0.000000,31.309760,1.000000,64-79,-1.000000,""
315,w0,ft.C.32,1494.048140,32,-1.000000,1,COMPLETED_SUCCESSFULLY,1505.063896,15.256183,1520.320080,11.015757,26.271940,1.722052,0-31,-1.000000,""
316,w0,ft.C.8,1498.796811,8,-1.000000,1,COMPLETED_SUCCESSFULLY,1505.063896,55.118807,1560.182704,6.267085,61.385892,1.113701,56-63,-1.000000,""
317,w0,ft.C.8,1503.114172,8,-1.000000,1,COMPLETED_SUCCESSFULLY,1505.063896,55.118807,1560.182704,1.949725,57.068532,1.035373,104-111,-1.000000,""
318,w0,ft.C.16,1507.410645,16,-1.000000,1,COMPLETED_SUCCESSFULLY,1507.410645,29.527974,1536.938619,0.000000,29.527974,1.000000,120-135,-1.000000,""
319,w0,ft.C.8,1511.473225,8,-1.000000,1,COMPLETED_SUCCESSFULLY,1514.000350,55.118807,1569.119158,2.527125,57.645932,1.045849,88-95,-1.000000,""
32,w0,ft.C.16,157.055578,16,-1.000000,1,COMPLETED_SUCCESSFULLY,157.055578,33.202873,190.258451,0.000000,33.202873,1.000000,0-7 48-55,-1.000000,""
320,w0,ft.C.16,1516.424872,16,-1.000000,1,COMPLETED_SUCCESSFULLY,1516.424872,29.686706,1546.111578,0.000000,29.686706,1.000000,96-103 112-119,-1.000000,""
321,w0,ft.C.8,1521.429469,8,-1.000000,1,COMPLETED_SUCCESSFULLY,1521.429469,55.118807,1576.548277,0.000000,55.118807,1.000000,0-7,-1.000000,""
322,w0,ft.C.16,1526.324900,16,-1.000000,1,COMPLETED_SUCCESSFULLY,1526.324900,29.527974,1555.852874,0.000000,29.527975,1.000000,8-23,-1.000000,""
323,w0,ft.C.8,1531.640731,8,-1.000000,1,COMPLETED_SUCCESSFULLY,1531.640731,55.118807,1586.759538,0.000000,55.118807,1.000000,24-31,-1.000000,""
324,w0,ft.C.8,1536.712960,8,-1.000000,1,COMPLETED_SUCCESSFULLY,1536.712960,55.118810,1591.831771,0.000000,55.118810,1.000000,32-39,-1.000000,""
325,w0,ft.C.8,1541.949975,8,-1.000000,1,COMPLETED_SUCCESSFULLY,1541.949975,55.118807,1597.068782,0.000000,55.118807,1.000000,40-47,-1.000000,""
326,w0,ft.C.32,1546.838354,32,-1.000000,1,COMPLETED_SUCCESSFULLY,1546.838354,28.411095,1575.249449,0.000000,28.411095,1.000000,48-55 64-87,-1.000000,""
327,w0,ft.C.16,1551.587253,16,-1.000000,1,COMPLETED_SUCCESSFULLY,1551.587253,30.485714,1582.072967,0.000000,30.485714,1.000000,96-103 112-119,-1.000000,""
328,w0,ft.C.16,1556.939012,16,-1.000000,1,COMPLETED_SUCCESSFULLY,1556.939012,29.527974,1586.466987,0.000000,29.527974,1.000000,8-23,-1.000000,""
329,w0,ft.C.8,1562.158416,8,-1.000000,1,COMPLETED_SUCCESSFULLY,1562.158416,55.118807,1617.277223,0.000000,55.118807,1.000000,56-63,-1.000000,""
33,w0,ft.C.8,160.771810,8,-1.000000,1,COMPLETED_SUCCESSFULLY,160.771810,55.118807,215.890617,0.000000,55.118808,1.000000,56-63,-1.000000,""
330,w0,ft.C.8,1566.710322,8,-1.000000,1,COMPLETED_SUCCESSFULLY,1566.710322,55.118807,1621.829129,0.000000,55.118808,1.000000,104-111,-1.000000,""
331,w0,ft.C.8,1572.299228,8,-1.000000,1,COMPLETED_SUCCESSFULLY,1572.299228,55.118807,1627.418035,0.000000,55.118807,1.000000,88-95,-1.000000,""
332,w0,ft.C.8,1576.423222,8,-1.000000,1,COMPLETED_SUCCESSFULLY,1576.423222,55.118807,1631.542029,0.000000,55.118808,1.000000,48-55,-1.000000,""
333,w0,ft.C.16,1582.283388,16,-1.000000,1,COMPLETED_SUCCESSFULLY,1582.283388,43.182718,1625.466106,0.000000,43.182718,1.000000,0-7 64-71,-1.000000,""
334,w0,ft.C.16,1586.697021,16,-1.000000,1,COMPLETED_SUCCESSFULLY,1586.697021,29.527974,1616.224996,0.000000,29.527974,1.000000,8-23,-1.000000,""
335,w0,ft.C.32,1590.842157,32,-1.000000,1,COMPLETED_SUCCESSFULLY,1590.842157,30.937103,1621.779260,0.000000,30.937103,1.000000,24-31 72-87 96-103,-1.000000,""
336,w0,ft.C.16,1595.594317,16,-1.000000,1,COMPLETED_SUCCESSFULLY,1595.594317,37.541713,1633.136030,0.000000,37.541713,1.000000,32-39 112-119,-1.000000,""
337,w0,ft.C.16,1600.925157,16,-1.000000,1,COMPLETED_SUCCESSFULLY,1600.925157,33.359986,1634.285143,0.000000,33.359986,1.000000,40-47 120-127,-1.000000,""
338,w0,ft.C.16,1606.210550,16,-1.000000,1,COMPLETED_SUCCESSFULLY,1616.225044,29.527974,1645.753018,10.014494,39.542468,1.339153,8-23,-1.000000,""
339,w0,ft.C.8,1610.786407,8,-1.000000,1,COMPLETED_SUCCESSFULLY,1616.225044,55.118807,1671.343851,5.438637,60.557445,1.098671,128-135,-1.000000,""
34,w0,ft.C.8,166.104972,8,-1.000000,1,COMPLETED_SUCCESSFULLY,166.104972,55.118807,221.223779,0.000000,55.118807,1.000000,16-23,-1.000000,""
340,w0,ft.C.8,1616.011283,8,-1.000000,1,COMPLETED_SUCCESSFULLY,1617.277274,55.118807,1672.396082,1.265991,56.384799,1.022968,56-63,-1.000000,""
341,w0,ft.C.16,1620.680858,16,-1.000000,1,COMPLETED_SUCCESSFULLY,1621.779308,29.527977,1651.307285,1.098450,30.626427,1.037200,72-87,-1.000000,""
342,w0,ft.C.8,1625.527816,8,-1.000000,1,COMPLETED_SUCCESSFULLY,1625.527816,55.118807,1680.646623,0.000000,55.118807,1.000000,0-7,-1.000000,""
343,w0,ft.C.8,1630.799944,8,-1.000000,1,COMPLETED_SUCCESSFULLY,1630.799944,55.118807,1685.918751,0.000000,55.118808,1.000000,24-31,-1.000000,""
344,w0,ft.C.16,1635.812813,16,-1.000000,1,COMPLETED_SUCCESSFULLY,1635.812813,29.527977,1665.340790,0.000000,29.527977,1.000000,32-47,-1.000000,""
345,w0,ft.C.8,1640.783253,8,-1.000000,1,COMPLETED_SUCCESSFULLY,1640.783253,55.118807,1695.902060,0.000000,55.118808,1.000000,48-55,-1.000000,""
346,w0,ft.C.8,1644.921545,8,-1.000000,1,COMPLETED_SUCCESSFULLY,1644.921545,55.118807,1700.040352,0.000000,55.118808,1.000000,64-71,-1.000000,""
347,w0,ft.C.16,1649.332079,16,-1.000000,1,COMPLETED_SUCCESSFULLY,1649.332079,29.527974,1678.860053,0.000000,29.527974,1.000000,8-23,-1.000000,""
348,w0,ft.C.16,1654.542251,16,-1.000000,1,COMPLETED_SUCCESSFULLY,1654.542251,29.527977,1684.070228,0.000000,29.527978,1.000000,72-87,-1.000000,""
349,w0,ft.C.8,1659.705055,8,-1.000000,1,COMPLETED_SUCCESSFULLY,1659.705055,55.118807,1714.823862,0.000000,55.118807,1.000000,88-95,-1.000000,""
35,w0,ft.C.32,171.032943,32,-1.000000,1,COMPLETED_SUCCESSFULLY,171.032943,26.023271,197.056214,0.000000,26.023271,1.000000,80-103 120-127,-1.000000,""
350,w0,ft.C.8,1664.713165,8,-1.000000,1,COMPLETED_SUCCESSFULLY,1664.713165,55.118810,1719.831975,0.000000,55.118811,1.000000,96-103,-1.000000,""
351,w0,ft.C.16,1669.898325,16,-1.000000,1,COMPLETED_SUCCESSFULLY,1669.898325,29.527977,1699.426302,0.000000,29.527977,1.000000,32-47,-1.000000,""
352,w0,ft.C.8,1674.608945,8,-1.000000,1,COMPLETED_SUCCESSFULLY,1674.608945,55.118807,1729.727752,0.000000,55.118807,1.000000,56-63,-1.000000,""
353,w0,ft.C.8,1679.136868,8,-1.000000,1,COMPLETED_SUCCESSFULLY,1679.136868,55.118807,1734.255676,0.000000,55.118807,1.000000,8-15,-1.000000,""
354,w0,ft.C.8,1684.007064,8,-1.000000,1,COMPLETED_SUCCESSFULLY,1684.007064,55.118807,1739.125871,0.000000,55.118808,1.000000,0-7,-1.000000,""
355,w0,ft.C.8,1688.075419,8,-1.000000,1,COMPLETED_SUCCESSFULLY,1688.075419,55.118807,1743.194227,0.000000,55.118807,1.000000,16-23,-1.000000,""
356,w0,ft.C.32,1692.890486,32,-1.000000,1,COMPLETED_SUCCESSFULLY,1692.890486,30.827473,1723.717959,0.000000,30.827473,1.000000,24-31 72-87 104-111,-1.000000,""
357,w0,ft.C.16,1696.985363,16,-1.000000,1,COMPLETED_SUCCESSFULLY,1696.985363,45.786988,1742.772351,0.000000,45.786988,1.000000,48-55 112-119,-1.000000,""
358,w0,ft.C.16,1702.183840,16,-1.000000,1,COMPLETED_SUCCESSFULLY,1702.183840,40.281028,1742.464868,0.000000,40.281028,1.000000,32-47,-1.000000,""
359,w0,ft.C.16,1706.998537,16,-1.000000,1,COMPLETED_SUCCESSFULLY,1706.998537,45.597104,1752.595641,0.000000,45.597104,1.000000,64-71 120-127,-1.000000,""
36,w0,ft.C.16,176.560944,16,-1.000000,1,COMPLETED_SUCCESSFULLY,176.560944,39.706973,216.267917,0.000000,39.706973,1.000000,64-71 128-135,-1.000000,""
360,w0,ft.C.8,1711.623325,8,-1.000000,1,COMPLETED_SUCCESSFULLY,1711.623325,55.118807,1766.742132,0.000000,55.118807,1.000000,128-135,-1.000000,""
361,w0,ft.C.8,1716.775681,8,-1.000000,1,COMPLETED_SUCCESSFULLY,1716.775681,55.118807,1771.894489,0.000000,55.118807,1.000000,88-95,-1.000000,""
362,w0,ft.C.32,1721.324394,32,-1.000000,1,COMPLETED_SUCCESSFULLY,1742.772402,32.684727,1775.457129,21.448008,54.132735,1.656209,24-55,-1.000000,""
363,w0,ft.C.16,1726.919869,16,-1.000000,1,COMPLETED_SUCCESSFULLY,1742.772402,29.527974,1772.300377,15.852533,45.380508,1.536865,0-15,-1.000000,""
364,w0,ft.C.8,1731.689146,8,-1.000000,1,COMPLETED_SUCCESSFULLY,1742.772402,55.118807,1797.891210,11.083256,66.202063,1.201079,56-63,-1.000000,""
365,w0,ft.C.8,1736.829322,8,-1.000000,1,COMPLETED_SUCCESSFULLY,1742.772402,55.118807,1797.891210,5.943080,61.061888,1.107823,72-79,-1.000000,""
366,w0,ft.C.8,1739.846331,8,-1.000000,1,COMPLETED_SUCCESSFULLY,1742.772402,55.118807,1797.891210,2.926072,58.044879,1.053087,80-87,-1.000000,""
367,w0,ft.C.8,1745.274880,8,-1.000000,1,COMPLETED_SUCCESSFULLY,1745.274880,55.118807,1800.393687,0.000000,55.118807,1.000000,16-23,-1.000000,""
368,w0,ft.C.8,1750.036336,8,-1.000000,1,COMPLETED_SUCCESSFULLY,1750.036336,55.118810,1805.155146,0.000000,55.118810,1.000000,96-103,-1.000000,""
369,w0,ft.C.32,1755.043266,32,-1.000000,1,COMPLETED_SUCCESSFULLY,1755.043266,26.767492,1781.810758,0.000000,26.767492,1.000000,64-71 104-127,-1.000000,""
37,w0,ft.C.8,182.071787,8,-1.000000,1,COMPLETED_SUCCESSFULLY,182.071787,55.118810,237.190597,0.000000,55.118810,1.000000,72-79,-1.000000,""
370,w0,ft.C.8,1759.912825,8,-1.000000,1,COMPLETED_SUCCESSFULLY,1766.742183,55.118807,1821.860991,6.829358,61.948166,1.123903,128-135,-1.000000,""
371,w0,ft.C.8,1764.077017,8,-1.000000,1,COMPLETED_SUCCESSFULLY,1771.894540,55.118807,1827.013347,7.817523,62.936331,1.141830,88-95,-1.000000,""
372,w0,ft.C.32,1768.046735,32,-1.000000,1,COMPLETED_SUCCESSFULLY,1775.457177,32.613258,1808.070436,7.410443,40.023701,1.227222,24-55,-1.000000,""
373,w0,ft.C.16,1773.330097,16,-1.000000,1,COMPLETED_SUCCESSFULLY,1775.457177,29.527974,1804.985152,2.127080,31.655054,1.072036,0-15,-1.000000,""
374,w0,ft.C.16,1778.808592,16,-1.000000,1,COMPLETED_SUCCESSFULLY,1781.810809,29.527974,1811.338783,3.002217,32.530191,1.101674,104-119,-1.000000,""
375,w0,ft.C.16,1782.888034,16,-1.000000,1,COMPLETED_SUCCESSFULLY,1782.888034,34.544562,1817.432597,0.000000,34.544562,1.000000,64-71 120-127,-1.000000,""
376,w0,ft.C.32,1787.702702,32,-1.000000,1,COMPLETED_SUCCESSFULLY,1808.070484,15.256183,1823.326667,20.367782,35.623965,2.335051,0-31,-1.000000,""
377,w0,ft.C.16,1792.396028,16,-1.000000,1,COMPLETED_SUCCESSFULLY,1808.070484,32.384827,1840.455311,15.674456,48.059284,1.484006,32-47,-1.000000,""
378,w0,ft.C.8,1797.044997,8,-1.000000,1,COMPLETED_SUCCESSFULLY,1808.070484,55.118807,1863.189291,11.025487,66.144294,1.200031,48-55,-1.000000,""
379,w0,ft.C.16,1802.862610,16,-1.000000,1,COMPLETED_SUCCESSFULLY,1808.070484,29.527974,1837.598458,5.207874,34.735848,1.176371,72-87,-1.000000,""
38,w0,ft.C.8,185.936335,8,-1.000000,1,COMPLETED_SUCCESSFULLY,185.936335,55.118807,241.055143,0.000000,55.118807,1.000000,8-15,-1.000000,""
380,w0,ft.C.16,1807.448935,16,-1.000000,1,COMPLETED_SUCCESSFULLY,1811.338834,29.737210,1841.076044,3.889899,33.627109,1.130809,96-111,-1.000000,""
381,w0,ft.C.8,1811.701845,8,-1.000000,1,COMPLETED_SUCCESSFULLY,1811.701845,55.118807,1866.820652,0.000000,55.118807,1.000000,56-63,-1.000000,""
382,w0,ft.C.8,1817.392811,8,-1.000000,1,COMPLETED_SUCCESSFULLY,1817.392811,55.118807,1872.511619,0.000000,55.118807,1.000000,112-119,-1.000000,""
383,w0,ft.C.16,1822.646694,16,-1.000000,1,COMPLETED_SUCCESSFULLY,1822.646694,32.886672,1855.533366,0.000000,32.886672,1.000000,64-71 120-127,-1.000000,""
384,w0,ft.C.8,1827.524718,8,-1.000000,1,COMPLETED_SUCCESSFULLY,1827.524718,55.118807,1882.643525,0.000000,55.118807,1.000000,0-7,-1.000000,""
385,w0,ft.C.16,1833.006829,16,-1.000000,1,COMPLETED_SUCCESSFULLY,1833.006829,29.527974,1862.534803,0.000000,29.527975,1.000000,8-23,-1.000000,""
386,w0,ft.C.16,1837.169154,16,-1.000000,1,COMPLETED_SUCCESSFULLY,1837.169154,35.737324,1872.906478,0.000000,35.737324,1.000000,24-31 88-95,-1.000000,""
387,w0,ft.C.8,1842.493244,8,-1.000000,1,COMPLETED_SUCCESSFULLY,1842.493244,55.118810,1897.612054,0.000000,55.118810,1.000000,32-39,-1.000000,""
388,w0,ft.C.8,1846.850537,8,-1.000000,1,COMPLETED_SUCCESSFULLY,1846.850537,55.118807,1901.969345,0.000000,55.118807,1.000000,40-47,-1.000000,""
389,w0,ft.C.8,1851.992947,8,-1.000000,1,COMPLETED_SUCCESSFULLY,1851.992947,55.118810,1907.111757,0.000000,55.118810,1.000000,72-79,-1.000000,""
39,w0,ft.C.32,190.668459,32,-1.000000,1,COMPLETED_SUCCESSFULLY,190.668459,30.365932,221.034391,0.000000,30.365932,1.000000,0-7 32-55,-1.000000,""
390,w0,ft.C.16,1856.251755,16,-1.000000,1,COMPLETED_SUCCESSFULLY,1856.251755,44.398821,1900.650576,0.000000,44.398821,1.000000,64-71 80-87,-1.000000,""
391,w0,ft.C.16,1861.785968,16,-1.000000,1,COMPLETED_SUCCESSFULLY,1861.785968,43.841165,1905.627133,0.000000,43.841166,1.000000,96-111,-1.000000,""
392,w0,ft.C.8,1866.870051,8,-1.000000,1,COMPLETED_SUCCESSFULLY,1866.870051,55.118807,1921.988859,0.000000,55.118807,1.000000,8-15,-1.000000,""
393,w0,ft.C.8,1872.010404,8,-1.000000,1,COMPLETED_SUCCESSFULLY,1872.010404,55.118807,1927.129211,0.000000,55.118807,1.000000,16-23,-1.000000,""
394,w0,ft.C.8,1876.008817,8,-1.000000,1,COMPLETED_SUCCESSFULLY,1876.008817,55.118807,1931.127624,0.000000,55.118807,1.000000,24-31,-1.000000,""
395,w0,ft.C.16,1880.759961,16,-1.000000,1,COMPLETED_SUCCESSFULLY,1880.759961,29.527974,1910.287935,0.000000,29.527974,1.000000,48-63,-1.000000,""
396,w0,ft.C.16,1885.644692,16,-1.000000,1,COMPLETED_SUCCESSFULLY,1885.644692,38.974902,1924.619594,0.000000,38.974902,1.000000,0-7 88-95,-1.000000,""
397,w0,ft.C.8,1890.744737,8,-1.000000,1,COMPLETED_SUCCESSFULLY,1890.744737,55.118807,1945.863544,0.000000,55.118807,1.000000,112-119,-1.000000,""
398,w0,ft.C.8,1894.742439,8,-1.000000,1,COMPLETED_SUCCESSFULLY,1894.742440,55.118807,1949.861247,0.000001,55.118808,1.000000,120-127,-1.000000,""
399,w0,ft.C.32,1899.781334,32,-1.000000,1,COMPLETED_SUCCESSFULLY,1910.287986,17.208747,1927.496733,10.506652,27.715399,1.610541,32-63,-1.000000,""
4,w0,ft.C.8,21.459685,8,-1.000000,1,COMPLETED_SUCCESSFULLY,21.459685,55.118807,76.578492,0.000000,55.118807,1.000000,48-55,-1.000000,""
40,w0,ft.C.8,195.717355,8,-1.000000,1,COMPLETED_SUCCESSFULLY,195.717355,55.118807,250.836162,0.000000,55.118808,1.000000,112-119,-1.000000,""
400,w0,ft.C.8,1904.497921,8,-1.000000,1,COMPLETED_SUCCESSFULLY,1910.287986,55.118807,1965.406794,5.790066,60.908873,1.105047,64-71,-1.000000,""
401,w0,ft.C.8,1908.818032,8,-1.000000,1,COMPLETED_SUCCESSFULLY,1910.287986,55.118807,1965.406794,1.469954,56.588761,1.026669,72-79,-1.000000,""
402,w0,ft.C.8,1913.597295,8,-1.000000,1,COMPLETED_SUCCESSFULLY,1913.597295,55.118807,1968.716102,0.000000,55.118807,1.000000,80-87,-1.000000,""
403,w0,ft.C.16,1917.863312,16,-1.000000,1,COMPLETED_SUCCESSFULLY,1917.863312,30.605753,1948.469065,0.000000,30.605753,1.000000,96-111,-1.000000,""
404,w0,ft.C.32,1921.535352,32,-1.000000,1,COMPLETED_SUCCESSFULLY,1927.496781,15.256183,1942.752965,5.961430,21.217613,1.390755,32-63,-1.000000,""
405,w0,ft.C.8,1926.443451,8,-1.000000,1,COMPLETED_SUCCESSFULLY,1927.496781,55.118807,1982.615589,1.053331,56.172138,1.019110,0-7,-1.000000,""
406,w0,ft.C.16,1931.337100,16,-1.000000,1,COMPLETED_SUCCESSFULLY,1931.337100,29.527974,1960.865074,0.000000,29.527974,1.000000,8-23,-1.000000,""
407,w0,ft.C.32,1936.123892,32,-1.000000,1,COMPLETED_SUCCESSFULLY,1942.753013,27.440080,1970.193093,6.629121,34.069201,1.241585,24-55,-1.000000,""
408,w0,ft.C.16,1940.195286,16,-1.000000,1,COMPLETED_SUCCESSFULLY,1948.469116,29.527974,1977.997090,8.273830,37.801804,1.280203,88-103,-1.000000,""
409,w0,ft.C.16,1945.875648,16,-1.000000,1,COMPLETED_SUCCESSFULLY,1948.469116,29.527974,1977.997090,2.593468,32.121442,1.087831,104-119,-1.000000,""
41,w0,ft.C.32,201.258756,32,-1.000000,1,COMPLETED_SUCCESSFULLY,201.258756,19.697131,220.955887,0.000000,19.697131,1.000000,80-111,-1.000000,""
410,w0,ft.C.16,1949.767392,16,-1.000000,1,COMPLETED_SUCCESSFULLY,1949.767392,32.493685,1982.261077,0.000000,32.493686,1.000000,56-63 128-135,-1.000000,""
411,w0,ft.C.8,1955.069038,8,-1.000000,1,COMPLETED_SUCCESSFULLY,1955.069038,55.118807,2010.187846,0.000000,55.118807,1.000000,120-127,-1.000000,""
412,w0,ft.C.32,1959.111620,32,-1.000000,1,COMPLETED_SUCCESSFULLY,1970.193141,15.256183,1985.449325,11.081522,26.337705,1.726363,8-39,-1.000000,""
413,w0,ft.C.16,1964.030256,16,-1.000000,1,COMPLETED_SUCCESSFULLY,1970.193141,29.527974,1999.721116,6.162885,35.690859,1.208713,40-55,-1.000000,""
414,w0,ft.C.8,1968.180664,8,-1.000000,1,COMPLETED_SUCCESSFULLY,1970.193141,55.118807,2025.311949,2.012478,57.131285,1.036512,64-71,-1.000000,""
415,w0,ft.C.16,1972.849397,16,-1.000000,1,COMPLETED_SUCCESSFULLY,1972.849397,29.527977,2002.377375,0.000000,29.527977,1.000000,72-87,-1.000000,""
416,w0,ft.C.16,1977.812611,16,-1.000000,1,COMPLETED_SUCCESSFULLY,1977.997192,29.527977,2007.525169,0.184581,29.712558,1.006251,88-103,-1.000000,""
417,w0,ft.C.32,1982.992873,32,-1.000000,1,COMPLETED_SUCCESSFULLY,1982.992873,17.924140,2000.917013,0.000000,17.924140,1.000000,0-7 56-63 104-119,-1.000000,""
418,w0,ft.C.8,1988.100105,8,-1.000000,1,COMPLETED_SUCCESSFULLY,1988.100105,55.118807,2043.218912,0.000000,55.118807,1.000000,8-15,-1.000000,""
419,w0,ft.C.8,1992.385980,8,-1.000000,1,COMPLETED_SUCCESSFULLY,1992.385980,55.118807,2047.504787,0.000000,55.118807,1.000000,16-23,-1.000000,""
42,w0,ft.C.8,206.086328,8,-1.000000,1,COMPLETED_SUCCESSFULLY,206.086328,55.118807,261.205135,0.000000,55.118807,1.000000,24-31,-1.000000,""
420,w0,ft.C.8,1997.453306,8,-1.000000,1,COMPLETED_SUCCESSFULLY,1997.453306,55.118807,2052.572113,0.000000,55.118807,1.000000,24-31,-1.000000,""
421,w0,ft.C.8,2001.661975,8,-1.000000,1,COMPLETED_SUCCESSFULLY,2001.661975,55.118807,2056.780782,0.000000,55.118807,1.000000,0-7,-1.000000,""
422,w0,ft.C.8,2005.374454,8,-1.000000,1,COMPLETED_SUCCESSFULLY,2005.374454,55.118810,2060.493264,0.000000,55.118810,1.000000,32-39,-1.000000,""
423,w0,ft.C.16,2010.158184,16,-1.000000,1,COMPLETED_SUCCESSFULLY,2010.158184,29.527974,2039.686159,0.000000,29.527974,1.000000,40-55,-1.000000,""
424,w0,ft.C.16,2015.269933,16,-1.000000,1,COMPLETED_SUCCESSFULLY,2015.269933,29.527977,2044.797910,0.000000,29.527977,1.000000,56-63 72-79,-1.000000,""
425,w0,ft.C.8,2020.603555,8,-1.000000,1,COMPLETED_SUCCESSFULLY,2020.603555,55.118807,2075.722362,0.000001,55.118808,1.000000,80-87,-1.000000,""
426,w0,ft.C.8,2025.665356,8,-1.000000,1,COMPLETED_SUCCESSFULLY,2025.665356,55.118807,2080.784164,0.000000,55.118807,1.000000,64-71,-1.000000,""
427,w0,ft.C.16,2028.725519,16,-1.000000,1,COMPLETED_SUCCESSFULLY,2028.725519,29.527977,2058.253496,0.000000,29.527978,1.000000,88-103,-1.000000,""
428,w0,ft.C.32,2033.232976,32,-1.000000,1,COMPLETED_SUCCESSFULLY,2033.232976,15.256183,2048.489159,0.000000,15.256183,1.000000,104-135,-1.000000,""
429,w0,ft.C.16,2037.507836,16,-1.000000,1,COMPLETED_SUCCESSFULLY,2039.686210,29.527974,2069.214184,2.178374,31.706348,1.073773,40-55,-1.000000,""
43,w0,ft.C.8,210.969076,8,-1.000000,1,COMPLETED_SUCCESSFULLY,210.969076,55.118807,266.087883,0.000000,55.118808,1.000000,120-127,-1.000000,""
430,w0,ft.C.8,2042.760431,8,-1.000000,1,COMPLETED_SUCCESSFULLY,2043.218960,55.118807,2098.337768,0.458530,55.577337,1.008319,8-15,-1.000000,""
431,w0,ft.C.32,2047.827175,32,-1.000000,1,COMPLETED_SUCCESSFULLY,2048.489210,15.256183,2063.745393,0.662035,15.918219,1.043395,104-135,-1.000000,""
432,w0,ft.C.32,2052.260503,32,-1.000000,1,COMPLETED_SUCCESSFULLY,2063.745444,22.910666,2086.656110,11.484941,34.395607,1.501292,88-119,-1.000000,""
433,w0,ft.C.8,2057.334993,8,-1.000000,1,COMPLETED_SUCCESSFULLY,2063.745444,55.118807,2118.864252,6.410451,61.529258,1.116302,0-7,-1.000000,""
434,w0,ft.C.8,2062.165206,8,-1.000000,1,COMPLETED_SUCCESSFULLY,2063.745444,55.118807,2118.864252,1.580238,56.699045,1.028670,16-23,-1.000000,""
435,w0,ft.C.16,2066.944237,16,-1.000000,1,COMPLETED_SUCCESSFULLY,2066.944237,29.527977,2096.472214,0.000000,29.527977,1.000000,24-39,-1.000000,""
436,w0,ft.C.32,2071.974676,32,-1.000000,1,COMPLETED_SUCCESSFULLY,2071.974676,21.370496,2093.345172,0.000000,21.370496,1.000000,40-63 72-79,-1.000000,""
437,w0,ft.C.32,2076.605819,32,-1.000000,1,COMPLETED_SUCCESSFULLY,2086.656161,20.054821,2106.710983,10.050343,30.105164,1.501143,80-111,-1.000000,""
438,w0,ft.C.8,2081.384502,8,-1.000000,1,COMPLETED_SUCCESSFULLY,2086.656161,55.118807,2141.774968,5.271659,60.390466,1.095642,64-71,-1.000000,""
439,w0,ft.C.32,2086.245733,32,-1.000000,1,COMPLETED_SUCCESSFULLY,2096.472262,26.081200,2122.553462,10.226529,36.307729,1.392103,24-55,-1.000000,""
44,w0,ft.C.32,215.688879,32,-1.000000,1,COMPLETED_SUCCESSFULLY,220.955938,18.206677,239.162616,5.267059,23.473737,1.289293,80-111,-1.000000,""
440,w0,ft.C.8,2091.170131,8,-1.000000,1,COMPLETED_SUCCESSFULLY,2096.472262,55.118807,2151.591069,5.302131,60.420939,1.096195,56-63,-1.000000,""
441,w0,ft.C.16,2096.171989,16,-1.000000,1,COMPLETED_SUCCESSFULLY,2096.472262,29.527974,2126.000236,0.300273,29.828247,1.010169,112-127,-1.000000,""
442,w0,ft.C.16,2101.164609,16,-1.000000,1,COMPLETED_SUCCESSFULLY,2101.164609,31.262011,2132.426620,0.000000,31.262011,1.000000,8-15 72-79,-1.000000,""
443,w0,ft.C.16,2105.890116,16,-1.000000,1,COMPLETED_SUCCESSFULLY,2106.711034,29.527974,2136.239008,0.820918,30.348892,1.027801,80-95,-1.000000,""
444,w0,ft.C.8,2110.501353,8,-1.000000,1,COMPLETED_SUCCESSFULLY,2110.501353,55.118810,2165.620163,0.000000,55.118810,1.000000,96-103,-1.000000,""
445,w0,ft.C.32,2114.861050,32,-1.000000,1,COMPLETED_SUCCESSFULLY,2122.553510,21.661397,2144.214907,7.692460,29.353857,1.355123,16-47,-1.000000,""
446,w0,ft.C.16,2120.059248,16,-1.000000,1,COMPLETED_SUCCESSFULLY,2126.000287,29.527974,2155.528262,5.941039,35.469013,1.201200,104-119,-1.000000,""
447,w0,ft.C.16,2125.100029,16,-1.000000,1,COMPLETED_SUCCESSFULLY,2126.000287,29.527974,2155.528262,0.900259,30.428233,1.030488,120-135,-1.000000,""
448,w0,ft.C.8,2129.800524,8,-1.000000,1,COMPLETED_SUCCESSFULLY,2129.800524,55.118807,2184.919331,0.000000,55.118807,1.000000,0-7,-1.000000,""
449,w0,ft.C.8,2134.312754,8,-1.000000,1,COMPLETED_SUCCESSFULLY,2134.312754,55.118807,2189.431561,0.000000,55.118807,1.000000,8-15,-1.000000,""
45,w0,ft.C.16,220.900843,16,-1.000000,1,COMPLETED_SUCCESSFULLY,220.955938,29.527974,250.483913,0.055095,29.583069,1.001866,56-71,-1.000000,""
450,w0,ft.C.16,2139.300098,16,-1.000000,1,COMPLETED_SUCCESSFULLY,2139.300098,38.597029,2177.897127,0.000000,38.597030,1.000000,48-55 72-79,-1.000000,""
451,w0,ft.C.16,2144.136217,16,-1.000000,1,COMPLETED_SUCCESSFULLY,2144.136217,39.085498,2183.221715,0.000000,39.085498,1.000000,64-71 80-87,-1.000000,""
452,w0,ft.C.8,2148.953132,8,-1.000000,1,COMPLETED_SUCCESSFULLY,2148.953132,55.118807,2204.071939,0.000000,55.118807,1.000000,16-23,-1.000000,""
453,w0,ft.C.16,2153.562218,16,-1.000000,1,COMPLETED_SUCCESSFULLY,2153.562218,29.527977,2183.090195,0.000000,29.527977,1.000000,24-39,-1.000000,""
454,w0,ft.C.16,2158.126006,16,-1.000000,1,COMPLETED_SUCCESSFULLY,2158.126006,29.527974,2187.653980,0.000000,29.527974,1.000000,40-47 56-63,-1.000000,""
455,w0,ft.C.8,2163.337047,8,-1.000000,1,COMPLETED_SUCCESSFULLY,2163.337047,55.118807,2218.455854,0.000000,55.118807,1.000000,88-95,-1.000000,""
456,w0,ft.C.16,2168.051252,16,-1.000000,1,COMPLETED_SUCCESSFULLY,2168.051252,33.291110,2201.342362,0.000000,33.291110,1.000000,96-111,-1.000000,""
457,w0,ft.C.32,2172.683885,32,-1.000000,1,COMPLETED_SUCCESSFULLY,2187.654031,15.386799,2203.040830,14.970147,30.356945,1.972921,24-55,-1.000000,""
458,w0,ft.C.8,2176.728514,8,-1.000000,1,COMPLETED_SUCCESSFULLY,2187.654031,55.118807,2242.772838,10.925517,66.044324,1.198218,0-7,-1.000000,""
459,w0,ft.C.8,2180.736344,8,-1.000000,1,COMPLETED_SUCCESSFULLY,2187.654031,55.118807,2242.772838,6.917687,62.036494,1.125505,56-63,-1.000000,""
46,w0,ft.C.32,226.402275,32,-1.000000,1,COMPLETED_SUCCESSFULLY,226.402275,27.023248,253.425523,0.000000,27.023248,1.000000,0-7 16-23 32-47,-1.000000,""
460,w0,ft.C.32,2184.993021,32,-1.000000,1,COMPLETED_SUCCESSFULLY,2201.342413,20.689834,2222.032247,16.349392,37.039226,1.790214,96-127,-1.000000,""
461,w0,ft.C.32,2190.708927,32,-1.000000,1,COMPLETED_SUCCESSFULLY,2203.040878,30.773547,2233.814425,12.331951,43.105499,1.400732,24-55,-1.000000,""
462,w0,ft.C.8,2195.433233,8,-1.000000,1,COMPLETED_SUCCESSFULLY,2203.040878,55.118807,2258.159685,7.607645,62.726452,1.138023,8-15,-1.000000,""
463,w0,ft.C.16,2199.598431,16,-1.000000,1,COMPLETED_SUCCESSFULLY,2203.040878,30.773545,2233.814423,3.442447,34.215992,1.111864,64-79,-1.000000,""
464,w0,ft.C.8,2204.426223,8,-1.000000,1,COMPLETED_SUCCESSFULLY,2204.426223,55.118807,2259.545030,0.000000,55.118807,1.000000,16-23,-1.000000,""
465,w0,ft.C.8,2208.299485,8,-1.000000,1,COMPLETED_SUCCESSFULLY,2208.299485,55.118807,2263.418292,0.000000,55.118807,1.000000,80-87,-1.000000,""
466,w0,ft.C.8,2212.017298,8,-1.000000,1,COMPLETED_SUCCESSFULLY,2212.017298,55.118807,2267.136105,0.000000,55.118807,1.000000,128-135,-1.000000,""
467,w0,ft.C.8,2217.176238,8,-1.000000,1,COMPLETED_SUCCESSFULLY,2218.455905,55.118807,2273.574712,1.279667,56.398474,1.023217,88-95,-1.000000,""
468,w0,ft.C.8,2221.794069,8,-1.000000,1,COMPLETED_SUCCESSFULLY,2222.032298,55.118810,2277.151108,0.238229,55.357039,1.004322,96-103,-1.000000,""
469,w0,ft.C.8,2226.910352,8,-1.000000,1,COMPLETED_SUCCESSFULLY,2226.910352,55.118807,2282.029159,0.000000,55.118808,1.000000,104-111,-1.000000,""
47,w0,ft.C.16,229.861152,16,-1.000000,1,COMPLETED_SUCCESSFULLY,229.861152,41.677326,271.538478,0.000000,41.677326,1.000000,48-55 128-135,-1.000000,""
470,w0,ft.C.8,2231.719849,8,-1.000000,1,COMPLETED_SUCCESSFULLY,2231.719849,55.118807,2286.838656,0.000000,55.118807,1.000000,112-119,-1.000000,""
471,w0,ft.C.16,2236.837384,16,-1.000000,1,COMPLETED_SUCCESSFULLY,2236.837384,29.527977,2266.365361,0.000000,29.527978,1.000000,24-39,-1.000000,""
472,w0,ft.C.16,2241.597305,16,-1.000000,1,COMPLETED_SUCCESSFULLY,2241.597305,29.527974,2271.125279,0.000000,29.527975,1.000000,40-55,-1.000000,""
473,w0,ft.C.8,2244.499921,8,-1.000000,1,COMPLETED_SUCCESSFULLY,2244.499921,55.118807,2299.618728,0.000000,55.118808,1.000000,0-7,-1.000000,""
474,w0,ft.C.16,2249.810003,16,-1.000000,1,COMPLETED_SUCCESSFULLY,2249.810003,29.527974,2279.337977,0.000000,29.527974,1.000000,56-71,-1.000000,""
475,w0,ft.C.8,2254.892183,8,-1.000000,1,COMPLETED_SUCCESSFULLY,2254.892183,55.118810,2310.010993,0.000000,55.118810,1.000000,72-79,-1.000000,""
476,w0,ft.C.8,2259.595499,8,-1.000000,1,COMPLETED_SUCCESSFULLY,2259.595499,55.118807,2314.714306,0.000000,55.118807,1.000000,8-15,-1.000000,""
477,w0,ft.C.16,2264.056551,16,-1.000000,1,COMPLETED_SUCCESSFULLY,2264.056551,37.125427,2301.181979,0.000000,37.125427,1.000000,16-23 80-87,-1.000000,""
478,w0,ft.C.8,2269.016445,8,-1.000000,1,COMPLETED_SUCCESSFULLY,2269.016445,55.118807,2324.135252,0.000000,55.118807,1.000000,24-31,-1.000000,""
479,w0,ft.C.32,2274.126959,32,-1.000000,1,COMPLETED_SUCCESSFULLY,2274.126959,33.558394,2307.685353,0.000000,33.558394,1.000000,32-55 88-95,-1.000000,""
48,w0,ft.C.16,235.108498,16,-1.000000,1,COMPLETED_SUCCESSFULLY,239.162667,29.527977,268.690644,4.054169,33.582147,1.137299,72-87,-1.000000,""
480,w0,ft.C.8,2279.235305,8,-1.000000,1,COMPLETED_SUCCESSFULLY,2279.235305,55.118810,2334.354116,0.000000,55.118810,1.000000,96-103,-1.000000,""
481,w0,ft.C.32,2284.293016,32,-1.000000,1,COMPLETED_SUCCESSFULLY,2284.293016,29.490988,2313.784004,0.000000,29.490988,1.000000,56-71 104-111 120-127,-1.000000,""
482,w0,ft.C.32,2289.144493,32,-1.000000,1,COMPLETED_SUCCESSFULLY,2313.784055,16.469576,2330.253631,24.639562,41.109138,2.496065,32-63,-1.000000,""
483,w0,ft.C.8,2294.903077,8,-1.000000,1,COMPLETED_SUCCESSFULLY,2313.784055,55.118807,2368.902862,18.880978,73.999785,1.342551,0-7,-1.000000,""
484,w0,ft.C.8,2299.983544,8,-1.000000,1,COMPLETED_SUCCESSFULLY,2313.784055,55.118807,2368.902862,13.800511,68.919318,1.250378,16-23,-1.000000,""
485,w0,ft.C.16,2304.818748,16,-1.000000,1,COMPLETED_SUCCESSFULLY,2313.784055,36.731203,2350.515258,8.965307,45.696509,1.244079,64-79,-1.000000,""
486,w0,ft.C.8,2309.474779,8,-1.000000,1,COMPLETED_SUCCESSFULLY,2313.784055,55.118807,2368.902862,4.309276,59.428083,1.078182,80-87,-1.000000,""
487,w0,ft.C.16,2314.769132,16,-1.000000,1,COMPLETED_SUCCESSFULLY,2314.769132,37.514364,2352.283496,0.000000,37.514364,1.000000,8-15 88-95,-1.000000,""
488,w0,ft.C.32,2319.974907,32,-1.000000,1,COMPLETED_SUCCESSFULLY,2319.974907,15.256183,2335.231090,0.000000,15.256183,1.000000,104-135,-1.000000,""
489,w0,ft.C.32,2325.732819,32,-1.000000,1,COMPLETED_SUCCESSFULLY,2330.253679,27.101959,2357.355638,4.520860,31.622819,1.166809,24-55,-1.000000,""
49,w0,ft.C.16,239.704104,16,-1.000000,1,COMPLETED_SUCCESSFULLY,239.704104,29.527977,269.232081,0.000000,29.527977,1.000000,88-103,-1.000000,""
490,w0,ft.C.8,2330.450736,8,-1.000000,1,COMPLETED_SUCCESSFULLY,2330.450736,55.118807,2385.569544,0.000000,55.118807,1.000000,56-63,-1.000000,""
491,w0,ft.C.8,2333.431039,8,-1.000000,1,COMPLETED_SUCCESSFULLY,2334.354167,55.118810,2389.472977,0.923128,56.041939,1.016748,96-103,-1.000000,""
492,w0,ft.C.16,2338.237920,16,-1.000000,1,COMPLETED_SUCCESSFULLY,2338.237920,29.527974,2367.765894,0.000000,29.527974,1.000000,104-119,-1.000000,""
493,w0,ft.C.8,2343.093057,8,-1.000000,1,COMPLETED_SUCCESSFULLY,2343.093057,55.118807,2398.211865,0.000000,55.118807,1.000000,120-127,-1.000000,""
494,w0,ft.C.16,2347.050373,16,-1.000000,1,COMPLETED_SUCCESSFULLY,2350.515309,30.087602,2380.602911,3.464936,33.552539,1.115162,64-79,-1.000000,""
495,w0,ft.C.16,2352.119614,16,-1.000000,1,COMPLETED_SUCCESSFULLY,2357.355686,29.527977,2386.883663,5.236072,34.764049,1.177326,24-39,-1.000000,""
496,w0,ft.C.32,2355.577350,32,-1.000000,1,COMPLETED_SUCCESSFULLY,2380.602962,15.711486,2396.314448,25.025612,40.737098,2.592823,64-95,-1.000000,""
497,w0,ft.C.8,2360.378984,8,-1.000000,1,COMPLETED_SUCCESSFULLY,2380.602962,55.118807,2435.721769,20.223978,75.342785,1.366916,0-7,-1.000000,""
498,w0,ft.C.16,2364.708028,16,-1.000000,1,COMPLETED_SUCCESSFULLY,2380.602962,29.527974,2410.130936,15.894934,45.422908,1.538301,8-23,-1.000000,""
499,w0,ft.C.8,2370.012451,8,-1.000000,1,COMPLETED_SUCCESSFULLY,2380.602962,55.118807,2435.721769,10.590511,65.709318,1.192140,40-47,-1.000000,""
5,w0,ft.C.8,26.660690,8,-1.000000,1,COMPLETED_SUCCESSFULLY,26.660690,55.118807,81.779497,0.000000,55.118807,1.000000,56-63,-1.000000,""
50,w0,ft.C.16,243.318915,16,-1.000000,1,COMPLETED_SUCCESSFULLY,243.318915,39.501572,282.820487,0.000000,39.501572,1.000000,8-15 104-111,-1.000000,""
500,w0,ft.C.32,2375.009865,32,-1.000000,1,COMPLETED_SUCCESSFULLY,2396.314499,21.370533,2417.685032,21.304634,42.675167,1.996916,48-79,-1.000000,""
501,w0,ft.C.8,2379.877933,8,-1.000000,1,COMPLETED_SUCCESSFULLY,2396.314499,55.118807,2451.433306,16.436566,71.555373,1.298202,24-31,-1.000000,""
502,w0,ft.C.16,2384.972858,16,-1.000000,1,COMPLETED_SUCCESSFULLY,2396.314499,29.527974,2425.842473,11.341641,40.869615,1.384098,80-95,-1.000000,""
503,w0,ft.C.16,2390.253548,16,-1.000000,1,COMPLETED_SUCCESSFULLY,2396.314499,30.773542,2427.088041,6.060951,36.834493,1.196953,96-111,-1.000000,""
504,w0,ft.C.8,2394.772195,8,-1.000000,1,COMPLETED_SUCCESSFULLY,2396.314499,55.118807,2451.433306,1.542304,56.661112,1.027981,32-39,-1.000000,""
505,w0,ft.C.16,2399.035933,16,-1.000000,1,COMPLETED_SUCCESSFULLY,2399.035933,29.527974,2428.563908,0.000000,29.527974,1.000000,112-127,-1.000000,""
506,w0,ft.C.8,2403.292864,8,-1.000000,1,COMPLETED_SUCCESSFULLY,2403.292864,55.118807,2458.411671,0.000000,55.118808,1.000000,128-135,-1.000000,""
507,w0,ft.C.8,2407.708563,8,-1.000000,1,COMPLETED_SUCCESSFULLY,2410.130984,55.118807,2465.249792,2.422421,57.541228,1.043949,8-15,-1.000000,""
508,w0,ft.C.32,2411.701187,32,-1.000000,1,COMPLETED_SUCCESSFULLY,2417.685083,20.778994,2438.464077,5.983896,26.762890,1.287978,48-79,-1.000000,""
509,w0,ft.C.8,2416.611056,8,-1.000000,1,COMPLETED_SUCCESSFULLY,2417.685083,55.118807,2472.803890,1.074027,56.192834,1.019486,16-23,-1.000000,""
51,w0,ft.C.8,248.048421,8,-1.000000,1,COMPLETED_SUCCESSFULLY,250.483964,55.118807,305.602771,2.435543,57.554350,1.044187,56-63,-1.000000,""
510,w0,ft.C.8,2421.831741,8,-1.000000,1,COMPLETED_SUCCESSFULLY,2425.842524,55.118807,2480.961331,4.010783,59.129590,1.072766,80-87,-1.000000,""
511,w0,ft.C.32,2427.144164,32,-1.000000,1,COMPLETED_SUCCESSFULLY,2428.563959,20.520011,2449.083970,1.419795,21.939806,1.069191,88-119,-1.000000,""
52,w0,ft.C.16,253.154538,16,-1.000000,1,COMPLETED_SUCCESSFULLY,253.154538,43.182976,296.337514,0.000000,43.182976,1.000000,64-71 112-119,-1.000000,""
53,w0,ft.C.8,257.773780,8,-1.000000,1,COMPLETED_SUCCESSFULLY,257.773780,55.118807,312.892587,0.000000,55.118807,1.000000,0-7,-1.000000,""
54,w0,ft.C.8,262.290966,8,-1.000000,1,COMPLETED_SUCCESSFULLY,262.290966,55.118807,317.409773,0.000000,55.118807,1.000000,16-23,-1.000000,""
55,w0,ft.C.8,267.028886,8,-1.000000,1,COMPLETED_SUCCESSFULLY,267.028886,55.118807,322.147693,0.000000,55.118808,1.000000,24-31,-1.000000,""
56,w0,ft.C.8,270.992672,8,-1.000000,1,COMPLETED_SUCCESSFULLY,270.992672,55.118810,326.111482,0.000000,55.118810,1.000000,32-39,-1.000000,""
57,w0,ft.C.32,275.353075,32,-1.000000,1,COMPLETED_SUCCESSFULLY,275.353075,35.489759,310.842834,0.000000,35.489759,1.000000,40-55 72-87,-1.000000,""
58,w0,ft.C.8,280.771020,8,-1.000000,1,COMPLETED_SUCCESSFULLY,280.771020,55.118807,335.889827,0.000000,55.118807,1.000000,88-95,-1.000000,""
59,w0,ft.C.16,284.487830,16,-1.000000,1,COMPLETED_SUCCESSFULLY,284.487830,30.223823,314.711653,0.000000,30.223823,1.000000,8-15 96-103,-1.000000,""
6,w0,ft.C.32,31.665536,32,-1.000000,1,COMPLETED_SUCCESSFULLY,31.665536,21.365923,53.031459,0.000000,21.365923,1.000000,64-95,-1.000000,""
60,w0,ft.C.16,289.916195,16,-1.000000,1,COMPLETED_SUCCESSFULLY,289.916195,29.527974,319.444169,0.000000,29.527974,1.000000,104-111 120-127,-1.000000,""
61,w0,ft.C.16,295.084860,16,-1.000000,1,COMPLETED_SUCCESSFULLY,305.602822,29.527974,335.130796,10.517962,40.045936,1.356203,56-71,-1.000000,""
62,w0,ft.C.16,300.077564,16,-1.000000,1,COMPLETED_SUCCESSFULLY,310.842886,29.527974,340.370860,10.765322,40.293296,1.364580,40-55,-1.000000,""
63,w0,ft.C.32,304.775205,32,-1.000000,1,COMPLETED_SUCCESSFULLY,319.444220,18.138033,337.582253,14.669015,32.807048,1.808743,96-127,-1.000000,""
64,w0,ft.C.8,309.578836,8,-1.000000,1,COMPLETED_SUCCESSFULLY,319.444220,55.118807,374.563027,9.865384,64.984192,1.178984,0-7,-1.000000,""
65,w0,ft.C.8,313.703191,8,-1.000000,1,COMPLETED_SUCCESSFULLY,319.444220,55.118807,374.563027,5.741029,60.859836,1.104157,8-15,-1.000000,""
66,w0,ft.C.8,318.261441,8,-1.000000,1,COMPLETED_SUCCESSFULLY,319.444220,55.118807,374.563027,1.182780,56.301587,1.021459,16-23,-1.000000,""
67,w0,ft.C.8,322.731396,8,-1.000000,1,COMPLETED_SUCCESSFULLY,322.731396,55.118807,377.850203,0.000000,55.118807,1.000000,24-31,-1.000000,""
68,w0,ft.C.32,327.509753,32,-1.000000,1,COMPLETED_SUCCESSFULLY,327.509753,20.606201,348.115955,0.000000,20.606201,1.000000,32-39 72-87 128-135,-1.000000,""
69,w0,ft.C.8,331.869231,8,-1.000000,1,COMPLETED_SUCCESSFULLY,335.130847,55.118807,390.249655,3.261617,58.380424,1.059174,56-63,-1.000000,""
7,w0,ft.C.8,35.873892,8,-1.000000,1,COMPLETED_SUCCESSFULLY,35.873892,55.118810,90.992702,0.000000,55.118810,1.000000,96-103,-1.000000,""
70,w0,ft.C.8,336.920328,8,-1.000000,1,COMPLETED_SUCCESSFULLY,336.920328,55.118807,392.039135,0.000000,55.118808,1.000000,64-71,-1.000000,""
71,w0,ft.C.8,342.111847,8,-1.000000,1,COMPLETED_SUCCESSFULLY,342.111847,55.118807,397.230654,0.000000,55.118807,1.000000,40-47,-1.000000,""
72,w0,ft.C.8,347.753451,8,-1.000000,1,COMPLETED_SUCCESSFULLY,347.753451,55.118807,402.872258,0.000000,55.118807,1.000000,48-55,-1.000000,""
73,w0,ft.C.32,351.632760,32,-1.000000,1,COMPLETED_SUCCESSFULLY,351.632760,21.934731,373.567491,0.000000,21.934731,1.000000,32-39 72-95,-1.000000,""
74,w0,ft.C.16,356.722486,16,-1.000000,1,COMPLETED_SUCCESSFULLY,356.722486,30.209785,386.932271,0.000000,30.209785,1.000000,96-111,-1.000000,""
75,w0,ft.C.8,361.762650,8,-1.000000,1,COMPLETED_SUCCESSFULLY,361.762650,55.118807,416.881457,0.000000,55.118807,1.000000,112-119,-1.000000,""
76,w0,ft.C.8,366.767361,8,-1.000000,1,COMPLETED_SUCCESSFULLY,366.767361,55.118807,421.886169,0.000000,55.118807,1.000000,120-127,-1.000000,""
77,w0,ft.C.32,371.537989,32,-1.000000,1,COMPLETED_SUCCESSFULLY,377.850251,15.256183,393.106434,6.312262,21.568445,1.413751,0-31,-1.000000,""
78,w0,ft.C.32,376.871850,32,-1.000000,1,COMPLETED_SUCCESSFULLY,386.932322,15.256186,402.188508,10.060472,25.316658,1.659436,72-103,-1.000000,""
79,w0,ft.C.16,381.787542,16,-1.000000,1,COMPLETED_SUCCESSFULLY,392.039186,29.527974,421.567160,10.251644,39.779618,1.347184,56-71,-1.000000,""
8,w0,ft.C.16,41.191306,16,-1.000000,1,COMPLETED_SUCCESSFULLY,41.191306,29.527974,70.719280,0.000000,29.527974,1.000000,8-23,-1.000000,""
80,w0,ft.C.8,387.119972,8,-1.000000,1,COMPLETED_SUCCESSFULLY,392.039186,55.118807,447.157993,4.919214,60.038022,1.089247,32-39,-1.000000,""
81,w0,ft.C.16,392.016595,16,-1.000000,1,COMPLETED_SUCCESSFULLY,393.106482,29.527974,422.634457,1.089887,30.617861,1.036910,0-15,-1.000000,""
82,w0,ft.C.8,397.138845,8,-1.000000,1,COMPLETED_SUCCESSFULLY,397.138845,55.118807,452.257653,0.000000,55.118807,1.000000,16-23,-1.000000,""
83,w0,ft.C.8,402.157617,8,-1.000000,1,COMPLETED_SUCCESSFULLY,402.157617,55.118807,457.276424,0.000000,55.118807,1.000000,24-31,-1.000000,""
84,w0,ft.C.8,406.657353,8,-1.000000,1,COMPLETED_SUCCESSFULLY,406.657353,55.118807,461.776160,0.000000,55.118807,1.000000,40-47,-1.000000,""
85,w0,ft.C.8,411.370831,8,-1.000000,1,COMPLETED_SUCCESSFULLY,411.370831,55.118807,466.489638,0.000000,55.118807,1.000000,48-55,-1.000000,""
86,w0,ft.C.16,415.826718,16,-1.000000,1,COMPLETED_SUCCESSFULLY,415.826718,29.527977,445.354695,0.000000,29.527977,1.000000,72-87,-1.000000,""
87,w0,ft.C.8,420.109555,8,-1.000000,1,COMPLETED_SUCCESSFULLY,420.109555,55.118807,475.228362,0.000000,55.118808,1.000000,88-95,-1.000000,""
88,w0,ft.C.16,425.844065,16,-1.000000,1,COMPLETED_SUCCESSFULLY,425.844065,29.527974,455.372039,0.000000,29.527974,1.000000,0-15,-1.000000,""
89,w0,ft.C.16,430.095994,16,-1.000000,1,COMPLETED_SUCCESSFULLY,430.095994,29.527974,459.623969,0.000000,29.527974,1.000000,56-71,-1.000000,""
9,w0,ft.C.16,46.443267,16,-1.000000,1,COMPLETED_SUCCESSFULLY,46.443267,29.527974,75.971242,0.000000,29.527974,1.000000,104-119,-1.000000,""
90,w0,ft.C.8,435.103815,8,-1.000000,1,COMPLETED_SUCCESSFULLY,435.103815,55.118810,490.222625,0.000000,55.118811,1.000000,96-103,-1.000000,""
91,w0,ft.C.8,440.025215,8,-1.000000,1,COMPLETED_SUCCESSFULLY,440.025215,55.118807,495.144022,0.000000,55.118808,1.000000,104-111,-1.000000,""
92,w0,ft.C.8,445.670564,8,-1.000000,1,COMPLETED_SUCCESSFULLY,445.670564,55.118810,500.789374,0.000000,55.118811,1.000000,72-79,-1.000000,""
93,w0,ft.C.8,449.845026,8,-1.000000,1,COMPLETED_SUCCESSFULLY,449.845026,55.118810,504.963836,0.000000,55.118810,1.000000,32-39,-1.000000,""
94,w0,ft.C.8,455.050096,8,-1.000000,1,COMPLETED_SUCCESSFULLY,455.050096,55.118807,510.168904,0.000000,55.118807,1.000000,16-23,-1.000000,""
95,w0,ft.C.8,459.240280,8,-1.000000,1,COMPLETED_SUCCESSFULLY,459.240280,55.118807,514.359087,0.000000,55.118807,1.000000,0-7,-1.000000,""
96,w0,ft.C.8,463.728721,8,-1.000000,1,COMPLETED_SUCCESSFULLY,463.728721,55.118807,518.847528,0.000000,55.118808,1.000000,8-15,-1.000000,""
97,w0,ft.C.16,468.441659,16,-1.000000,1,COMPLETED_SUCCESSFULLY,468.441659,29.527977,497.969636,0.000000,29.527977,1.000000,24-31 40-47,-1.000000,""
98,w0,ft.C.8,473.730149,8,-1.000000,1,COMPLETED_SUCCESSFULLY,473.730149,55.118807,528.848956,0.000000,55.118807,1.000000,48-55,-1.000000,""
99,w0,ft.C.8,478.506221,8,-1.000000,1,COMPLETED_SUCCESSFULLY,478.506221,55.118807,533.625028,0.000000,55.118807,1.000000,56-63,-1.000000,""
