time,nb_sleeping,nb_switching_on,nb_switching_off,nb_idle,nb_computing
1.01617e-08,0,0,0,127,16
1.42264e-08,0,0,0,95,48
1.42264e-08,0,0,0,63,80
27.2949,0,0,0,95,48
27.3035,0,0,0,127,16
31.5996,0,0,0,143,0
50,0,0,0,111,32
66.5643,0,0,0,143,0
