ft.B.16/ft.B.0
ft.B.16/ft.B.1
ft.B.16/ft.B.2
ft.B.16/ft.B.3
ft.B.16/ft.B.4
ft.B.16/ft.B.5
ft.B.16/ft.B.6
ft.B.16/ft.B.7
ft.B.16/ft.B.8
ft.B.16/ft.B.9
ft.B.16/ft.B.10
ft.B.16/ft.B.11
ft.B.16/ft.B.12
ft.B.16/ft.B.13
ft.B.16/ft.B.14
ft.B.16/ft.B.15
