ft.D.32/ft.D.0
ft.D.32/ft.D.1
ft.D.32/ft.D.2
ft.D.32/ft.D.3
ft.D.32/ft.D.4
ft.D.32/ft.D.5
ft.D.32/ft.D.6
ft.D.32/ft.D.7
ft.D.32/ft.D.8
ft.D.32/ft.D.9
ft.D.32/ft.D.10
ft.D.32/ft.D.11
ft.D.32/ft.D.12
ft.D.32/ft.D.13
ft.D.32/ft.D.14
ft.D.32/ft.D.15
ft.D.32/ft.D.16
ft.D.32/ft.D.17
ft.D.32/ft.D.18
ft.D.32/ft.D.19
ft.D.32/ft.D.20
ft.D.32/ft.D.21
ft.D.32/ft.D.22
ft.D.32/ft.D.23
ft.D.32/ft.D.24
ft.D.32/ft.D.25
ft.D.32/ft.D.26
ft.D.32/ft.D.27
ft.D.32/ft.D.28
ft.D.32/ft.D.29
ft.D.32/ft.D.30
ft.D.32/ft.D.31
