is.C.16/is.C.0
is.C.16/is.C.1
is.C.16/is.C.2
is.C.16/is.C.3
is.C.16/is.C.4
is.C.16/is.C.5
is.C.16/is.C.6
is.C.16/is.C.7
is.C.16/is.C.8
is.C.16/is.C.9
is.C.16/is.C.10
is.C.16/is.C.11
is.C.16/is.C.12
is.C.16/is.C.13
is.C.16/is.C.14
is.C.16/is.C.15
