,batsim_version,consumed_joules,makespan,max_slowdown,max_turnaround_time,max_waiting_time,mean_slowdown,mean_turnaround_time,mean_waiting_time,nb_computing_machines,nb_grouped_switches,nb_jobs,nb_jobs_finished,nb_jobs_killed,nb_jobs_rejected,nb_jobs_success,nb_machine_switches,scheduling_time,simulation_time,success_rate,time_computing,time_idle,time_sleeping,time_switching_off,time_switching_on,time_unavailable,name
0,3.1.0,0.0,4919.009108,7.117700999999999,144.39417,93.332766,1.419409,63.353708,16.625212,143,0,1024,1024,0,0,1024,0,0.43688299999999997,1.983645,1.0,611989.6255399999,54861.189652999994,0.0,0.0,0.0,0.0,Ptask-1024_jobs-noloc-0
0,3.1.0,0.0,4915.801411,2.780636,77.75044100000001,28.598747999999997,1.090386,45.533947,2.519212,143,0,1024,1024,0,0,1024,0,0.47200600000000004,1.8497080000000001,1.0,522434.742598,142858.209932,0.0,0.0,0.0,0.0,Ptask-1024_jobs-locality-0
0,3.1.0,0.0,2499.951371,2.482037,98.127236,43.031121,1.211552,55.565259999999995,8.859413,143,0,512,512,0,0,512,0,0.225423,0.9289149999999999,1.0,307468.995381,29952.164856,0.0,0.0,0.0,0.0,Ptask-512_jobs-noloc-0
0,3.1.0,0.0,2480.961331,2.780636,77.75044100000001,28.598747999999997,1.104165,45.951869,2.943821,143,0,512,512,0,0,512,0,0.229816,0.86921,1.0,261272.789648,71771.153808,0.0,0.0,0.0,0.0,Ptask-512_jobs-locality-0
0,3.1.0,0.0,4917.689831000001,6.318079,170.396618,86.29890999999999,1.502561,69.779324,21.408711,143,0,1024,1024,0,0,1024,0,0.68609,171.731795,1.0,613857.726631,51404.134748000004,0.0,0.0,0.0,0.0,Tit-1024_jobs-noloc-0
0,3.1.0,0.0,4916.683793,2.790568,85.733241,27.782326,1.103234,46.738064,2.712469,143,0,1024,1024,0,0,1024,0,0.744092,125.463784,1.0,523246.46551999997,141547.906749,0.0,0.0,0.0,0.0,Tit-1024_jobs-locality-0
0,3.1.0,0.0,2559.881001,6.318079,170.396618,82.516689,1.451127,68.194399,19.779995,143,0,512,512,0,0,512,0,0.358002,81.561424,1.0,308782.297994,34535.441215,0.0,0.0,0.0,0.0,Tit-512_jobs-noloc-0
0,3.1.0,0.0,2477.832931,2.4670389999999998,85.733241,24.344427,1.109332,47.212675,2.9257880000000003,143,0,512,512,0,0,512,0,0.36446,64.197365,1.0,264416.325985,68077.17881699999,0.0,0.0,0.0,0.0,Tit-512_jobs-locality-0
0,3.1.0,0.0,4919.682604,1.7612970000000001,67.080686,12.508108,1.01378,44.438207,0.331947,143,0,1024,1024,0,0,1024,0,0.341119,0.74292,1.0,505790.72,158459.212967,0.0,0.0,0.0,0.0,Delay-1024_jobs-noloc-0
0,3.1.0,0.0,4919.682604,2.663712,80.812363,27.334791999999997,1.054236,45.479071000000005,1.372811,143,0,1024,1024,0,0,1024,0,0.350042,0.7650710000000001,1.0,505790.71999899996,158459.212968,0.0,0.0,0.0,0.0,Delay-1024_jobs-locality-0
0,3.1.0,0.0,2480.831741,1.7612970000000001,67.080686,12.508108,1.012738,44.373979,0.314213,143,0,512,512,0,0,512,0,0.18956900000000002,0.356954,1.0,252908.8,79544.000628,0.0,0.0,0.0,0.0,Delay-512_jobs-noloc-0
0,3.1.0,0.0,2480.831741,2.433243,74.09604300000001,23.548182999999998,1.042714,45.116444,1.056678,143,0,512,512,0,0,512,0,0.169054,0.342173,1.0,252908.8,79544.000629,0.0,0.0,0.0,0.0,Delay-512_jobs-locality-0
0,3.1.0,0.0,4919.009108,7.117700999999999,144.39417,93.332766,1.419409,63.353708,16.625212,143,0,1024,1024,0,0,1024,0,0.48933699999999997,1.8688599999999997,1.0,611989.6255399999,54861.189652999994,0.0,0.0,0.0,0.0,Ptask-1024_jobs-noloc-1
0,3.1.0,0.0,4915.801411,2.780636,77.75044100000001,28.598747999999997,1.090386,45.533947,2.519212,143,0,1024,1024,0,0,1024,0,0.452291,1.6975099999999999,1.0,522434.742598,142858.209932,0.0,0.0,0.0,0.0,Ptask-1024_jobs-locality-1
0,3.1.0,0.0,2499.951371,2.482037,98.127236,43.031121,1.211552,55.565259999999995,8.859413,143,0,512,512,0,0,512,0,0.250112,0.916523,1.0,307468.995381,29952.164856,0.0,0.0,0.0,0.0,Ptask-512_jobs-noloc-1
0,3.1.0,0.0,2480.961331,2.780636,77.75044100000001,28.598747999999997,1.104165,45.951869,2.943821,143,0,512,512,0,0,512,0,0.267314,0.866549,1.0,261272.789648,71771.153808,0.0,0.0,0.0,0.0,Ptask-512_jobs-locality-1
0,3.1.0,0.0,4917.689831000001,6.318079,170.396618,86.29890999999999,1.502561,69.779324,21.408711,143,0,1024,1024,0,0,1024,0,0.74657,166.84193100000002,1.0,613857.726631,51404.134748000004,0.0,0.0,0.0,0.0,Tit-1024_jobs-noloc-1
0,3.1.0,0.0,4916.683793,2.790568,85.733241,27.782326,1.103234,46.738064,2.712469,143,0,1024,1024,0,0,1024,0,0.710801,125.324575,1.0,523246.46551999997,141547.906749,0.0,0.0,0.0,0.0,Tit-1024_jobs-locality-1
0,3.1.0,0.0,2559.881001,6.318079,170.396618,82.516689,1.451127,68.194399,19.779995,143,0,512,512,0,0,512,0,0.356281,82.309347,1.0,308782.297994,34535.441215,0.0,0.0,0.0,0.0,Tit-512_jobs-noloc-1
0,3.1.0,0.0,2477.832931,2.4670389999999998,85.733241,24.344427,1.109332,47.212675,2.9257880000000003,143,0,512,512,0,0,512,0,0.363834,64.87897099999999,1.0,264416.325985,68077.17881699999,0.0,0.0,0.0,0.0,Tit-512_jobs-locality-1
0,3.1.0,0.0,4919.682604,1.7612970000000001,67.080686,12.508108,1.01378,44.438207,0.331947,143,0,1024,1024,0,0,1024,0,0.345152,0.751371,1.0,505790.72,158459.212967,0.0,0.0,0.0,0.0,Delay-1024_jobs-noloc-1
0,3.1.0,0.0,4919.682604,2.663712,80.812363,27.334791999999997,1.054236,45.479071000000005,1.372811,143,0,1024,1024,0,0,1024,0,0.371368,0.772651,1.0,505790.71999899996,158459.212968,0.0,0.0,0.0,0.0,Delay-1024_jobs-locality-1
0,3.1.0,0.0,2480.831741,1.7612970000000001,67.080686,12.508108,1.012738,44.373979,0.314213,143,0,512,512,0,0,512,0,0.173205,0.343343,1.0,252908.8,79544.000628,0.0,0.0,0.0,0.0,Delay-512_jobs-noloc-1
0,3.1.0,0.0,2480.831741,2.433243,74.09604300000001,23.548182999999998,1.042714,45.116444,1.056678,143,0,512,512,0,0,512,0,0.137215,0.30444899999999997,1.0,252908.8,79544.000629,0.0,0.0,0.0,0.0,Delay-512_jobs-locality-1
0,3.1.0,0.0,4919.009108,7.117700999999999,144.39417,93.332766,1.419409,63.353708,16.625212,143,0,1024,1024,0,0,1024,0,0.47324099999999997,1.873932,1.0,611989.6255399999,54861.189652999994,0.0,0.0,0.0,0.0,Ptask-1024_jobs-noloc-2
0,3.1.0,0.0,4915.801411,2.780636,77.75044100000001,28.598747999999997,1.090386,45.533947,2.519212,143,0,1024,1024,0,0,1024,0,0.5015649999999999,1.766191,1.0,522434.742598,142858.209932,0.0,0.0,0.0,0.0,Ptask-1024_jobs-locality-2
0,3.1.0,0.0,2499.951371,2.482037,98.127236,43.031121,1.211552,55.565259999999995,8.859413,143,0,512,512,0,0,512,0,0.24645799999999998,0.903275,1.0,307468.995381,29952.164856,0.0,0.0,0.0,0.0,Ptask-512_jobs-noloc-2
0,3.1.0,0.0,2480.961331,2.780636,77.75044100000001,28.598747999999997,1.104165,45.951869,2.943821,143,0,512,512,0,0,512,0,0.23984499999999997,0.844432,1.0,261272.789648,71771.153808,0.0,0.0,0.0,0.0,Ptask-512_jobs-locality-2
0,3.1.0,0.0,4917.689831000001,6.318079,170.396618,86.29890999999999,1.502561,69.779324,21.408711,143,0,1024,1024,0,0,1024,0,0.716754,166.15076499999998,1.0,613857.726631,51404.134748000004,0.0,0.0,0.0,0.0,Tit-1024_jobs-noloc-2
0,3.1.0,0.0,4916.683793,2.790568,85.733241,27.782326,1.103234,46.738064,2.712469,143,0,1024,1024,0,0,1024,0,0.729036,125.183517,1.0,523246.46551999997,141547.906749,0.0,0.0,0.0,0.0,Tit-1024_jobs-locality-2
0,3.1.0,0.0,2559.881001,6.318079,170.396618,82.516689,1.451127,68.194399,19.779995,143,0,512,512,0,0,512,0,0.35823,82.935765,1.0,308782.297994,34535.441215,0.0,0.0,0.0,0.0,Tit-512_jobs-noloc-2
0,3.1.0,0.0,2477.832931,2.4670389999999998,85.733241,24.344427,1.109332,47.212675,2.9257880000000003,143,0,512,512,0,0,512,0,0.362334,64.996004,1.0,264416.325985,68077.17881699999,0.0,0.0,0.0,0.0,Tit-512_jobs-locality-2
0,3.1.0,0.0,4919.682604,1.7612970000000001,67.080686,12.508108,1.01378,44.438207,0.331947,143,0,1024,1024,0,0,1024,0,0.392708,0.796098,1.0,505790.72,158459.212967,0.0,0.0,0.0,0.0,Delay-1024_jobs-noloc-2
0,3.1.0,0.0,4919.682604,2.663712,80.812363,27.334791999999997,1.054236,45.479071000000005,1.372811,143,0,1024,1024,0,0,1024,0,0.337198,0.7377090000000001,1.0,505790.71999899996,158459.212968,0.0,0.0,0.0,0.0,Delay-1024_jobs-locality-2
0,3.1.0,0.0,2480.831741,1.7612970000000001,67.080686,12.508108,1.012738,44.373979,0.314213,143,0,512,512,0,0,512,0,0.191906,0.3678,1.0,252908.8,79544.000628,0.0,0.0,0.0,0.0,Delay-512_jobs-noloc-2
0,3.1.0,0.0,2480.831741,2.433243,74.09604300000001,23.548182999999998,1.042714,45.116444,1.056678,143,0,512,512,0,0,512,0,0.189506,0.363741,1.0,252908.8,79544.000629,0.0,0.0,0.0,0.0,Delay-512_jobs-locality-2
0,3.1.0,0.0,4919.009108,7.117700999999999,144.39417,93.332766,1.419409,63.353708,16.625212,143,0,1024,1024,0,0,1024,0,0.470458,1.847273,1.0,611989.6255399999,54861.189652999994,0.0,0.0,0.0,0.0,Ptask-1024_jobs-noloc-3
0,3.1.0,0.0,4915.801411,2.780636,77.75044100000001,28.598747999999997,1.090386,45.533947,2.519212,143,0,1024,1024,0,0,1024,0,0.498046,1.7716939999999999,1.0,522434.742598,142858.209932,0.0,0.0,0.0,0.0,Ptask-1024_jobs-locality-3
0,3.1.0,0.0,2499.951371,2.482037,98.127236,43.031121,1.211552,55.565259999999995,8.859413,143,0,512,512,0,0,512,0,0.25969899999999996,0.9212530000000001,1.0,307468.995381,29952.164856,0.0,0.0,0.0,0.0,Ptask-512_jobs-noloc-3
0,3.1.0,0.0,2480.961331,2.780636,77.75044100000001,28.598747999999997,1.104165,45.951869,2.943821,143,0,512,512,0,0,512,0,0.21781,0.809176,1.0,261272.789648,71771.153808,0.0,0.0,0.0,0.0,Ptask-512_jobs-locality-3
0,3.1.0,0.0,4917.689831000001,6.318079,170.396618,86.29890999999999,1.502561,69.779324,21.408711,143,0,1024,1024,0,0,1024,0,0.698829,168.593913,1.0,613857.726631,51404.134748000004,0.0,0.0,0.0,0.0,Tit-1024_jobs-noloc-3
0,3.1.0,0.0,4916.683793,2.790568,85.733241,27.782326,1.103234,46.738064,2.712469,143,0,1024,1024,0,0,1024,0,0.709775,125.67931499999999,1.0,523246.46551999997,141547.906749,0.0,0.0,0.0,0.0,Tit-1024_jobs-locality-3
0,3.1.0,0.0,2559.881001,6.318079,170.396618,82.516689,1.451127,68.194399,19.779995,143,0,512,512,0,0,512,0,0.365406,81.20433299999999,1.0,308782.297994,34535.441215,0.0,0.0,0.0,0.0,Tit-512_jobs-noloc-3
0,3.1.0,0.0,2477.832931,2.4670389999999998,85.733241,24.344427,1.109332,47.212675,2.9257880000000003,143,0,512,512,0,0,512,0,0.35687199999999997,65.040904,1.0,264416.325985,68077.17881699999,0.0,0.0,0.0,0.0,Tit-512_jobs-locality-3
0,3.1.0,0.0,4919.682604,1.7612970000000001,67.080686,12.508108,1.01378,44.438207,0.331947,143,0,1024,1024,0,0,1024,0,0.340914,0.747359,1.0,505790.72,158459.212967,0.0,0.0,0.0,0.0,Delay-1024_jobs-noloc-3
0,3.1.0,0.0,4919.682604,2.663712,80.812363,27.334791999999997,1.054236,45.479071000000005,1.372811,143,0,1024,1024,0,0,1024,0,0.342569,0.747121,1.0,505790.71999899996,158459.212968,0.0,0.0,0.0,0.0,Delay-1024_jobs-locality-3
0,3.1.0,0.0,2480.831741,1.7612970000000001,67.080686,12.508108,1.012738,44.373979,0.314213,143,0,512,512,0,0,512,0,0.184271,0.359295,1.0,252908.8,79544.000628,0.0,0.0,0.0,0.0,Delay-512_jobs-noloc-3
0,3.1.0,0.0,2480.831741,2.433243,74.09604300000001,23.548182999999998,1.042714,45.116444,1.056678,143,0,512,512,0,0,512,0,0.171227,0.340363,1.0,252908.8,79544.000629,0.0,0.0,0.0,0.0,Delay-512_jobs-locality-3
0,3.1.0,0.0,4919.009108,7.117700999999999,144.39417,93.332766,1.419409,63.353708,16.625212,143,0,1024,1024,0,0,1024,0,0.502985,1.887835,1.0,611989.6255399999,54861.189652999994,0.0,0.0,0.0,0.0,Ptask-1024_jobs-noloc-4
0,3.1.0,0.0,4915.801411,2.780636,77.75044100000001,28.598747999999997,1.090386,45.533947,2.519212,143,0,1024,1024,0,0,1024,0,0.459355,1.7394900000000002,1.0,522434.742598,142858.209932,0.0,0.0,0.0,0.0,Ptask-1024_jobs-locality-4
0,3.1.0,0.0,2499.951371,2.482037,98.127236,43.031121,1.211552,55.565259999999995,8.859413,143,0,512,512,0,0,512,0,0.229535,0.891142,1.0,307468.995381,29952.164856,0.0,0.0,0.0,0.0,Ptask-512_jobs-noloc-4
0,3.1.0,0.0,2480.961331,2.780636,77.75044100000001,28.598747999999997,1.104165,45.951869,2.943821,143,0,512,512,0,0,512,0,0.223879,0.813462,1.0,261272.789648,71771.153808,0.0,0.0,0.0,0.0,Ptask-512_jobs-locality-4
0,3.1.0,0.0,4917.689831000001,6.318079,170.396618,86.29890999999999,1.502561,69.779324,21.408711,143,0,1024,1024,0,0,1024,0,0.703116,165.500047,1.0,613857.726631,51404.134748000004,0.0,0.0,0.0,0.0,Tit-1024_jobs-noloc-4
0,3.1.0,0.0,4916.683793,2.790568,85.733241,27.782326,1.103234,46.738064,2.712469,143,0,1024,1024,0,0,1024,0,0.700864,124.68208,1.0,523246.46551999997,141547.906749,0.0,0.0,0.0,0.0,Tit-1024_jobs-locality-4
0,3.1.0,0.0,2559.881001,6.318079,170.396618,82.516689,1.451127,68.194399,19.779995,143,0,512,512,0,0,512,0,0.340698,81.559632,1.0,308782.297994,34535.441215,0.0,0.0,0.0,0.0,Tit-512_jobs-noloc-4
0,3.1.0,0.0,2477.832931,2.4670389999999998,85.733241,24.344427,1.109332,47.212675,2.9257880000000003,143,0,512,512,0,0,512,0,0.37554,64.748266,1.0,264416.325985,68077.17881699999,0.0,0.0,0.0,0.0,Tit-512_jobs-locality-4
0,3.1.0,0.0,4919.682604,1.7612970000000001,67.080686,12.508108,1.01378,44.438207,0.331947,143,0,1024,1024,0,0,1024,0,0.363297,0.772708,1.0,505790.72,158459.212967,0.0,0.0,0.0,0.0,Delay-1024_jobs-noloc-4
0,3.1.0,0.0,4919.682604,2.663712,80.812363,27.334791999999997,1.054236,45.479071000000005,1.372811,143,0,1024,1024,0,0,1024,0,0.377168,0.782624,1.0,505790.71999899996,158459.212968,0.0,0.0,0.0,0.0,Delay-1024_jobs-locality-4
0,3.1.0,0.0,2480.831741,1.7612970000000001,67.080686,12.508108,1.012738,44.373979,0.314213,143,0,512,512,0,0,512,0,0.19731400000000002,0.370194,1.0,252908.8,79544.000628,0.0,0.0,0.0,0.0,Delay-512_jobs-noloc-4
0,3.1.0,0.0,2480.831741,2.433243,74.09604300000001,23.548182999999998,1.042714,45.116444,1.056678,143,0,512,512,0,0,512,0,0.149661,0.31832,1.0,252908.8,79544.000629,0.0,0.0,0.0,0.0,Delay-512_jobs-locality-4
0,3.1.0,0.0,4919.009108,7.117700999999999,144.39417,93.332766,1.419409,63.353708,16.625212,143,0,1024,1024,0,0,1024,0,0.495238,1.86648,1.0,611989.6255399999,54861.189652999994,0.0,0.0,0.0,0.0,Ptask-1024_jobs-noloc-5
0,3.1.0,0.0,4915.801411,2.780636,77.75044100000001,28.598747999999997,1.090386,45.533947,2.519212,143,0,1024,1024,0,0,1024,0,0.52368,1.779136,1.0,522434.742598,142858.209932,0.0,0.0,0.0,0.0,Ptask-1024_jobs-locality-5
0,3.1.0,0.0,2499.951371,2.482037,98.127236,43.031121,1.211552,55.565259999999995,8.859413,143,0,512,512,0,0,512,0,0.255864,0.928898,1.0,307468.995381,29952.164856,0.0,0.0,0.0,0.0,Ptask-512_jobs-noloc-5
0,3.1.0,0.0,2480.961331,2.780636,77.75044100000001,28.598747999999997,1.104165,45.951869,2.943821,143,0,512,512,0,0,512,0,0.25502199999999997,0.845933,1.0,261272.789648,71771.153808,0.0,0.0,0.0,0.0,Ptask-512_jobs-locality-5
0,3.1.0,0.0,4917.689831000001,6.318079,170.396618,86.29890999999999,1.502561,69.779324,21.408711,143,0,1024,1024,0,0,1024,0,0.723398,166.398521,1.0,613857.726631,51404.134748000004,0.0,0.0,0.0,0.0,Tit-1024_jobs-noloc-5
0,3.1.0,0.0,4916.683793,2.790568,85.733241,27.782326,1.103234,46.738064,2.712469,143,0,1024,1024,0,0,1024,0,0.7180340000000001,126.52399199999999,1.0,523246.46551999997,141547.906749,0.0,0.0,0.0,0.0,Tit-1024_jobs-locality-5
0,3.1.0,0.0,2559.881001,6.318079,170.396618,82.516689,1.451127,68.194399,19.779995,143,0,512,512,0,0,512,0,0.370233,83.207301,1.0,308782.297994,34535.441215,0.0,0.0,0.0,0.0,Tit-512_jobs-noloc-5
0,3.1.0,0.0,2477.832931,2.4670389999999998,85.733241,24.344427,1.109332,47.212675,2.9257880000000003,143,0,512,512,0,0,512,0,0.359756,64.74775799999999,1.0,264416.325985,68077.17881699999,0.0,0.0,0.0,0.0,Tit-512_jobs-locality-5
0,3.1.0,0.0,4919.682604,1.7612970000000001,67.080686,12.508108,1.01378,44.438207,0.331947,143,0,1024,1024,0,0,1024,0,0.359795,0.760482,1.0,505790.72,158459.212967,0.0,0.0,0.0,0.0,Delay-1024_jobs-noloc-5
0,3.1.0,0.0,4919.682604,2.663712,80.812363,27.334791999999997,1.054236,45.479071000000005,1.372811,143,0,1024,1024,0,0,1024,0,0.35296700000000003,0.7578189999999999,1.0,505790.71999899996,158459.212968,0.0,0.0,0.0,0.0,Delay-1024_jobs-locality-5
0,3.1.0,0.0,2480.831741,1.7612970000000001,67.080686,12.508108,1.012738,44.373979,0.314213,143,0,512,512,0,0,512,0,0.19395199999999999,0.36382800000000004,1.0,252908.8,79544.000628,0.0,0.0,0.0,0.0,Delay-512_jobs-noloc-5
0,3.1.0,0.0,2480.831741,2.433243,74.09604300000001,23.548182999999998,1.042714,45.116444,1.056678,143,0,512,512,0,0,512,0,0.179755,0.343566,1.0,252908.8,79544.000629,0.0,0.0,0.0,0.0,Delay-512_jobs-locality-5
0,3.1.0,0.0,4919.009108,7.117700999999999,144.39417,93.332766,1.419409,63.353708,16.625212,143,0,1024,1024,0,0,1024,0,0.513195,1.8922759999999998,1.0,611989.6255399999,54861.189652999994,0.0,0.0,0.0,0.0,Ptask-1024_jobs-noloc-6
0,3.1.0,0.0,4915.801411,2.780636,77.75044100000001,28.598747999999997,1.090386,45.533947,2.519212,143,0,1024,1024,0,0,1024,0,0.497971,1.7591330000000003,1.0,522434.742598,142858.209932,0.0,0.0,0.0,0.0,Ptask-1024_jobs-locality-6
0,3.1.0,0.0,2499.951371,2.482037,98.127236,43.031121,1.211552,55.565259999999995,8.859413,143,0,512,512,0,0,512,0,0.254052,0.9425040000000001,1.0,307468.995381,29952.164856,0.0,0.0,0.0,0.0,Ptask-512_jobs-noloc-6
0,3.1.0,0.0,2480.961331,2.780636,77.75044100000001,28.598747999999997,1.104165,45.951869,2.943821,143,0,512,512,0,0,512,0,0.24691999999999997,0.849734,1.0,261272.789648,71771.153808,0.0,0.0,0.0,0.0,Ptask-512_jobs-locality-6
0,3.1.0,0.0,4917.689831000001,6.318079,170.396618,86.29890999999999,1.502561,69.779324,21.408711,143,0,1024,1024,0,0,1024,0,0.717104,169.027695,1.0,613857.726631,51404.134748000004,0.0,0.0,0.0,0.0,Tit-1024_jobs-noloc-6
0,3.1.0,0.0,4916.683793,2.790568,85.733241,27.782326,1.103234,46.738064,2.712469,143,0,1024,1024,0,0,1024,0,0.704519,125.19256000000001,1.0,523246.46551999997,141547.906749,0.0,0.0,0.0,0.0,Tit-1024_jobs-locality-6
0,3.1.0,0.0,2559.881001,6.318079,170.396618,82.516689,1.451127,68.194399,19.779995,143,0,512,512,0,0,512,0,0.368251,81.428877,1.0,308782.297994,34535.441215,0.0,0.0,0.0,0.0,Tit-512_jobs-noloc-6
0,3.1.0,0.0,2477.832931,2.4670389999999998,85.733241,24.344427,1.109332,47.212675,2.9257880000000003,143,0,512,512,0,0,512,0,0.349519,65.478673,1.0,264416.325985,68077.17881699999,0.0,0.0,0.0,0.0,Tit-512_jobs-locality-6
0,3.1.0,0.0,4919.682604,1.7612970000000001,67.080686,12.508108,1.01378,44.438207,0.331947,143,0,1024,1024,0,0,1024,0,0.341562,0.7480289999999999,1.0,505790.72,158459.212967,0.0,0.0,0.0,0.0,Delay-1024_jobs-noloc-6
0,3.1.0,0.0,4919.682604,2.663712,80.812363,27.334791999999997,1.054236,45.479071000000005,1.372811,143,0,1024,1024,0,0,1024,0,0.36796999999999996,0.78301,1.0,505790.71999899996,158459.212968,0.0,0.0,0.0,0.0,Delay-1024_jobs-locality-6
0,3.1.0,0.0,2480.831741,1.7612970000000001,67.080686,12.508108,1.012738,44.373979,0.314213,143,0,512,512,0,0,512,0,0.18219200000000002,0.35065100000000005,1.0,252908.8,79544.000628,0.0,0.0,0.0,0.0,Delay-512_jobs-noloc-6
0,3.1.0,0.0,2480.831741,2.433243,74.09604300000001,23.548182999999998,1.042714,45.116444,1.056678,143,0,512,512,0,0,512,0,0.165795,0.33608899999999997,1.0,252908.8,79544.000629,0.0,0.0,0.0,0.0,Delay-512_jobs-locality-6
0,3.1.0,0.0,4919.009108,7.117700999999999,144.39417,93.332766,1.419409,63.353708,16.625212,143,0,1024,1024,0,0,1024,0,0.49918100000000004,1.884061,1.0,611989.6255399999,54861.189652999994,0.0,0.0,0.0,0.0,Ptask-1024_jobs-noloc-7
0,3.1.0,0.0,4915.801411,2.780636,77.75044100000001,28.598747999999997,1.090386,45.533947,2.519212,143,0,1024,1024,0,0,1024,0,0.493983,1.7591150000000002,1.0,522434.742598,142858.209932,0.0,0.0,0.0,0.0,Ptask-1024_jobs-locality-7
0,3.1.0,0.0,2499.951371,2.482037,98.127236,43.031121,1.211552,55.565259999999995,8.859413,143,0,512,512,0,0,512,0,0.13131500000000002,0.866871,1.0,307468.995381,29952.164856,0.0,0.0,0.0,0.0,Ptask-512_jobs-noloc-7
0,3.1.0,0.0,2480.961331,2.780636,77.75044100000001,28.598747999999997,1.104165,45.951869,2.943821,143,0,512,512,0,0,512,0,0.24142600000000003,0.8371620000000001,1.0,261272.789648,71771.153808,0.0,0.0,0.0,0.0,Ptask-512_jobs-locality-7
0,3.1.0,0.0,4917.689831000001,6.318079,170.396618,86.29890999999999,1.502561,69.779324,21.408711,143,0,1024,1024,0,0,1024,0,0.706663,166.339772,1.0,613857.726631,51404.134748000004,0.0,0.0,0.0,0.0,Tit-1024_jobs-noloc-7
0,3.1.0,0.0,4916.683793,2.790568,85.733241,27.782326,1.103234,46.738064,2.712469,143,0,1024,1024,0,0,1024,0,0.72409,125.62341699999999,1.0,523246.46551999997,141547.906749,0.0,0.0,0.0,0.0,Tit-1024_jobs-locality-7
0,3.1.0,0.0,2559.881001,6.318079,170.396618,82.516689,1.451127,68.194399,19.779995,143,0,512,512,0,0,512,0,0.355769,80.750731,1.0,308782.297994,34535.441215,0.0,0.0,0.0,0.0,Tit-512_jobs-noloc-7
0,3.1.0,0.0,2477.832931,2.4670389999999998,85.733241,24.344427,1.109332,47.212675,2.9257880000000003,143,0,512,512,0,0,512,0,0.34451,64.542519,1.0,264416.325985,68077.17881699999,0.0,0.0,0.0,0.0,Tit-512_jobs-locality-7
0,3.1.0,0.0,4919.682604,1.7612970000000001,67.080686,12.508108,1.01378,44.438207,0.331947,143,0,1024,1024,0,0,1024,0,0.34997399999999995,0.763053,1.0,505790.72,158459.212967,0.0,0.0,0.0,0.0,Delay-1024_jobs-noloc-7
0,3.1.0,0.0,4919.682604,2.663712,80.812363,27.334791999999997,1.054236,45.479071000000005,1.372811,143,0,1024,1024,0,0,1024,0,0.342577,0.744808,1.0,505790.71999899996,158459.212968,0.0,0.0,0.0,0.0,Delay-1024_jobs-locality-7
0,3.1.0,0.0,2480.831741,1.7612970000000001,67.080686,12.508108,1.012738,44.373979,0.314213,143,0,512,512,0,0,512,0,0.17928,0.348665,1.0,252908.8,79544.000628,0.0,0.0,0.0,0.0,Delay-512_jobs-noloc-7
0,3.1.0,0.0,2480.831741,2.433243,74.09604300000001,23.548182999999998,1.042714,45.116444,1.056678,143,0,512,512,0,0,512,0,0.142427,0.305556,1.0,252908.8,79544.000629,0.0,0.0,0.0,0.0,Delay-512_jobs-locality-7
0,3.1.0,0.0,4919.009108,7.117700999999999,144.39417,93.332766,1.419409,63.353708,16.625212,143,0,1024,1024,0,0,1024,0,0.517183,1.904106,1.0,611989.6255399999,54861.189652999994,0.0,0.0,0.0,0.0,Ptask-1024_jobs-noloc-8
0,3.1.0,0.0,4915.801411,2.780636,77.75044100000001,28.598747999999997,1.090386,45.533947,2.519212,143,0,1024,1024,0,0,1024,0,0.506283,1.774103,1.0,522434.742598,142858.209932,0.0,0.0,0.0,0.0,Ptask-1024_jobs-locality-8
0,3.1.0,0.0,2499.951371,2.482037,98.127236,43.031121,1.211552,55.565259999999995,8.859413,143,0,512,512,0,0,512,0,0.219998,0.8807389999999999,1.0,307468.995381,29952.164856,0.0,0.0,0.0,0.0,Ptask-512_jobs-noloc-8
0,3.1.0,0.0,2480.961331,2.780636,77.75044100000001,28.598747999999997,1.104165,45.951869,2.943821,143,0,512,512,0,0,512,0,0.23762199999999997,0.847292,1.0,261272.789648,71771.153808,0.0,0.0,0.0,0.0,Ptask-512_jobs-locality-8
0,3.1.0,0.0,4917.689831000001,6.318079,170.396618,86.29890999999999,1.502561,69.779324,21.408711,143,0,1024,1024,0,0,1024,0,0.7353649999999999,164.397178,1.0,613857.726631,51404.134748000004,0.0,0.0,0.0,0.0,Tit-1024_jobs-noloc-8
0,3.1.0,0.0,4916.683793,2.790568,85.733241,27.782326,1.103234,46.738064,2.712469,143,0,1024,1024,0,0,1024,0,0.735487,124.190646,1.0,523246.46551999997,141547.906749,0.0,0.0,0.0,0.0,Tit-1024_jobs-locality-8
0,3.1.0,0.0,2559.881001,6.318079,170.396618,82.516689,1.451127,68.194399,19.779995,143,0,512,512,0,0,512,0,0.344456,81.128209,1.0,308782.297994,34535.441215,0.0,0.0,0.0,0.0,Tit-512_jobs-noloc-8
0,3.1.0,0.0,2477.832931,2.4670389999999998,85.733241,24.344427,1.109332,47.212675,2.9257880000000003,143,0,512,512,0,0,512,0,0.353065,65.063924,1.0,264416.325985,68077.17881699999,0.0,0.0,0.0,0.0,Tit-512_jobs-locality-8
0,3.1.0,0.0,4919.682604,1.7612970000000001,67.080686,12.508108,1.01378,44.438207,0.331947,143,0,1024,1024,0,0,1024,0,0.342262,0.7471270000000001,1.0,505790.72,158459.212967,0.0,0.0,0.0,0.0,Delay-1024_jobs-noloc-8
0,3.1.0,0.0,4919.682604,2.663712,80.812363,27.334791999999997,1.054236,45.479071000000005,1.372811,143,0,1024,1024,0,0,1024,0,0.36967,0.7709159999999999,1.0,505790.71999899996,158459.212968,0.0,0.0,0.0,0.0,Delay-1024_jobs-locality-8
0,3.1.0,0.0,2480.831741,1.7612970000000001,67.080686,12.508108,1.012738,44.373979,0.314213,143,0,512,512,0,0,512,0,0.170327,0.336316,1.0,252908.8,79544.000628,0.0,0.0,0.0,0.0,Delay-512_jobs-noloc-8
0,3.1.0,0.0,2480.831741,2.433243,74.09604300000001,23.548182999999998,1.042714,45.116444,1.056678,143,0,512,512,0,0,512,0,0.17919100000000002,0.34891300000000003,1.0,252908.8,79544.000629,0.0,0.0,0.0,0.0,Delay-512_jobs-locality-8
0,3.1.0,0.0,4919.009108,7.117700999999999,144.39417,93.332766,1.419409,63.353708,16.625212,143,0,1024,1024,0,0,1024,0,0.506436,1.884875,1.0,611989.6255399999,54861.189652999994,0.0,0.0,0.0,0.0,Ptask-1024_jobs-noloc-9
0,3.1.0,0.0,4915.801411,2.780636,77.75044100000001,28.598747999999997,1.090386,45.533947,2.519212,143,0,1024,1024,0,0,1024,0,0.516288,1.773166,1.0,522434.742598,142858.209932,0.0,0.0,0.0,0.0,Ptask-1024_jobs-locality-9
0,3.1.0,0.0,2499.951371,2.482037,98.127236,43.031121,1.211552,55.565259999999995,8.859413,143,0,512,512,0,0,512,0,0.244905,0.9201809999999999,1.0,307468.995381,29952.164856,0.0,0.0,0.0,0.0,Ptask-512_jobs-noloc-9
0,3.1.0,0.0,2480.961331,2.780636,77.75044100000001,28.598747999999997,1.104165,45.951869,2.943821,143,0,512,512,0,0,512,0,0.251168,0.840979,1.0,261272.789648,71771.153808,0.0,0.0,0.0,0.0,Ptask-512_jobs-locality-9
0,3.1.0,0.0,4917.689831000001,6.318079,170.396618,86.29890999999999,1.502561,69.779324,21.408711,143,0,1024,1024,0,0,1024,0,0.764239,165.57901299999997,1.0,613857.726631,51404.134748000004,0.0,0.0,0.0,0.0,Tit-1024_jobs-noloc-9
0,3.1.0,0.0,4916.683793,2.790568,85.733241,27.782326,1.103234,46.738064,2.712469,143,0,1024,1024,0,0,1024,0,0.714154,124.73704599999999,1.0,523246.46551999997,141547.906749,0.0,0.0,0.0,0.0,Tit-1024_jobs-locality-9
0,3.1.0,0.0,2559.881001,6.318079,170.396618,82.516689,1.451127,68.194399,19.779995,143,0,512,512,0,0,512,0,0.346551,81.5962,1.0,308782.297994,34535.441215,0.0,0.0,0.0,0.0,Tit-512_jobs-noloc-9
0,3.1.0,0.0,2477.832931,2.4670389999999998,85.733241,24.344427,1.109332,47.212675,2.9257880000000003,143,0,512,512,0,0,512,0,0.349029,65.237222,1.0,264416.325985,68077.17881699999,0.0,0.0,0.0,0.0,Tit-512_jobs-locality-9
0,3.1.0,0.0,4919.682604,1.7612970000000001,67.080686,12.508108,1.01378,44.438207,0.331947,143,0,1024,1024,0,0,1024,0,0.34612600000000004,0.7425510000000001,1.0,505790.72,158459.212967,0.0,0.0,0.0,0.0,Delay-1024_jobs-noloc-9
0,3.1.0,0.0,4919.682604,2.663712,80.812363,27.334791999999997,1.054236,45.479071000000005,1.372811,143,0,1024,1024,0,0,1024,0,0.3551,0.759791,1.0,505790.71999899996,158459.212968,0.0,0.0,0.0,0.0,Delay-1024_jobs-locality-9
0,3.1.0,0.0,2480.831741,1.7612970000000001,67.080686,12.508108,1.012738,44.373979,0.314213,143,0,512,512,0,0,512,0,0.163105,0.328832,1.0,252908.8,79544.000628,0.0,0.0,0.0,0.0,Delay-512_jobs-noloc-9
0,3.1.0,0.0,2480.831741,2.433243,74.09604300000001,23.548182999999998,1.042714,45.116444,1.056678,143,0,512,512,0,0,512,0,0.161053,0.32948,1.0,252908.8,79544.000629,0.0,0.0,0.0,0.0,Delay-512_jobs-locality-9
