time,nb_sleeping,nb_switching_on,nb_switching_off,nb_idle,nb_computing
4.40377,0,0,0,135,8
7.95099,0,0,0,119,24
12.302,0,0,0,111,32
17.4813,0,0,0,95,48
21.4597,0,0,0,87,56
26.6607,0,0,0,79,64
31.6655,0,0,0,47,96
35.8739,0,0,0,39,104
37.9361,0,0,0,55,88
41.1913,0,0,0,39,104
46.4433,0,0,0,23,120
51.1118,0,0,0,15,128
53.163,0,0,0,47,96
53.4157,0,0,0,63,80
55.2488,0,0,0,31,112
60.405,0,0,0,39,104
60.6786,0,0,0,23,120
65.3303,0,0,0,7,136
68.3032,0,0,0,15,128
71.0046,0,0,0,7,136
71.1764,0,0,0,23,120
76.4283,0,0,0,39,104
76.4284,0,0,0,7,136
77.4609,0,0,0,15,128
80.5371,0,0,0,47,96
81.0294,0,0,0,15,128
82.6619,0,0,0,23,120
107.113,0,0,0,31,112
108.106,0,0,0,39,104
108.106,0,0,0,7,136
110.29,0,0,0,39,104
110.29,0,0,0,23,120
110.29,0,0,0,15,128
112.325,0,0,0,47,96
112.325,0,0,0,31,112
112.325,0,0,0,23,120
112.325,0,0,0,15,128
112.87,0,0,0,31,112
115.458,0,0,0,15,128
119.269,0,0,0,7,136
120.021,0,0,0,23,120
123.639,0,0,0,15,128
127.006,0,0,0,23,120
128.766,0,0,0,15,128
133.539,0,0,0,7,136
135.902,0,0,0,39,104
137.329,0,0,0,7,136
140.275,0,0,0,23,120
141.799,0,0,0,15,128
147.462,0,0,0,7,136
148.607,0,0,0,23,120
152.551,0,0,0,7,136
162.01,0,0,0,23,120
162.01,0,0,0,7,136
162.807,0,0,0,39,104
162.807,0,0,0,31,112
166.105,0,0,0,23,120
166.291,0,0,0,31,112
168.326,0,0,0,39,104
168.326,0,0,0,47,96
171.033,0,0,0,15,128
175.27,0,0,0,23,120
176.561,0,0,0,7,136
179.64,0,0,0,15,128
182.072,0,0,0,7,136
184.767,0,0,0,15,128
185.936,0,0,0,7,136
189.541,0,0,0,15,128
192.121,0,0,0,31,112
197.474,0,0,0,63,80
197.474,0,0,0,31,112
197.474,0,0,0,23,120
197.801,0,0,0,31,112
198.379,0,0,0,47,96
201.259,0,0,0,15,128
203.464,0,0,0,23,120
206.086,0,0,0,15,128
206.546,0,0,0,31,112
210.969,0,0,0,23,120
217.645,0,0,0,55,88
217.645,0,0,0,23,120
218.808,0,0,0,31,112
220.901,0,0,0,15,128
224.507,0,0,0,47,96
226.402,0,0,0,15,128
238.073,0,0,0,23,120
238.073,0,0,0,7,136
239.877,0,0,0,39,104
239.877,0,0,0,23,120
239.877,0,0,0,7,136
240.285,0,0,0,15,128
241.938,0,0,0,23,120
243.319,0,0,0,7,136
253.475,0,0,0,15,128
253.475,0,0,0,7,136
256.094,0,0,0,39,104
256.094,0,0,0,23,120
257.774,0,0,0,15,128
262.088,0,0,0,23,120
262.291,0,0,0,15,128
262.683,0,0,0,31,112
266.97,0,0,0,39,104
267.029,0,0,0,31,112
269.862,0,0,0,47,96
270.993,0,0,0,39,104
275.353,0,0,0,7,136
297.42,0,0,0,39,104
297.42,0,0,0,31,112
297.42,0,0,0,15,128
301.119,0,0,0,31,112
301.119,0,0,0,15,128
302.355,0,0,0,31,112
302.355,0,0,0,15,128
307.456,0,0,0,31,112
307.456,0,0,0,15,128
309.476,0,0,0,23,120
317.567,0,0,0,39,104
317.567,0,0,0,7,136
318.292,0,0,0,15,128
318.292,0,0,0,7,136
319.081,0,0,0,15,128
319.081,0,0,0,7,136
323.03,0,0,0,15,128
323.03,0,0,0,7,136
326.994,0,0,0,15,128
326.994,0,0,0,7,136
327.405,0,0,0,23,120
353.063,0,0,0,55,88
353.063,0,0,0,23,120
353.063,0,0,0,15,128
353.063,0,0,0,7,136
353.422,0,0,0,15,128
353.422,0,0,0,7,136
367.75,0,0,0,23,120
367.75,0,0,0,15,128
368.703,0,0,0,31,112
373.2,0,0,0,47,96
373.2,0,0,0,15,128
374.293,0,0,0,23,120
374.293,0,0,0,7,136
379.031,0,0,0,15,128
379.031,0,0,0,7,136
382.995,0,0,0,15,128
382.995,0,0,0,7,136
385.962,0,0,0,15,128
387.098,0,0,0,47,96
387.098,0,0,0,15,128
408.946,0,0,0,47,96
408.946,0,0,0,15,128
409.064,0,0,0,23,120
409.064,0,0,0,31,112
409.064,0,0,0,15,128
409.064,0,0,0,7,136
409.423,0,0,0,15,128
422.214,0,0,0,47,96
422.214,0,0,0,31,112
422.214,0,0,0,23,120
422.214,0,0,0,15,128
422.214,0,0,0,7,136
423.751,0,0,0,15,128
423.751,0,0,0,7,136
435.033,0,0,0,15,128
438.996,0,0,0,23,120
438.996,0,0,0,7,136
439.049,0,0,0,23,120
439.049,0,0,0,15,128
439.283,0,0,0,31,112
439.283,0,0,0,15,128
442.192,0,0,0,47,96
442.192,0,0,0,31,112
442.192,0,0,0,23,120
442.192,0,0,0,15,128
445.671,0,0,0,7,136
465.065,0,0,0,15,128
465.065,0,0,0,7,136
468.981,0,0,0,23,120
468.982,0,0,0,15,128
468.982,0,0,0,7,136
470.79,0,0,0,23,120
470.79,0,0,0,15,128
478.215,0,0,0,23,120
478.215,0,0,0,31,112
478.215,0,0,0,15,128
478.215,0,0,0,7,136
478.215,0,0,0,15,128
478.506,0,0,0,7,136
479.266,0,0,0,23,120
479.752,0,0,0,31,112
480.841,0,0,0,47,96
484.135,0,0,0,39,104
490.272,0,0,0,7,136
495.051,0,0,0,15,128
495.457,0,0,0,7,136
498.193,0,0,0,15,128
499.27,0,0,0,23,120
500.461,0,0,0,15,128
501.672,0,0,0,23,120
505.149,0,0,0,15,128
507.981,0,0,0,47,96
509.623,0,0,0,63,80
510.415,0,0,0,55,88
514.834,0,0,0,47,96
519.821,0,0,0,39,104
521.067,0,0,0,47,96
524.133,0,0,0,39,104
524.983,0,0,0,47,96
524.983,0,0,0,55,88
526.792,0,0,0,63,80
529.525,0,0,0,31,112
534.216,0,0,0,39,104
534.633,0,0,0,31,112
535.275,0,0,0,39,104
539.654,0,0,0,23,120
540.136,0,0,0,31,112
544.304,0,0,0,23,120
549.435,0,0,0,15,128
551.458,0,0,0,23,120
553.222,0,0,0,55,88
554.795,0,0,0,23,120
556.462,0,0,0,31,112
566.416,0,0,0,39,104
566.416,0,0,0,7,136
570.835,0,0,0,15,128
570.835,0,0,0,7,136
579.821,0,0,0,23,120
580.134,0,0,0,31,112
581.771,0,0,0,39,104
581.771,0,0,0,7,136
583.985,0,0,0,39,104
583.985,0,0,0,23,120
583.985,0,0,0,7,136
590.634,0,0,0,15,128
600.305,0,0,0,23,120
605.436,0,0,0,31,112
605.717,0,0,0,63,80
605.717,0,0,0,31,112
605.717,0,0,0,23,120
605.717,0,0,0,15,128
605.717,0,0,0,7,136
612.748,0,0,0,15,128
624.917,0,0,0,47,96
624.917,0,0,0,15,128
624.917,0,0,0,7,136
626.836,0,0,0,15,128
626.837,0,0,0,7,136
647.883,0,0,0,39,104
647.883,0,0,0,23,120
647.883,0,0,0,7,136
661.718,0,0,0,15,128
661.718,0,0,0,23,120
661.718,0,0,0,31,112
661.718,0,0,0,23,120
663.662,0,0,0,39,104
663.662,0,0,0,7,136
665.03,0,0,0,23,120
665.365,0,0,0,55,88
665.365,0,0,0,23,120
665.365,0,0,0,15,128
665.365,0,0,0,7,136
677.868,0,0,0,23,120
680.918,0,0,0,31,112
682.838,0,0,0,39,104
682.838,0,0,0,7,136
700.477,0,0,0,39,104
700.477,0,0,0,31,112
700.477,0,0,0,23,120
701.761,0,0,0,55,88
701.761,0,0,0,23,120
701.761,0,0,0,15,128
701.761,0,0,0,7,136
708.471,0,0,0,39,104
708.471,0,0,0,7,136
710.078,0,0,0,23,120
717.719,0,0,0,31,112
721.366,0,0,0,39,104
721.366,0,0,0,7,136
726.576,0,0,0,39,104
726.576,0,0,0,23,120
731.404,0,0,0,55,88
731.404,0,0,0,23,120
732.334,0,0,0,31,112
751.936,0,0,0,63,80
751.936,0,0,0,31,112
751.936,0,0,0,23,120
751.936,0,0,0,15,128
756.479,0,0,0,23,120
756.479,0,0,0,31,112
756.479,0,0,0,15,128
756.479,0,0,0,7,136
757.762,0,0,0,15,128
757.762,0,0,0,23,120
757.762,0,0,0,15,128
757.762,0,0,0,7,136
763.92,0,0,0,39,104
763.92,0,0,0,7,136
791.044,0,0,0,39,104
791.044,0,0,0,31,112
791.044,0,0,0,23,120
791.044,0,0,0,15,128
791.619,0,0,0,31,112
791.619,0,0,0,15,128
791.619,0,0,0,7,136
800.677,0,0,0,39,104
800.677,0,0,0,31,112
800.677,0,0,0,23,120
807.937,0,0,0,31,112
807.947,0,0,0,39,104
807.947,0,0,0,7,136
812.48,0,0,0,15,128
812.48,0,0,0,7,136
813.763,0,0,0,15,128
813.763,0,0,0,23,120
813.763,0,0,0,15,128
813.763,0,0,0,7,136
819.04,0,0,0,23,120
819.04,0,0,0,15,128
832.579,0,0,0,47,96
832.579,0,0,0,31,112
832.579,0,0,0,23,120
832.579,0,0,0,7,136
837.925,0,0,0,23,120
847.045,0,0,0,31,112
847.045,0,0,0,39,104
847.045,0,0,0,7,136
847.62,0,0,0,15,128
847.62,0,0,0,7,136
856.678,0,0,0,15,128
856.678,0,0,0,23,120
856.679,0,0,0,15,128
866.646,0,0,0,31,112
868.481,0,0,0,39,104
868.481,0,0,0,7,136
869.764,0,0,0,15,128
869.764,0,0,0,23,120
869.765,0,0,0,15,128
874.27,0,0,0,23,120
874.27,0,0,0,7,136
874.957,0,0,0,39,104
874.957,0,0,0,7,136
874.999,0,0,0,23,120
875.042,0,0,0,31,112
888.58,0,0,0,39,104
888.58,0,0,0,7,136
901.453,0,0,0,39,104
901.453,0,0,0,7,136
903.621,0,0,0,15,128
903.621,0,0,0,7,136
910.135,0,0,0,39,104
910.135,0,0,0,31,112
910.135,0,0,0,23,120
910.135,0,0,0,15,128
910.135,0,0,0,7,136
912.68,0,0,0,15,128
922.695,0,0,0,47,96
922.695,0,0,0,31,112
922.695,0,0,0,23,120
922.695,0,0,0,7,136
924.108,0,0,0,23,120
924.108,0,0,0,15,128
924.108,0,0,0,7,136
925.766,0,0,0,15,128
930.521,0,0,0,47,96
930.521,0,0,0,15,128
930.521,0,0,0,7,136
950.234,0,0,0,39,104
950.234,0,0,0,31,112
950.234,0,0,0,23,120
950.234,0,0,0,15,128
950.234,0,0,0,7,136
952.68,0,0,0,23,120
952.68,0,0,0,39,104
952.68,0,0,0,31,112
952.68,0,0,0,23,120
952.68,0,0,0,15,128
959.623,0,0,0,23,120
966.136,0,0,0,31,112
966.136,0,0,0,39,104
966.136,0,0,0,47,96
966.137,0,0,0,15,128
975.201,0,0,0,23,120
975.201,0,0,0,7,136
978.697,0,0,0,15,128
980.109,0,0,0,23,120
985.062,0,0,0,31,112
986.522,0,0,0,39,104
986.522,0,0,0,7,136
987.615,0,0,0,39,104
987.615,0,0,0,23,120
987.615,0,0,0,15,128
987.615,0,0,0,7,136
1006.24,0,0,0,15,128
1006.24,0,0,0,23,120
1006.24,0,0,0,31,112
1006.24,0,0,0,23,120
1008.68,0,0,0,31,112
1008.68,0,0,0,39,104
1008.68,0,0,0,47,96
1008.68,0,0,0,15,128
1008.68,0,0,0,7,136
1010.98,0,0,0,39,104
1010.98,0,0,0,23,120
1010.98,0,0,0,15,128
1010.98,0,0,0,7,136
1017.6,0,0,0,23,120
1017.6,0,0,0,7,136
1018.94,0,0,0,15,128
1020.74,0,0,0,31,112
1020.74,0,0,0,15,128
1020.74,0,0,0,7,136
1040.37,0,0,0,39,104
1040.37,0,0,0,23,120
1040.37,0,0,0,15,128
1043.62,0,0,0,23,120
1043.62,0,0,0,31,112
1047.58,0,0,0,47,96
1047.58,0,0,0,15,128
1047.58,0,0,0,7,136
1062.24,0,0,0,15,128
1062.24,0,0,0,7,136
1064.68,0,0,0,15,128
1064.68,0,0,0,7,136
1065.24,0,0,0,23,120
1065.24,0,0,0,15,128
1065.24,0,0,0,7,136
1066.98,0,0,0,15,128
1066.98,0,0,0,23,120
1066.98,0,0,0,15,128
1066.98,0,0,0,7,136
1070.36,0,0,0,23,120
1070.36,0,0,0,15,128
1070.36,0,0,0,7,136
1072.85,0,0,0,23,120
1072.85,0,0,0,15,128
1072.85,0,0,0,7,136
1074.6,0,0,0,39,104
1074.6,0,0,0,23,120
1074.6,0,0,0,15,128
1078.02,0,0,0,7,136
1089.17,0,0,0,15,128
1089.17,0,0,0,7,136
1096.37,0,0,0,15,128
1096.37,0,0,0,7,136
1103.59,0,0,0,15,128
1103.59,0,0,0,7,136
1104.59,0,0,0,23,120
1104.59,0,0,0,15,128
1118.24,0,0,0,23,120
1120.68,0,0,0,31,112
1121.24,0,0,0,39,104
1121.24,0,0,0,7,136
1122.98,0,0,0,15,128
1122.98,0,0,0,23,120
1122.98,0,0,0,7,136
1124.47,0,0,0,15,128
1126.36,0,0,0,23,120
1126.36,0,0,0,31,112
1126.36,0,0,0,15,128
1128.86,0,0,0,23,120
1128.86,0,0,0,7,136
1130.6,0,0,0,15,128
1131.95,0,0,0,23,120
1131.95,0,0,0,7,136
1134.02,0,0,0,15,128
1134.02,0,0,0,7,136
1144.51,0,0,0,39,104
1144.51,0,0,0,23,120
1145.19,0,0,0,31,112
1152.37,0,0,0,39,104
1152.37,0,0,0,7,136
1152.96,0,0,0,23,120
1152.96,0,0,0,15,128
1152.96,0,0,0,7,136
1156.34,0,0,0,23,120
1156.34,0,0,0,15,128
1156.75,0,0,0,7,136
1159.59,0,0,0,15,128
1160.59,0,0,0,23,120
1166.64,0,0,0,39,104
1166.64,0,0,0,7,136
1174.5,0,0,0,23,120
1174.5,0,0,0,15,128
1174.5,0,0,0,7,136
1180.17,0,0,0,23,120
1182.59,0,0,0,55,88
1182.59,0,0,0,23,120
1182.59,0,0,0,7,136
1190.02,0,0,0,15,128
1190.02,0,0,0,7,136
1196.84,0,0,0,39,104
1196.84,0,0,0,7,136
1203.47,0,0,0,39,104
1203.47,0,0,0,31,112
1203.47,0,0,0,23,120
1208.96,0,0,0,31,112
1208.96,0,0,0,39,104
1208.96,0,0,0,7,136
1212.34,0,0,0,15,128
1212.34,0,0,0,7,136
1212.76,0,0,0,15,128
1212.76,0,0,0,7,136
1228.06,0,0,0,39,104
1228.06,0,0,0,31,112
1228.06,0,0,0,23,120
1228.06,0,0,0,15,128
1230.5,0,0,0,23,120
1230.5,0,0,0,31,112
1234.16,0,0,0,47,96
1234.16,0,0,0,15,128
1240.72,0,0,0,47,96
1240.72,0,0,0,31,112
1246.02,0,0,0,39,104
1246.02,0,0,0,7,136
1259.47,0,0,0,15,128
1259.57,0,0,0,47,96
1259.57,0,0,0,31,112
1259.57,0,0,0,23,120
1259.57,0,0,0,15,128
1260.45,0,0,0,7,136
1267.71,0,0,0,39,104
1267.71,0,0,0,23,120
1268.34,0,0,0,31,112
1268.63,0,0,0,23,120
1268.76,0,0,0,31,112
1270.46,0,0,0,39,104
1270.71,0,0,0,55,88
1273.71,0,0,0,23,120
1279.19,0,0,0,7,136
1284.06,0,0,0,15,128
1284.06,0,0,0,23,120
1284.06,0,0,0,15,128
1287.34,0,0,0,7,136
1289.55,0,0,0,23,120
1293.86,0,0,0,55,88
1293.86,0,0,0,23,120
1294.93,0,0,0,31,112
1296.46,0,0,0,15,128
1298.43,0,0,0,31,112
1301.35,0,0,0,15,128
1309.17,0,0,0,31,112
1309.17,0,0,0,15,128
1309.37,0,0,0,47,96
1310.05,0,0,0,31,112
1315.57,0,0,0,39,104
1315.57,0,0,0,7,136
1316.45,0,0,0,15,128
1317.27,0,0,0,23,120
1319.62,0,0,0,15,128
1324.48,0,0,0,7,136
1324.63,0,0,0,15,128
1326.44,0,0,0,31,112
1327.6,0,0,0,23,120
1332.45,0,0,0,39,104
1332.64,0,0,0,31,112
1335.02,0,0,0,63,80
1337.51,0,0,0,55,88
1339.16,0,0,0,71,72
1340.04,0,0,0,87,56
1340.06,0,0,0,95,48
1341.53,0,0,0,79,64
1343.34,0,0,0,87,56
1345.43,0,0,0,71,72
1350.07,0,0,0,63,80
1355.17,0,0,0,55,88
1360.59,0,0,0,47,96
1365.05,0,0,0,31,112
1368.35,0,0,0,23,120
1371.52,0,0,0,39,104
1373.26,0,0,0,7,136
1375.87,0,0,0,15,128
1376.68,0,0,0,31,112
1378.49,0,0,0,23,120
1380.48,0,0,0,31,112
1382.23,0,0,0,23,120
1383.6,0,0,0,31,112
1388.64,0,0,0,39,104
1388.64,0,0,0,7,136
1393.51,0,0,0,15,128
1393.51,0,0,0,7,136
1395.03,0,0,0,23,120
1395.67,0,0,0,7,136
1397.53,0,0,0,39,104
1399.68,0,0,0,7,136
1406.07,0,0,0,15,128
1406.07,0,0,0,7,136
1411.17,0,0,0,15,128
1411.17,0,0,0,7,136
1417.16,0,0,0,15,128
1418.37,0,0,0,47,96
1418.37,0,0,0,31,112
1418.37,0,0,0,23,120
1420.52,0,0,0,7,136
1424.35,0,0,0,15,128
1425.31,0,0,0,7,136
1425.66,0,0,0,23,120
1430.13,0,0,0,55,88
1430.59,0,0,0,39,104
1435.65,0,0,0,31,112
1438.23,0,0,0,39,104
1440.93,0,0,0,31,112
1445.06,0,0,0,15,128
1449.51,0,0,0,23,120
1449.95,0,0,0,15,128
1454.52,0,0,0,31,112
1454.52,0,0,0,15,128
1455.05,0,0,0,31,112
1457.52,0,0,0,39,104
1459.63,0,0,0,31,112
1460.57,0,0,0,47,96
1462.07,0,0,0,55,88
1464.37,0,0,0,47,96
1467.17,0,0,0,55,88
1470.36,0,0,0,47,96
1474.42,0,0,0,39,104
1477.34,0,0,0,55,88
1478.89,0,0,0,63,80
1478.96,0,0,0,55,88
1481.32,0,0,0,63,80
1484.47,0,0,0,47,96
1485.95,0,0,0,63,80
1489.04,0,0,0,47,96
1491.66,0,0,0,55,88
1494.05,0,0,0,23,120
1496.93,0,0,0,31,112
1498.8,0,0,0,23,120
1503.11,0,0,0,15,128
1505.95,0,0,0,23,120
1507.41,0,0,0,7,136
1515.82,0,0,0,39,104
1515.82,0,0,0,31,112
1516.42,0,0,0,15,128
1518.96,0,0,0,31,112
1520.37,0,0,0,39,104
1520.54,0,0,0,47,96
1521.43,0,0,0,39,104
1523.34,0,0,0,55,88
1526.32,0,0,0,39,104
1526.36,0,0,0,47,96
1530.42,0,0,0,55,88
1531.64,0,0,0,47,96
1534.96,0,0,0,55,88
1536.71,0,0,0,47,96
1541.95,0,0,0,39,104
1546.43,0,0,0,55,88
1546.84,0,0,0,23,120
1551.59,0,0,0,7,136
1553.28,0,0,0,23,120
1554.8,0,0,0,31,112
1556.86,0,0,0,47,96
1556.94,0,0,0,31,112
1559.12,0,0,0,39,104
1562.16,0,0,0,31,112
1566.71,0,0,0,23,120
1568.11,0,0,0,55,88
1571.82,0,0,0,63,80
1572.3,0,0,0,55,88
1576.42,0,0,0,47,96
1577.43,0,0,0,55,88
1581.57,0,0,0,71,72
1582.28,0,0,0,55,88
1586.7,0,0,0,39,104
1587.64,0,0,0,47,96
1588,0,0,0,63,80
1590.84,0,0,0,31,112
1592.71,0,0,0,39,104
1595.59,0,0,0,23,120
1597.95,0,0,0,31,112
1600.93,0,0,0,15,128
1616.68,0,0,0,31,112
1616.68,0,0,0,15,128
1616.68,0,0,0,7,136
1618.16,0,0,0,15,128
1618.16,0,0,0,7,136
1619.28,0,0,0,39,104
1619.88,0,0,0,55,88
1620.68,0,0,0,39,104
1625.53,0,0,0,31,112
1628.3,0,0,0,39,104
1630.8,0,0,0,31,112
1632.42,0,0,0,39,104
1635.81,0,0,0,23,120
1636.96,0,0,0,31,112
1640.78,0,0,0,23,120
1641.69,0,0,0,39,104
1644.92,0,0,0,31,112
1646.2,0,0,0,47,96
1646.67,0,0,0,63,80
1649.33,0,0,0,47,96
1650.67,0,0,0,63,80
1654.54,0,0,0,47,96
1659.71,0,0,0,39,104
1664.71,0,0,0,31,112
1669.9,0,0,0,15,128
1672.68,0,0,0,23,120
1673.97,0,0,0,39,104
1674.16,0,0,0,47,96
1674.61,0,0,0,39,104
1679.14,0,0,0,31,112
1681.53,0,0,0,39,104
1684.01,0,0,0,31,112
1684.53,0,0,0,47,96
1685.35,0,0,0,63,80
1686.8,0,0,0,71,72
1688.08,0,0,0,63,80
1692.89,0,0,0,31,112
1696.99,0,0,0,15,128
1699.88,0,0,0,31,112
1700.92,0,0,0,39,104
1702.18,0,0,0,23,120
1707,0,0,0,7,136
1710.16,0,0,0,15,128
1711.62,0,0,0,7,136
1715.71,0,0,0,15,128
1716.78,0,0,0,7,136
1719.06,0,0,0,39,104
1721.32,0,0,0,7,136
1723.57,0,0,0,15,128
1730.48,0,0,0,31,112
1730.48,0,0,0,15,128
1731.69,0,0,0,7,136
1735.14,0,0,0,15,128
1736.83,0,0,0,7,136
1736.98,0,0,0,23,120
1739.85,0,0,0,15,128
1740.01,0,0,0,23,120
1744.08,0,0,0,31,112
1745.27,0,0,0,23,120
1750.04,0,0,0,15,128
1750.38,0,0,0,47,96
1754.69,0,0,0,63,80
1755.04,0,0,0,31,112
1755.39,0,0,0,39,104
1759.91,0,0,0,31,112
1760.46,0,0,0,47,96
1764.08,0,0,0,39,104
1768.05,0,0,0,7,136
1772.78,0,0,0,15,128
1776.98,0,0,0,47,96
1776.98,0,0,0,31,112
1778.81,0,0,0,15,128
1787.69,0,0,0,23,120
1787.69,0,0,0,7,136
1788.42,0,0,0,39,104
1788.42,0,0,0,7,136
1792.83,0,0,0,15,128
1795.85,0,0,0,23,120
1795.85,0,0,0,7,136
1797.88,0,0,0,15,128
1797.88,0,0,0,7,136
1801.28,0,0,0,15,128
1806.04,0,0,0,23,120
1806.04,0,0,0,7,136
1806.96,0,0,0,23,120
1807.45,0,0,0,7,136
1808.79,0,0,0,23,120
1811.7,0,0,0,15,128
1817.39,0,0,0,7,136
1818.78,0,0,0,39,104
1820.08,0,0,0,47,96
1821.46,0,0,0,55,88
1822.65,0,0,0,39,104
1827.52,0,0,0,31,112
1833.01,0,0,0,15,128
1835.88,0,0,0,31,112
1836.02,0,0,0,47,96
1837.17,0,0,0,31,112
1837.43,0,0,0,47,96
1842.49,0,0,0,39,104
1842.9,0,0,0,55,88
1846.85,0,0,0,47,96
1851.99,0,0,0,39,104
1855.66,0,0,0,55,88
1856.25,0,0,0,39,104
1859.13,0,0,0,47,96
1861.79,0,0,0,31,112
1864.81,0,0,0,47,96
1866.87,0,0,0,39,104
1867.15,0,0,0,55,88
1867.7,0,0,0,63,80
1872.01,0,0,0,55,88
1873.39,0,0,0,63,80
1876.01,0,0,0,55,88
1880.76,0,0,0,39,104
1883.53,0,0,0,47,96
1885.64,0,0,0,31,112
1886.24,0,0,0,47,96
1890.74,0,0,0,39,104
1891.94,0,0,0,55,88
1894.74,0,0,0,47,96
1898.49,0,0,0,55,88
1899.78,0,0,0,23,120
1902.85,0,0,0,31,112
1904.5,0,0,0,23,120
1907.99,0,0,0,31,112
1908.82,0,0,0,23,120
1910.75,0,0,0,39,104
1913.6,0,0,0,31,112
1917.86,0,0,0,15,128
1927.8,0,0,0,47,96
1927.8,0,0,0,15,128
1927.8,0,0,0,7,136
1928.01,0,0,0,15,128
1928.79,0,0,0,31,112
1931.34,0,0,0,15,128
1932.01,0,0,0,23,120
1940.87,0,0,0,31,112
1950.74,0,0,0,39,104
1950.74,0,0,0,7,136
1951.75,0,0,0,15,128
1956.56,0,0,0,47,96
1956.56,0,0,0,31,112
1956.56,0,0,0,15,128
1960.5,0,0,0,23,120
1960.5,0,0,0,7,136
1961.48,0,0,0,23,120
1961.48,0,0,0,15,128
1964.82,0,0,0,23,120
1969.6,0,0,0,31,112
1982.45,0,0,0,63,80
1982.45,0,0,0,31,112
1982.45,0,0,0,15,128
1982.45,0,0,0,7,136
1983.8,0,0,0,15,128
1985.91,0,0,0,31,112
1985.91,0,0,0,15,128
1989.28,0,0,0,31,112
1989.28,0,0,0,15,128
2013.72,0,0,0,47,96
2013.72,0,0,0,15,128
2013.72,0,0,0,7,136
2016.41,0,0,0,23,120
2016.41,0,0,0,15,128
2016.41,0,0,0,7,136
2017.06,0,0,0,23,120
2017.06,0,0,0,15,128
2017.06,0,0,0,7,136
2017.48,0,0,0,15,128
2021.21,0,0,0,31,112
2021.21,0,0,0,15,128
2021.72,0,0,0,31,112
2021.72,0,0,0,15,128
2021.72,0,0,0,7,136
2038.45,0,0,0,15,128
2038.45,0,0,0,7,136
2045.1,0,0,0,39,104
2045.1,0,0,0,23,120
2046.4,0,0,0,39,104
2046.4,0,0,0,7,136
2064.72,0,0,0,23,120
2064.72,0,0,0,7,136
2069.72,0,0,0,15,128
2069.72,0,0,0,7,136
2072.41,0,0,0,15,128
2073.06,0,0,0,23,120
2073.06,0,0,0,31,112
2077.72,0,0,0,39,104
2077.72,0,0,0,7,136
2084.74,0,0,0,39,104
2084.74,0,0,0,7,136
2089.52,0,0,0,23,120
2089.52,0,0,0,15,128
2089.52,0,0,0,7,136
2094.45,0,0,0,15,128
2110.35,0,0,0,31,112
2110.35,0,0,0,15,128
2114.22,0,0,0,47,96
2114.22,0,0,0,15,128
2116.06,0,0,0,31,112
2119.47,0,0,0,63,80
2119.47,0,0,0,31,112
2119.47,0,0,0,23,120
2125.72,0,0,0,31,112
2138.97,0,0,0,39,104
2138.97,0,0,0,7,136
2142.89,0,0,0,23,120
2142.89,0,0,0,15,128
2145.52,0,0,0,23,120
2145.52,0,0,0,31,112
2145.52,0,0,0,15,128
2146.35,0,0,0,47,96
2146.35,0,0,0,31,112
2146.35,0,0,0,15,128
2146.35,0,0,0,7,136
2153.55,0,0,0,39,104
2153.55,0,0,0,7,136
2175.47,0,0,0,15,128
2179.63,0,0,0,47,96
2179.63,0,0,0,31,112
2179.63,0,0,0,15,128
2179.63,0,0,0,7,136
2188.22,0,0,0,23,120
2188.22,0,0,0,15,128
2194.09,0,0,0,47,96
2194.09,0,0,0,31,112
2194.09,0,0,0,15,128
2194.09,0,0,0,7,136
2202.35,0,0,0,15,128
2211.26,0,0,0,31,112
2211.26,0,0,0,15,128
2213.18,0,0,0,31,112
2213.18,0,0,0,15,128
2213.18,0,0,0,7,136
2219.14,0,0,0,23,120
2219.14,0,0,0,7,136
2222.05,0,0,0,15,128
2224.07,0,0,0,31,112
2224.07,0,0,0,47,96
2224.07,0,0,0,15,128
2224.07,0,0,0,7,136
2234.95,0,0,0,23,120
2234.95,0,0,0,15,128
2235.63,0,0,0,23,120
2250.09,0,0,0,31,112
2253.66,0,0,0,47,96
2253.66,0,0,0,15,128
2254.99,0,0,0,23,120
2261.75,0,0,0,55,88
2261.75,0,0,0,23,120
2261.75,0,0,0,15,128
2269.18,0,0,0,23,120
2269.18,0,0,0,7,136
2272.21,0,0,0,23,120
2272.21,0,0,0,15,128
2272.21,0,0,0,7,136
2277.58,0,0,0,23,120
2277.58,0,0,0,15,128
2277.58,0,0,0,7,136
2290.47,0,0,0,39,104
2290.47,0,0,0,31,112
2290.47,0,0,0,23,120
2290.47,0,0,0,15,128
2295.52,0,0,0,47,96
2295.52,0,0,0,31,112
2295.52,0,0,0,15,128
2295.52,0,0,0,7,136
2299.17,0,0,0,23,120
2299.17,0,0,0,7,136
2310.84,0,0,0,15,128
2310.84,0,0,0,7,136
2318.87,0,0,0,15,128
2318.87,0,0,0,7,136
2324.69,0,0,0,15,128
2325.51,0,0,0,31,112
2325.51,0,0,0,47,96
2325.51,0,0,0,31,112
2325.51,0,0,0,23,120
2328.21,0,0,0,31,112
2328.21,0,0,0,39,104
2328.21,0,0,0,7,136
2329.15,0,0,0,23,120
2329.15,0,0,0,15,128
2333.58,0,0,0,23,120
2333.58,0,0,0,31,112
2346.47,0,0,0,39,104
2346.47,0,0,0,47,96
2346.47,0,0,0,55,88
2346.47,0,0,0,23,120
2351.52,0,0,0,31,112
2353.24,0,0,0,63,80
2353.24,0,0,0,31,112
2353.24,0,0,0,23,120
2353.24,0,0,0,15,128
2355.49,0,0,0,31,112
2355.49,0,0,0,15,128
2355.49,0,0,0,7,136
2378.76,0,0,0,15,128
2383.2,0,0,0,47,96
2383.2,0,0,0,31,112
2385.15,0,0,0,39,104
2385.15,0,0,0,7,136
2385.48,0,0,0,23,120
2390.06,0,0,0,55,88
2390.06,0,0,0,23,120
2390.06,0,0,0,15,128
2390.06,0,0,0,7,136
2407.79,0,0,0,15,128
2409.24,0,0,0,23,120
2409.24,0,0,0,31,112
2409.24,0,0,0,15,128
2409.24,0,0,0,7,136
2411.49,0,0,0,15,128
2422.65,0,0,0,47,96
2422.66,0,0,0,31,112
2422.66,0,0,0,15,128
2426.13,0,0,0,47,96
2426.13,0,0,0,15,128
2426.13,0,0,0,7,136
2439.41,0,0,0,15,128
2446.06,0,0,0,23,120
2446.06,0,0,0,31,112
2446.06,0,0,0,15,128
2446.06,0,0,0,7,136
2449.72,0,0,0,23,120
2457.53,0,0,0,55,88
2457.53,0,0,0,23,120
2457.53,0,0,0,15,128
2463.73,0,0,0,31,112
2463.73,0,0,0,15,128
2465.24,0,0,0,23,120
2465.24,0,0,0,7,136
2471.16,0,0,0,23,120
2471.16,0,0,0,15,128
2473.04,0,0,0,47,96
2473.04,0,0,0,31,112
2473.04,0,0,0,23,120
2473.04,0,0,0,15,128
2480.4,0,0,0,31,112
2482.13,0,0,0,39,104
2482.13,0,0,0,7,136
2494.78,0,0,0,23,120
2494.78,0,0,0,15,128
2494.78,0,0,0,7,136
2495.23,0,0,0,23,120
2502.06,0,0,0,31,112
2503.03,0,0,0,47,96
2503.03,0,0,0,15,128
2511.76,0,0,0,47,96
2511.76,0,0,0,15,128
2511.76,0,0,0,7,136
2513.53,0,0,0,15,128
2518.73,0,0,0,31,112
2518.73,0,0,0,15,128
2518.73,0,0,0,7,136
2529.04,0,0,0,15,128
2529.04,0,0,0,23,120
2529.04,0,0,0,15,128
2535.51,0,0,0,47,96
2535.51,0,0,0,31,112
2540.47,0,0,0,63,80
2540.47,0,0,0,31,112
2540.47,0,0,0,15,128
2548.72,0,0,0,31,112
2548.72,0,0,0,15,128
2550.78,0,0,0,23,120
2556.62,0,0,0,31,112
2561.53,0,0,0,39,104
2561.53,0,0,0,7,136
2562.11,0,0,0,39,104
2562.11,0,0,0,31,112
2565.5,0,0,0,47,96
2565.5,0,0,0,15,128
2567.76,0,0,0,23,120
2567.76,0,0,0,7,136
2570.45,0,0,0,23,120
2570.45,0,0,0,15,128
2570.45,0,0,0,7,136
2578.7,0,0,0,23,120
2578.7,0,0,0,7,136
2585.05,0,0,0,15,128
2591.58,0,0,0,47,96
2591.58,0,0,0,31,112
2591.58,0,0,0,23,120
2591.58,0,0,0,7,136
2597.99,0,0,0,39,104
2597.99,0,0,0,23,120
2597.99,0,0,0,15,128
2597.99,0,0,0,7,136
2606.46,0,0,0,15,128
2608.69,0,0,0,31,112
2615.96,0,0,0,47,96
2615.96,0,0,0,15,128
2615.96,0,0,0,7,136
2618.11,0,0,0,15,128
2618.11,0,0,0,7,136
2623.51,0,0,0,23,120
2626.45,0,0,0,31,112
2626.45,0,0,0,39,104
2626.45,0,0,0,7,136
2627.98,0,0,0,23,120
2627.98,0,0,0,7,136
2636.09,0,0,0,23,120
2636.09,0,0,0,15,128
2636.09,0,0,0,7,136
2641.35,0,0,0,39,104
2641.35,0,0,0,31,112
2641.35,0,0,0,23,120
2647.58,0,0,0,31,112
2649.28,0,0,0,63,80
2649.28,0,0,0,31,112
2649.28,0,0,0,23,120
2653.99,0,0,0,31,112
2653.99,0,0,0,39,104
2653.99,0,0,0,7,136
2657.96,0,0,0,23,120
2657.96,0,0,0,15,128
2657.96,0,0,0,7,136
2671.96,0,0,0,15,128
2671.96,0,0,0,7,136
2674.11,0,0,0,15,128
2675.04,0,0,0,47,96
2675.04,0,0,0,31,112
2675.04,0,0,0,15,128
2675.04,0,0,0,7,136
2681.13,0,0,0,39,104
2681.13,0,0,0,31,112
2681.13,0,0,0,23,120
2681.13,0,0,0,7,136
2692.09,0,0,0,15,128
2692.09,0,0,0,7,136
2697.35,0,0,0,15,128
2697.35,0,0,0,23,120
2697.35,0,0,0,15,128
2704.75,0,0,0,23,120
2704.75,0,0,0,7,136
2705.02,0,0,0,23,120
2705.02,0,0,0,15,128
2706.72,0,0,0,31,112
2706.72,0,0,0,15,128
2706.72,0,0,0,7,136
2711.12,0,0,0,23,120
2711.12,0,0,0,7,136
2713.96,0,0,0,15,128
2713.96,0,0,0,23,120
2713.96,0,0,0,15,128
2714.17,0,0,0,23,120
2727.97,0,0,0,31,112
2731.04,0,0,0,39,104
2731.04,0,0,0,7,136
2737.13,0,0,0,15,128
2737.13,0,0,0,23,120
2737.13,0,0,0,15,128
2737.13,0,0,0,7,136
2737.38,0,0,0,23,120
2737.38,0,0,0,15,128
2737.88,0,0,0,31,112
2737.88,0,0,0,15,128
2737.88,0,0,0,7,136
2741.1,0,0,0,23,120
2741.1,0,0,0,15,128
2741.1,0,0,0,7,136
2748.1,0,0,0,15,128
2753.36,0,0,0,23,120
2753.88,0,0,0,55,88
2753.88,0,0,0,23,120
2753.88,0,0,0,15,128
2753.88,0,0,0,7,136
2761.02,0,0,0,15,128
2761.02,0,0,0,7,136
2762.73,0,0,0,15,128
2762.73,0,0,0,7,136
2769.96,0,0,0,15,128
2769.96,0,0,0,7,136
2777.03,0,0,0,23,120
2777.03,0,0,0,15,128
2777.11,0,0,0,47,96
2777.11,0,0,0,31,112
2777.11,0,0,0,23,120
2777.11,0,0,0,15,128
2777.11,0,0,0,7,136
2793.13,0,0,0,15,128
2793.13,0,0,0,23,120
2793.14,0,0,0,15,128
2793.38,0,0,0,23,120
2793.38,0,0,0,7,136
2797.1,0,0,0,15,128
2797.1,0,0,0,23,120
2805.55,0,0,0,31,112
2809.88,0,0,0,39,104
2809.88,0,0,0,47,96
2809.88,0,0,0,15,128
2811.89,0,0,0,31,112
2811.89,0,0,0,15,128
2811.89,0,0,0,7,136
2817.02,0,0,0,15,128
2818.73,0,0,0,23,120
2818.73,0,0,0,7,136
2825.97,0,0,0,15,128
2825.97,0,0,0,7,136
2830.66,0,0,0,39,104
2830.66,0,0,0,31,112
2830.66,0,0,0,23,120
2830.66,0,0,0,7,136
2833.11,0,0,0,15,128
2833.11,0,0,0,23,120
2833.11,0,0,0,15,128
2833.11,0,0,0,7,136
2837.7,0,0,0,15,128
2838.8,0,0,0,31,112
2838.8,0,0,0,15,128
2838.8,0,0,0,7,136
2849.14,0,0,0,15,128
2855.36,0,0,0,23,120
2860.65,0,0,0,39,104
2860.65,0,0,0,7,136
2862.26,0,0,0,23,120
2862.26,0,0,0,15,128
2867.9,0,0,0,23,120
2867.9,0,0,0,7,136
2871.65,0,0,0,23,120
2871.65,0,0,0,15,128
2871.65,0,0,0,7,136
2881.97,0,0,0,15,128
2881.97,0,0,0,7,136
2883.21,0,0,0,23,120
2883.21,0,0,0,15,128
2886.67,0,0,0,23,120
2888.81,0,0,0,55,88
2888.81,0,0,0,23,120
2888.81,0,0,0,7,136
2889.11,0,0,0,15,128
2889.11,0,0,0,23,120
2889.11,0,0,0,15,128
2899.29,0,0,0,23,120
2899.29,0,0,0,7,136
2906.31,0,0,0,15,128
2906.31,0,0,0,7,136
2912.9,0,0,0,39,104
2912.9,0,0,0,31,112
2915.23,0,0,0,47,96
2915.23,0,0,0,15,128
2915.23,0,0,0,7,136
2918.26,0,0,0,15,128
2918.8,0,0,0,31,112
2918.8,0,0,0,15,128
2918.8,0,0,0,7,136
2927.65,0,0,0,15,128
2927.65,0,0,0,23,120
2927.65,0,0,0,7,136
2937.97,0,0,0,15,128
2939.21,0,0,0,23,120
2941.9,0,0,0,55,88
2941.9,0,0,0,23,120
2943.95,0,0,0,39,104
2943.95,0,0,0,7,136
2945.12,0,0,0,15,128
2945.12,0,0,0,7,136
2966.26,0,0,0,39,104
2966.26,0,0,0,31,112
2966.26,0,0,0,23,120
2966.26,0,0,0,15,128
2971.23,0,0,0,23,120
2971.23,0,0,0,7,136
2971.27,0,0,0,23,120
2971.27,0,0,0,15,128
2971.27,0,0,0,7,136
2972.41,0,0,0,15,128
2972.41,0,0,0,7,136
2974.8,0,0,0,15,128
2974.8,0,0,0,7,136
2976.09,0,0,0,39,104
2976.09,0,0,0,23,120
2976.11,0,0,0,15,128
2983.49,0,0,0,31,112
2983.49,0,0,0,15,128
2998.82,0,0,0,23,120
2998.82,0,0,0,7,136
3001.12,0,0,0,15,128
3001.12,0,0,0,7,136
3001.21,0,0,0,23,120
3001.21,0,0,0,15,128
3001.21,0,0,0,7,136
3006.08,0,0,0,23,120
3006.08,0,0,0,7,136
3016.47,0,0,0,23,120
3016.47,0,0,0,15,128
3016.47,0,0,0,7,136
3022.26,0,0,0,15,128
3022.26,0,0,0,23,120
3022.26,0,0,0,15,128
3022.26,0,0,0,7,136
3027.27,0,0,0,15,128
3027.27,0,0,0,23,120
3027.27,0,0,0,15,128
3028.41,0,0,0,23,120
3028.52,0,0,0,31,112
3030.8,0,0,0,39,104
3030.8,0,0,0,7,136
3030.9,0,0,0,23,120
3032.11,0,0,0,31,112
3035.12,0,0,0,23,120
3036.06,0,0,0,39,104
3040.03,0,0,0,31,112
3044.35,0,0,0,23,120
3049.39,0,0,0,15,128
3050.11,0,0,0,47,96
3054.29,0,0,0,39,104
3057.12,0,0,0,47,96
3057.21,0,0,0,55,88
3057.21,0,0,0,63,80
3058.8,0,0,0,31,112
3064.01,0,0,0,15,128
3072.47,0,0,0,23,120
3072.47,0,0,0,31,112
3078.26,0,0,0,39,104
3078.26,0,0,0,47,96
3078.26,0,0,0,15,128
3078.26,0,0,0,7,136
3078.59,0,0,0,39,104
3079.16,0,0,0,31,112
3083.27,0,0,0,39,104
3083.53,0,0,0,31,112
3093.44,0,0,0,39,104
3093.44,0,0,0,7,136
3094,0,0,0,23,120
3094,0,0,0,15,128
3096.04,0,0,0,23,120
3098.24,0,0,0,15,128
3100.36,0,0,0,23,120
3100.74,0,0,0,55,88
3102.52,0,0,0,47,96
3105.39,0,0,0,55,88
3107.23,0,0,0,39,104
3110.29,0,0,0,47,96
3112,0,0,0,39,104
3116.13,0,0,0,71,72
3116.25,0,0,0,63,80
3120.92,0,0,0,31,112
3126.04,0,0,0,15,128
3131.17,0,0,0,7,136
3134.26,0,0,0,15,128
3135.16,0,0,0,23,120
3135.42,0,0,0,7,136
3139.53,0,0,0,15,128
3149.3,0,0,0,47,96
3149.3,0,0,0,31,112
3150,0,0,0,39,104
3150,0,0,0,7,136
3152.29,0,0,0,23,120
3152.29,0,0,0,15,128
3153.82,0,0,0,7,136
3154.24,0,0,0,15,128
3158.52,0,0,0,23,120
3158.56,0,0,0,15,128
3167.36,0,0,0,31,112
3167.36,0,0,0,15,128
3168,0,0,0,23,120
3168,0,0,0,7,136
3180.68,0,0,0,39,104
3180.68,0,0,0,23,120
3180.68,0,0,0,15,128
3187.17,0,0,0,23,120
3187.17,0,0,0,7,136
3194.37,0,0,0,23,120
3194.37,0,0,0,7,136
3197.13,0,0,0,23,120
3197.13,0,0,0,7,136
3205.87,0,0,0,23,120
3205.87,0,0,0,15,128
3205.87,0,0,0,7,136
3207.26,0,0,0,15,128
3208.29,0,0,0,23,120
3208.29,0,0,0,7,136
3209.82,0,0,0,15,128
3214.56,0,0,0,23,120
3217.15,0,0,0,39,104
3217.15,0,0,0,7,136
3229.7,0,0,0,23,120
3229.7,0,0,0,15,128
3229.7,0,0,0,7,136
3236.68,0,0,0,15,128
3236.68,0,0,0,7,136
3241.49,0,0,0,23,120
3252.82,0,0,0,55,88
3252.82,0,0,0,23,120
3257.83,0,0,0,39,104
3257.83,0,0,0,7,136
3259.79,0,0,0,23,120
3259.79,0,0,0,15,128
3261.87,0,0,0,23,120
3261.87,0,0,0,7,136
3269.47,0,0,0,15,128
3269.47,0,0,0,7,136
3272.91,0,0,0,23,120
3272.91,0,0,0,15,128
3285.7,0,0,0,23,120
3285.7,0,0,0,31,112
3285.7,0,0,0,15,128
3285.7,0,0,0,7,136
3286.35,0,0,0,39,104
3286.35,0,0,0,31,112
3286.35,0,0,0,23,120
3290.76,0,0,0,55,88
3290.76,0,0,0,23,120
3290.76,0,0,0,15,128
3292.68,0,0,0,23,120
3292.68,0,0,0,7,136
3315.79,0,0,0,15,128
3319.68,0,0,0,31,112
3322.46,0,0,0,63,80
3322.46,0,0,0,31,112
3322.46,0,0,0,15,128
3328.91,0,0,0,23,120
3332.64,0,0,0,39,104
3332.64,0,0,0,7,136
3336.62,0,0,0,15,128
3337.95,0,0,0,31,112
3341.71,0,0,0,39,104
3341.71,0,0,0,7,136
3342.35,0,0,0,15,128
3342.35,0,0,0,23,120
3342.35,0,0,0,15,128
3342.35,0,0,0,7,136
3346.76,0,0,0,15,128
3346.76,0,0,0,7,136
3353.02,0,0,0,39,104
3353.02,0,0,0,31,112
3353.02,0,0,0,15,128
3361.3,0,0,0,31,112
3361.3,0,0,0,15,128
3366.43,0,0,0,47,96
3366.43,0,0,0,31,112
3366.43,0,0,0,23,120
3366.43,0,0,0,15,128
3366.43,0,0,0,7,136
3376.67,0,0,0,39,104
3376.67,0,0,0,31,112
3376.67,0,0,0,15,128
3376.67,0,0,0,7,136
3398.35,0,0,0,15,128
3398.35,0,0,0,23,120
3398.35,0,0,0,7,136
3402.76,0,0,0,15,128
3402.76,0,0,0,7,136
3409.02,0,0,0,15,128
3409.02,0,0,0,7,136
3409.07,0,0,0,23,120
3409.5,0,0,0,39,104
3409.5,0,0,0,7,136
3422.1,0,0,0,23,120
3422.1,0,0,0,15,128
3422.1,0,0,0,7,136
3422.43,0,0,0,15,128
3422.43,0,0,0,23,120
3422.43,0,0,0,31,112
3422.43,0,0,0,23,120
3422.43,0,0,0,7,136
3432.67,0,0,0,15,128
3432.67,0,0,0,7,136
3438.59,0,0,0,23,120
3438.59,0,0,0,7,136
3445.39,0,0,0,39,104
3445.39,0,0,0,31,112
3445.39,0,0,0,23,120
3445.39,0,0,0,7,136
3452.42,0,0,0,23,120
3458.76,0,0,0,31,112
3463.64,0,0,0,47,96
3463.64,0,0,0,15,128
3463.64,0,0,0,7,136
3465.02,0,0,0,15,128
3478.1,0,0,0,23,120
3478.1,0,0,0,7,136
3478.43,0,0,0,15,128
3478.43,0,0,0,7,136
3488.67,0,0,0,15,128
3496.62,0,0,0,23,120
3496.62,0,0,0,7,136
3501.24,0,0,0,39,104
3501.24,0,0,0,31,112
3501.24,0,0,0,23,120
3501.24,0,0,0,15,128
3501.24,0,0,0,7,136
3501.39,0,0,0,15,128
3501.39,0,0,0,23,120
3501.39,0,0,0,15,128
3503.84,0,0,0,31,112
3503.84,0,0,0,15,128
3503.84,0,0,0,7,136
3510.57,0,0,0,23,120
3510.57,0,0,0,15,128
3519.65,0,0,0,23,120
3519.65,0,0,0,7,136
3526.16,0,0,0,15,128
3534.43,0,0,0,23,120
3534.43,0,0,0,7,136
3536.03,0,0,0,23,120
3545.62,0,0,0,39,104
3545.62,0,0,0,7,136
3548.19,0,0,0,23,120
3548.19,0,0,0,15,128
3548.19,0,0,0,7,136
3557.25,0,0,0,15,128
3557.25,0,0,0,23,120
3557.25,0,0,0,31,112
3557.25,0,0,0,39,104
3557.25,0,0,0,31,112
3557.27,0,0,0,47,96
3557.27,0,0,0,15,128
3557.27,0,0,0,7,136
3557.4,0,0,0,15,128
3557.4,0,0,0,7,136
3566.57,0,0,0,15,128
3566.57,0,0,0,7,136
3568.33,0,0,0,23,120
3568.33,0,0,0,15,128
3572.61,0,0,0,47,96
3572.61,0,0,0,31,112
3573.8,0,0,0,39,104
3573.8,0,0,0,7,136
3587.92,0,0,0,39,104
3587.92,0,0,0,7,136
3604.2,0,0,0,15,128
3604.2,0,0,0,23,120
3604.2,0,0,0,7,136
3606.78,0,0,0,39,104
3606.78,0,0,0,31,112
3606.78,0,0,0,15,128
3606.78,0,0,0,7,136
3613.25,0,0,0,15,128
3613.25,0,0,0,7,136
3613.28,0,0,0,15,128
3613.4,0,0,0,23,120
3613.4,0,0,0,7,136
3616.87,0,0,0,23,120
3616.87,0,0,0,15,128
3618.25,0,0,0,47,96
3618.25,0,0,0,31,112
3618.25,0,0,0,23,120
3618.25,0,0,0,15,128
3618.25,0,0,0,7,136
3622.57,0,0,0,15,128
3639.33,0,0,0,31,112
3639.33,0,0,0,15,128
3639.33,0,0,0,7,136
3646.98,0,0,0,15,128
3646.98,0,0,0,7,136
3653.86,0,0,0,23,120
3653.86,0,0,0,15,128
3658.14,0,0,0,31,112
3658.14,0,0,0,15,128
3662.78,0,0,0,23,120
3662.78,0,0,0,31,112
3666.96,0,0,0,47,96
3666.96,0,0,0,15,128
3666.96,0,0,0,7,136
3669.25,0,0,0,15,128
3672.87,0,0,0,23,120
3674.25,0,0,0,31,112
3674.25,0,0,0,39,104
3674.25,0,0,0,47,96
3674.26,0,0,0,15,128
3674.26,0,0,0,7,136
3690.17,0,0,0,23,120
3690.17,0,0,0,15,128
3690.17,0,0,0,7,136
3699.6,0,0,0,15,128
3699.6,0,0,0,7,136
3703.16,0,0,0,39,104
3703.16,0,0,0,23,120
3706.17,0,0,0,55,88
3706.17,0,0,0,23,120
3706.17,0,0,0,7,136
3709.86,0,0,0,15,128
3709.86,0,0,0,7,136
3721.81,0,0,0,23,120
3722.96,0,0,0,31,112
3728.41,0,0,0,39,104
3728.41,0,0,0,7,136
3730.26,0,0,0,15,128
3730.26,0,0,0,7,136
3736.15,0,0,0,23,120
3736.15,0,0,0,7,136
3737.48,0,0,0,39,104
3737.48,0,0,0,31,112
3737.48,0,0,0,23,120
3737.48,0,0,0,7,136
3746.17,0,0,0,15,128
3746.17,0,0,0,23,120
3746.17,0,0,0,7,136
3758.28,0,0,0,15,128
3762.14,0,0,0,47,96
3762.14,0,0,0,31,112
3762.14,0,0,0,23,120
3762.14,0,0,0,15,128
3762.14,0,0,0,7,136
3764.98,0,0,0,23,120
3764.98,0,0,0,7,136
3765.86,0,0,0,15,128
3765.86,0,0,0,7,136
3766.14,0,0,0,23,120
3766.14,0,0,0,15,128
3786.26,0,0,0,23,120
3786.26,0,0,0,7,136
3793.48,0,0,0,15,128
3793.48,0,0,0,23,120
3801.86,0,0,0,39,104
3801.86,0,0,0,7,136
3813.46,0,0,0,23,120
3813.46,0,0,0,15,128
3813.46,0,0,0,7,136
3816.24,0,0,0,23,120
3816.24,0,0,0,15,128
3816.24,0,0,0,7,136
3818.14,0,0,0,15,128
3818.14,0,0,0,7,136
3818.65,0,0,0,15,128
3821.86,0,0,0,23,120
3822.14,0,0,0,31,112
3828.29,0,0,0,47,96
3828.29,0,0,0,15,128
3828.29,0,0,0,7,136
3831.33,0,0,0,23,120
3831.33,0,0,0,15,128
3836.99,0,0,0,47,96
3836.99,0,0,0,31,112
3836.99,0,0,0,15,128
3852.56,0,0,0,23,120
3853.32,0,0,0,55,88
3853.32,0,0,0,23,120
3853.32,0,0,0,7,136
3866.98,0,0,0,23,120
3866.98,0,0,0,39,104
3866.98,0,0,0,23,120
3866.98,0,0,0,7,136
3869.46,0,0,0,15,128
3869.46,0,0,0,23,120
3869.46,0,0,0,15,128
3869.46,0,0,0,7,136
3872.24,0,0,0,15,128
3872.24,0,0,0,23,120
3872.24,0,0,0,7,136
3874.14,0,0,0,15,128
3874.14,0,0,0,7,136
3874.54,0,0,0,39,104
3874.54,0,0,0,23,120
3883.31,0,0,0,39,104
3883.31,0,0,0,7,136
3884.29,0,0,0,15,128
3884.29,0,0,0,7,136
3896.96,0,0,0,23,120
3896.96,0,0,0,39,104
3896.96,0,0,0,23,120
3896.96,0,0,0,15,128
3901.53,0,0,0,47,96
3901.53,0,0,0,31,112
3901.53,0,0,0,23,120
3902.23,0,0,0,39,104
3902.23,0,0,0,7,136
3903.1,0,0,0,15,128
3903.1,0,0,0,7,136
3904.52,0,0,0,23,120
3904.52,0,0,0,15,128
3922.56,0,0,0,47,96
3922.56,0,0,0,15,128
3922.56,0,0,0,7,136
3925.46,0,0,0,15,128
3925.46,0,0,0,23,120
3925.46,0,0,0,15,128
3926.95,0,0,0,31,112
3926.95,0,0,0,15,128
3926.95,0,0,0,7,136
3930.14,0,0,0,15,128
3931.52,0,0,0,31,112
3940.29,0,0,0,39,104
3940.29,0,0,0,7,136
3944.33,0,0,0,39,104
3944.33,0,0,0,31,112
3944.33,0,0,0,15,128
3952.96,0,0,0,23,120
3952.96,0,0,0,7,136
3956.93,0,0,0,23,120
3956.93,0,0,0,15,128
3956.93,0,0,0,7,136
3960.52,0,0,0,15,128
3966.91,0,0,0,47,96
3966.91,0,0,0,15,128
3970.9,0,0,0,23,120
3970.9,0,0,0,7,136
3978.56,0,0,0,15,128
3978.78,0,0,0,31,112
3980.99,0,0,0,39,104
3980.99,0,0,0,7,136
3981.46,0,0,0,15,128
3981.46,0,0,0,7,136
3982.95,0,0,0,15,128
4000.33,0,0,0,23,120
4000.33,0,0,0,7,136
4003.35,0,0,0,39,104
4003.35,0,0,0,31,112
4003.35,0,0,0,15,128
4012.93,0,0,0,23,120
4012.93,0,0,0,31,112
4012.93,0,0,0,15,128
4016.03,0,0,0,31,112
4016.03,0,0,0,15,128
4017.11,0,0,0,47,96
4017.11,0,0,0,15,128
4017.11,0,0,0,7,136
4033.34,0,0,0,23,120
4033.34,0,0,0,7,136
4033.93,0,0,0,23,120
4037.47,0,0,0,31,112
4038.53,0,0,0,47,96
4038.53,0,0,0,15,128
4042.92,0,0,0,31,112
4046.28,0,0,0,63,80
4046.28,0,0,0,31,112
4046.28,0,0,0,23,120
4046.28,0,0,0,7,136
4059.36,0,0,0,15,128
4059.36,0,0,0,7,136
4060.84,0,0,0,23,120
4060.84,0,0,0,15,128
4063.33,0,0,0,31,112
4069.79,0,0,0,63,80
4069.79,0,0,0,31,112
4069.79,0,0,0,23,120
4069.79,0,0,0,15,128
4073.11,0,0,0,23,120
4073.11,0,0,0,7,136
4076.26,0,0,0,23,120
4076.26,0,0,0,15,128
4076.26,0,0,0,7,136
4078.46,0,0,0,39,104
4078.46,0,0,0,23,120
4078.46,0,0,0,15,128
4092.92,0,0,0,47,96
4092.92,0,0,0,15,128
4103.1,0,0,0,31,112
4108.45,0,0,0,47,96
4108.45,0,0,0,15,128
4109.11,0,0,0,23,120
4109.11,0,0,0,7,136
4115.36,0,0,0,15,128
4115.7,0,0,0,47,96
4115.7,0,0,0,15,128
4116.85,0,0,0,23,120
4116.85,0,0,0,7,136
4125.79,0,0,0,15,128
4125.79,0,0,0,23,120
4125.79,0,0,0,7,136
4132.26,0,0,0,15,128
4132.26,0,0,0,23,120
4132.26,0,0,0,15,128
4132.26,0,0,0,7,136
4141.07,0,0,0,39,104
4141.07,0,0,0,23,120
4141.07,0,0,0,15,128
4143.82,0,0,0,47,96
4143.82,0,0,0,31,112
4143.82,0,0,0,23,120
4143.82,0,0,0,15,128
4143.82,0,0,0,7,136
4146.83,0,0,0,23,120
4146.83,0,0,0,15,128
4150.64,0,0,0,31,112
4154.46,0,0,0,39,104
4154.46,0,0,0,7,136
4171.06,0,0,0,23,120
4173.04,0,0,0,39,104
4173.05,0,0,0,7,136
4173.8,0,0,0,23,120
4181.24,0,0,0,55,88
4181.24,0,0,0,23,120
4181.24,0,0,0,15,128
4181.24,0,0,0,7,136
4188.26,0,0,0,15,128
4188.26,0,0,0,23,120
4188.26,0,0,0,15,128
4197.07,0,0,0,23,120
4199.82,0,0,0,31,112
4199.82,0,0,0,39,104
4199.82,0,0,0,7,136
4202.83,0,0,0,15,128
4207.18,0,0,0,47,96
4207.18,0,0,0,31,112
4207.18,0,0,0,23,120
4215.26,0,0,0,55,88
4215.26,0,0,0,23,120
4215.26,0,0,0,15,128
4232.56,0,0,0,47,96
4232.56,0,0,0,31,112
4232.56,0,0,0,23,120
4232.56,0,0,0,7,136
4237.16,0,0,0,23,120
4237.24,0,0,0,31,112
4238.07,0,0,0,39,104
4238.07,0,0,0,7,136
4243.27,0,0,0,15,128
4243.27,0,0,0,7,136
4244.26,0,0,0,15,128
4244.26,0,0,0,7,136
4247.02,0,0,0,39,104
4247.02,0,0,0,23,120
4247.02,0,0,0,15,128
4247.02,0,0,0,7,136
4260,0,0,0,39,104
4260,0,0,0,23,120
4260,0,0,0,7,136
4262.55,0,0,0,23,120
4262.55,0,0,0,15,128
4262.55,0,0,0,7,136
4263.18,0,0,0,15,128
4269.99,0,0,0,31,112
4277,0,0,0,47,96
4277,0,0,0,15,128
4288.56,0,0,0,23,120
4288.56,0,0,0,7,136
4289.66,0,0,0,15,128
4289.66,0,0,0,7,136
4289.99,0,0,0,23,120
4298.87,0,0,0,39,104
4298.87,0,0,0,7,136
4299.81,0,0,0,15,128
4299.81,0,0,0,7,136
4300.27,0,0,0,15,128
4300.27,0,0,0,7,136
4302.2,0,0,0,39,104
4302.2,0,0,0,23,120
4302.2,0,0,0,7,136
4303.02,0,0,0,15,128
4303.02,0,0,0,23,120
4303.02,0,0,0,7,136
4317.51,0,0,0,39,104
4317.51,0,0,0,7,136
4318.55,0,0,0,23,120
4318.55,0,0,0,15,128
4318.55,0,0,0,23,120
4318.55,0,0,0,31,112
4332.19,0,0,0,47,96
4332.19,0,0,0,63,80
4332.19,0,0,0,31,112
4332.19,0,0,0,23,120
4332.19,0,0,0,7,136
4333,0,0,0,23,120
4336.5,0,0,0,55,88
4336.5,0,0,0,23,120
4336.5,0,0,0,15,128
4356.2,0,0,0,23,120
4356.2,0,0,0,7,136
4356.27,0,0,0,15,128
4359.95,0,0,0,23,120
4359.95,0,0,0,7,136
4362.17,0,0,0,23,120
4362.17,0,0,0,7,136
4362.92,0,0,0,39,104
4362.92,0,0,0,31,112
4362.92,0,0,0,23,120
4362.92,0,0,0,15,128
4362.92,0,0,0,7,136
4365.63,0,0,0,39,104
4366.16,0,0,0,31,112
4371.41,0,0,0,23,120
4374.55,0,0,0,31,112
4388.19,0,0,0,39,104
4388.19,0,0,0,7,136
4392.16,0,0,0,23,120
4392.5,0,0,0,31,112
4393.64,0,0,0,47,96
4393.64,0,0,0,15,128
4393.64,0,0,0,7,136
4405.14,0,0,0,23,120
4405.14,0,0,0,15,128
4418.92,0,0,0,23,120
4418.92,0,0,0,31,112
4418.92,0,0,0,39,104
4418.92,0,0,0,47,96
4418.92,0,0,0,31,112
4418.92,0,0,0,15,128
4419.26,0,0,0,47,96
4419.26,0,0,0,15,128
4422.16,0,0,0,23,120
4424.31,0,0,0,55,88
4424.31,0,0,0,23,120
4424.31,0,0,0,15,128
4427.41,0,0,0,23,120
4427.41,0,0,0,7,136
4448.9,0,0,0,23,120
4448.9,0,0,0,39,104
4448.9,0,0,0,7,136
4449.64,0,0,0,15,128
4449.64,0,0,0,7,136
4451.27,0,0,0,39,104
4451.27,0,0,0,7,136
4459.36,0,0,0,39,104
4459.36,0,0,0,31,112
4459.36,0,0,0,23,120
4459.36,0,0,0,15,128
4480.31,0,0,0,23,120
4484.73,0,0,0,39,104
4484.73,0,0,0,7,136
4486.57,0,0,0,39,104
4486.57,0,0,0,7,136
4488.51,0,0,0,39,104
4488.51,0,0,0,23,120
4488.51,0,0,0,15,128
4488.51,0,0,0,7,136
4492.46,0,0,0,15,128
4492.46,0,0,0,7,136
4505.65,0,0,0,15,128
4505.65,0,0,0,7,136
4515.37,0,0,0,15,128
4515.37,0,0,0,23,120
4516.35,0,0,0,31,112
4519.66,0,0,0,63,80
4519.66,0,0,0,31,112
4519.66,0,0,0,23,120
4519.66,0,0,0,15,128
4522.01,0,0,0,47,96
4522.01,0,0,0,31,112
4522.01,0,0,0,23,120
4522.01,0,0,0,15,128
4522.01,0,0,0,7,136
4544.51,0,0,0,15,128
4544.51,0,0,0,23,120
4544.51,0,0,0,7,136
4545.44,0,0,0,39,104
4545.44,0,0,0,31,112
4545.44,0,0,0,23,120
4545.44,0,0,0,15,128
4546.11,0,0,0,31,112
4546.11,0,0,0,15,128
4548.35,0,0,0,7,136
4551.99,0,0,0,23,120
4553.04,0,0,0,15,128
4554.57,0,0,0,23,120
4557.56,0,0,0,15,128
4561.65,0,0,0,23,120
4562.19,0,0,0,15,128
4565.84,0,0,0,7,136
4574.5,0,0,0,23,120
4574.5,0,0,0,7,136
4575.66,0,0,0,15,128
4575.66,0,0,0,23,120
4576.09,0,0,0,39,104
4576.09,0,0,0,7,136
4578.01,0,0,0,15,128
4578.01,0,0,0,23,120
4578.01,0,0,0,31,112
4578.01,0,0,0,15,128
4596.48,0,0,0,47,96
4596.48,0,0,0,31,112
4596.48,0,0,0,15,128
4601.44,0,0,0,23,120
4601.44,0,0,0,31,112
4601.44,0,0,0,39,104
4601.44,0,0,0,7,136
4604.48,0,0,0,23,120
4604.48,0,0,0,15,128
4604.48,0,0,0,7,136
4607.99,0,0,0,23,120
4609.04,0,0,0,31,112
4609.18,0,0,0,39,104
4609.18,0,0,0,7,136
4613.56,0,0,0,15,128
4621.84,0,0,0,23,120
4626.47,0,0,0,39,104
4626.47,0,0,0,7,136
4631.21,0,0,0,15,128
4636.72,0,0,0,47,96
4636.72,0,0,0,31,112
4636.72,0,0,0,15,128
4647.81,0,0,0,47,96
4647.81,0,0,0,31,112
4647.81,0,0,0,23,120
4647.81,0,0,0,7,136
4655.96,0,0,0,23,120
4655.96,0,0,0,7,136
4658.19,0,0,0,39,104
4658.19,0,0,0,31,112
4658.19,0,0,0,23,120
4660.48,0,0,0,31,112
4660.48,0,0,0,39,104
4660.48,0,0,0,7,136
4666.7,0,0,0,23,120
4692.02,0,0,0,39,104
4692.02,0,0,0,7,136
4692.06,0,0,0,23,120
4692.06,0,0,0,15,128
4692.06,0,0,0,7,136
4692.08,0,0,0,39,104
4692.08,0,0,0,23,120
4692.08,0,0,0,7,136
4696.6,0,0,0,23,120
4696.6,0,0,0,15,128
4698.95,0,0,0,31,112
4698.95,0,0,0,15,128
4698.95,0,0,0,7,136
4703.82,0,0,0,15,128
4714.19,0,0,0,23,120
4714.19,0,0,0,31,112
4716.51,0,0,0,63,80
4716.51,0,0,0,31,112
4716.51,0,0,0,23,120
4716.51,0,0,0,15,128
4722.06,0,0,0,31,112
4722.06,0,0,0,47,96
4722.06,0,0,0,15,128
4738.42,0,0,0,47,96
4738.42,0,0,0,31,112
4741.74,0,0,0,47,96
4741.74,0,0,0,15,128
4741.74,0,0,0,7,136
4743.51,0,0,0,39,104
4743.51,0,0,0,23,120
4743.51,0,0,0,7,136
4748.06,0,0,0,15,128
4748.06,0,0,0,23,120
4748.06,0,0,0,7,136
4754.95,0,0,0,15,128
4754.95,0,0,0,7,136
4758.49,0,0,0,15,128
4758.49,0,0,0,7,136
4765.97,0,0,0,39,104
4765.97,0,0,0,23,120
4765.97,0,0,0,15,128
4768.41,0,0,0,31,112
4768.78,0,0,0,23,120
4772.51,0,0,0,31,112
4773.5,0,0,0,47,96
4773.5,0,0,0,63,80
4773.5,0,0,0,31,112
4778.22,0,0,0,23,120
4782.94,0,0,0,15,128
4787.55,0,0,0,7,136
4796.52,0,0,0,23,120
4796.52,0,0,0,15,128
4797.74,0,0,0,23,120
4799.08,0,0,0,15,128
4801.5,0,0,0,47,96
4803.56,0,0,0,55,88
4804.36,0,0,0,39,104
4809,0,0,0,55,88
4809.49,0,0,0,47,96
4810.95,0,0,0,55,88
4814.01,0,0,0,47,96
4814.54,0,0,0,55,88
4818.59,0,0,0,39,104
4821.97,0,0,0,47,96
4823.5,0,0,0,39,104
4824.78,0,0,0,47,96
4829.23,0,0,0,31,112
4833.79,0,0,0,23,120
4834.22,0,0,0,31,112
4837.28,0,0,0,23,120
4838.94,0,0,0,31,112
4839.18,0,0,0,47,96
4841.51,0,0,0,39,104
4843.55,0,0,0,47,96
4847.33,0,0,0,15,128
4852.52,0,0,0,23,120
4852.52,0,0,0,7,136
4855.08,0,0,0,15,128
4860.88,0,0,0,31,112
4860.89,0,0,0,15,128
4860.89,0,0,0,7,136
4865.49,0,0,0,15,128
4868.45,0,0,0,31,112
4870.42,0,0,0,63,80
4870.42,0,0,0,31,112
4879.5,0,0,0,39,104
4890.41,0,0,0,47,96
4890.87,0,0,0,63,80
4893.28,0,0,0,71,72
4897.13,0,0,0,103,40
4897.51,0,0,0,111,32
4898.78,0,0,0,119,24
4899.53,0,0,0,135,8
4917.69,0,0,0,143,0
