time,nb_sleeping,nb_switching_on,nb_switching_off,nb_idle,nb_computing
4.40378,0,0,0,135,8
7.951,0,0,0,119,24
12.3021,0,0,0,111,32
17.4813,0,0,0,95,48
21.4597,0,0,0,87,56
26.6607,0,0,0,79,64
31.6655,0,0,0,47,96
35.8739,0,0,0,39,104
39.5506,0,0,0,55,88
41.1913,0,0,0,39,104
46.4433,0,0,0,23,120
51.1118,0,0,0,15,128
54.2969,0,0,0,47,96
55.2488,0,0,0,15,128
55.5091,0,0,0,31,112
60.6786,0,0,0,15,128
63.2255,0,0,0,23,120
71.0046,0,0,0,15,128
71.1238,0,0,0,23,120
72.7909,0,0,0,39,104
72.791,0,0,0,23,120
76.8148,0,0,0,55,88
76.8148,0,0,0,23,120
78.0429,0,0,0,39,104
80.2814,0,0,0,47,96
85.4824,0,0,0,55,88
90.1623,0,0,0,39,104
95.5498,0,0,0,31,112
95.8722,0,0,0,39,104
99.6768,0,0,0,71,72
99.6769,0,0,0,39,104
99.9452,0,0,0,23,120
103.892,0,0,0,39,104
104.391,0,0,0,55,88
105.215,0,0,0,47,96
109.933,0,0,0,55,88
110.726,0,0,0,47,96
115.458,0,0,0,31,112
119.269,0,0,0,23,120
121.762,0,0,0,39,104
123.519,0,0,0,71,72
123.519,0,0,0,39,104
123.639,0,0,0,31,112
128.766,0,0,0,23,120
129.826,0,0,0,31,112
133.539,0,0,0,23,120
141.109,0,0,0,39,104
141.799,0,0,0,31,112
146.601,0,0,0,63,80
146.601,0,0,0,31,112
147.462,0,0,0,23,120
152.551,0,0,0,7,136
154.371,0,0,0,15,128
154.517,0,0,0,31,112
157.056,0,0,0,15,128
160.772,0,0,0,7,136
164.037,0,0,0,15,128
165.231,0,0,0,47,96
166.105,0,0,0,39,104
169.548,0,0,0,47,96
171.033,0,0,0,15,128
178.091,0,0,0,23,120
182.072,0,0,0,15,128
182.46,0,0,0,23,120
184.151,0,0,0,39,104
184.151,0,0,0,23,120
185.936,0,0,0,15,128
187.587,0,0,0,23,120
188.722,0,0,0,55,88
190.309,0,0,0,71,72
190.668,0,0,0,39,104
192.361,0,0,0,47,96
195.717,0,0,0,39,104
200.626,0,0,0,47,96
206.086,0,0,0,39,104
206.284,0,0,0,47,96
207.528,0,0,0,79,64
207.528,0,0,0,47,96
210.969,0,0,0,39,104
215.751,0,0,0,55,88
215.751,0,0,0,23,120
219.593,0,0,0,31,112
220.901,0,0,0,15,128
224.927,0,0,0,23,120
230.313,0,0,0,55,88
230.313,0,0,0,23,120
240.202,0,0,0,55,88
240.202,0,0,0,39,104
240.202,0,0,0,23,120
240.893,0,0,0,31,112
240.894,0,0,0,15,128
244.758,0,0,0,23,120
244.758,0,0,0,7,136
246.877,0,0,0,39,104
248.048,0,0,0,31,112
252.5,0,0,0,47,96
253.155,0,0,0,31,112
254.539,0,0,0,39,104
257.774,0,0,0,31,112
262.291,0,0,0,23,120
264.908,0,0,0,31,112
267.029,0,0,0,23,120
270.993,0,0,0,15,128
271.296,0,0,0,23,120
271.801,0,0,0,39,104
271.811,0,0,0,55,88
272.493,0,0,0,71,72
275.353,0,0,0,39,104
276.609,0,0,0,55,88
280.771,0,0,0,47,96
284.488,0,0,0,31,112
284.754,0,0,0,47,96
289.916,0,0,0,31,112
296.663,0,0,0,63,80
296.663,0,0,0,47,96
300.078,0,0,0,31,112
306.87,0,0,0,39,104
309.579,0,0,0,31,112
313.703,0,0,0,23,120
316.596,0,0,0,31,112
318.261,0,0,0,23,120
318.865,0,0,0,39,104
321.113,0,0,0,47,96
321.516,0,0,0,63,80
321.516,0,0,0,31,112
322.731,0,0,0,23,120
325.851,0,0,0,31,112
328.273,0,0,0,47,96
329.815,0,0,0,55,88
331.677,0,0,0,71,72
331.677,0,0,0,39,104
331.869,0,0,0,31,112
336.92,0,0,0,23,120
338.081,0,0,0,55,88
339.593,0,0,0,63,80
342.112,0,0,0,55,88
347.753,0,0,0,47,96
350.352,0,0,0,79,64
351.633,0,0,0,47,96
356.722,0,0,0,31,112
361.763,0,0,0,23,120
366.767,0,0,0,15,128
368.401,0,0,0,23,120
370.306,0,0,0,55,88
371.538,0,0,0,23,120
373.766,0,0,0,31,112
377.083,0,0,0,39,104
387.075,0,0,0,47,96
387.12,0,0,0,39,104
388.322,0,0,0,55,88
388.322,0,0,0,39,104
390.023,0,0,0,71,72
390.024,0,0,0,39,104
390.691,0,0,0,47,96
392.017,0,0,0,31,112
395.742,0,0,0,39,104
397.139,0,0,0,31,112
400.934,0,0,0,39,104
402.158,0,0,0,31,112
406.575,0,0,0,39,104
406.648,0,0,0,71,72
406.657,0,0,0,63,80
411.371,0,0,0,55,88
415.827,0,0,0,39,104
419.922,0,0,0,55,88
420.11,0,0,0,47,96
420.585,0,0,0,55,88
423.616,0,0,0,71,72
425.589,0,0,0,79,64
425.844,0,0,0,63,80
430.096,0,0,0,47,96
435.104,0,0,0,39,104
440.025,0,0,0,31,112
445.671,0,0,0,23,120
445.942,0,0,0,31,112
447.426,0,0,0,47,96
449.845,0,0,0,39,104
455.05,0,0,0,31,112
457.202,0,0,0,39,104
457.444,0,0,0,55,88
459.24,0,0,0,47,96
460.98,0,0,0,55,88
461.696,0,0,0,71,72
463.729,0,0,0,63,80
465.479,0,0,0,71,72
468.442,0,0,0,55,88
470.197,0,0,0,63,80
473.73,0,0,0,55,88
478.506,0,0,0,47,96
478.932,0,0,0,55,88
484.135,0,0,0,47,96
493.93,0,0,0,55,88
495.457,0,0,0,47,96
498.847,0,0,0,55,88
500.37,0,0,0,71,72
500.461,0,0,0,63,80
504.493,0,0,0,71,72
504.493,0,0,0,39,104
505.149,0,0,0,31,112
508.667,0,0,0,39,104
510.415,0,0,0,31,112
513.872,0,0,0,39,104
514.834,0,0,0,31,112
518.062,0,0,0,39,104
519.821,0,0,0,31,112
522.551,0,0,0,39,104
524.133,0,0,0,31,112
525.69,0,0,0,63,80
529.525,0,0,0,31,112
532.552,0,0,0,39,104
534.633,0,0,0,31,112
537.328,0,0,0,39,104
539.654,0,0,0,23,120
542.957,0,0,0,31,112
544.304,0,0,0,23,120
548.2,0,0,0,55,88
549.435,0,0,0,47,96
554.279,0,0,0,55,88
554.795,0,0,0,23,120
559.283,0,0,0,31,112
565.211,0,0,0,39,104
565.322,0,0,0,31,112
569.237,0,0,0,39,104
571.254,0,0,0,55,88
573.47,0,0,0,87,56
573.47,0,0,0,55,88
573.642,0,0,0,39,104
578.643,0,0,0,47,96
580.853,0,0,0,55,88
580.853,0,0,0,39,104
582.955,0,0,0,47,96
587.509,0,0,0,39,104
592.268,0,0,0,31,112
593.455,0,0,0,39,104
594.782,0,0,0,71,72
594.782,0,0,0,39,104
595.833,0,0,0,31,112
603.126,0,0,0,39,104
605.241,0,0,0,55,88
605.326,0,0,0,47,96
608.257,0,0,0,55,88
610.676,0,0,0,47,96
614.702,0,0,0,31,112
617.901,0,0,0,63,80
617.901,0,0,0,31,112
619.707,0,0,0,15,128
624.144,0,0,0,23,120
624.924,0,0,0,39,104
625.273,0,0,0,31,112
637.208,0,0,0,63,80
637.208,0,0,0,31,112
638.562,0,0,0,23,120
643.171,0,0,0,15,128
646.302,0,0,0,31,112
646.331,0,0,0,39,104
651.09,0,0,0,47,96
651.306,0,0,0,63,80
652.156,0,0,0,55,88
654.655,0,0,0,63,80
656.732,0,0,0,95,48
656.732,0,0,0,63,80
657.289,0,0,0,55,88
666.741,0,0,0,47,96
668.432,0,0,0,55,88
669.498,0,0,0,63,80
670.73,0,0,0,55,88
674.146,0,0,0,87,56
674.146,0,0,0,55,88
684.095,0,0,0,63,80
685.168,0,0,0,47,96
690.71,0,0,0,79,64
690.71,0,0,0,47,96
697.886,0,0,0,55,88
700.063,0,0,0,47,96
701.993,0,0,0,55,88
701.993,0,0,0,23,120
705.032,0,0,0,15,128
707.275,0,0,0,47,96
707.275,0,0,0,15,128
710.978,0,0,0,23,120
713.884,0,0,0,15,128
716.111,0,0,0,23,120
717.841,0,0,0,15,128
721.218,0,0,0,31,112
721.218,0,0,0,15,128
722.422,0,0,0,7,136
723.704,0,0,0,39,104
723.704,0,0,0,7,136
723.84,0,0,0,39,104
723.84,0,0,0,7,136
725.563,0,0,0,15,128
730.938,0,0,0,23,120
732.993,0,0,0,15,128
737.344,0,0,0,7,136
740.404,0,0,0,39,104
740.404,0,0,0,7,136
745.418,0,0,0,39,104
745.419,0,0,0,7,136
756.969,0,0,0,39,104
756.969,0,0,0,31,112
756.969,0,0,0,15,128
756.969,0,0,0,7,136
758.885,0,0,0,15,128
758.886,0,0,0,7,136
762.309,0,0,0,23,120
762.309,0,0,0,15,128
763.854,0,0,0,23,120
767.13,0,0,0,55,88
767.13,0,0,0,23,120
768.924,0,0,0,15,128
772.706,0,0,0,23,120
774.028,0,0,0,15,128
776.663,0,0,0,23,120
778.684,0,0,0,15,128
781.244,0,0,0,23,120
783.812,0,0,0,15,128
785.803,0,0,0,47,96
788.569,0,0,0,63,80
789.288,0,0,0,47,96
791.815,0,0,0,55,88
793.816,0,0,0,47,96
797.407,0,0,0,55,88
798.648,0,0,0,39,104
807.972,0,0,0,31,112
813.269,0,0,0,23,120
815.791,0,0,0,31,112
815.791,0,0,0,39,104
817.707,0,0,0,47,96
820.888,0,0,0,63,80
820.888,0,0,0,31,112
822.998,0,0,0,23,120
824.233,0,0,0,31,112
827.746,0,0,0,39,104
828.294,0,0,0,23,120
830.247,0,0,0,39,104
832.85,0,0,0,47,96
837.453,0,0,0,79,64
837.453,0,0,0,47,96
837.506,0,0,0,55,88
842.634,0,0,0,63,80
845.278,0,0,0,55,88
850.231,0,0,0,47,96
852.638,0,0,0,55,88
854.018,0,0,0,87,56
854.018,0,0,0,55,88
854.063,0,0,0,47,96
858.724,0,0,0,39,104
859.894,0,0,0,55,88
859.894,0,0,0,23,120
863.146,0,0,0,15,128
868.035,0,0,0,23,120
870.582,0,0,0,55,88
870.582,0,0,0,23,120
871.068,0,0,0,15,128
872.095,0,0,0,23,120
872.095,0,0,0,7,136
876.458,0,0,0,39,104
876.458,0,0,0,23,120
879.86,0,0,0,15,128
881.82,0,0,0,23,120
884.59,0,0,0,15,128
887.424,0,0,0,47,96
889.405,0,0,0,15,128
894.651,0,0,0,7,136
903.705,0,0,0,23,120
903.705,0,0,0,15,128
903.751,0,0,0,7,136
904.1,0,0,0,15,128
906.246,0,0,0,47,96
907.625,0,0,0,39,104
908.058,0,0,0,55,88
909.052,0,0,0,63,80
912.885,0,0,0,71,72
913.215,0,0,0,63,80
917.55,0,0,0,71,72
918.791,0,0,0,63,80
921.968,0,0,0,71,72
923.326,0,0,0,63,80
927.764,0,0,0,55,88
929.89,0,0,0,63,80
931.889,0,0,0,31,112
937.304,0,0,0,15,128
938.682,0,0,0,23,120
943.412,0,0,0,31,112
949.432,0,0,0,63,80
949.432,0,0,0,31,112
951.529,0,0,0,23,120
953.472,0,0,0,31,112
953.473,0,0,0,15,128
955.618,0,0,0,7,136
962.527,0,0,0,15,128
962.527,0,0,0,7,136
962.577,0,0,0,15,128
966.447,0,0,0,23,120
966.976,0,0,0,55,88
966.976,0,0,0,23,120
968.903,0,0,0,39,104
970.747,0,0,0,31,112
972.037,0,0,0,39,104
976.07,0,0,0,23,120
977.613,0,0,0,31,112
981.046,0,0,0,23,120
985.072,0,0,0,39,104
985.221,0,0,0,47,96
986.082,0,0,0,39,104
986.362,0,0,0,71,72
986.586,0,0,0,79,64
991.369,0,0,0,63,80
996.56,0,0,0,47,96
1001.57,0,0,0,39,104
1005.44,0,0,0,23,120
1009.97,0,0,0,15,128
1010.35,0,0,0,23,120
1010.5,0,0,0,39,104
1014.44,0,0,0,47,96
1019.75,0,0,0,39,104
1021.35,0,0,0,47,96
1021.35,0,0,0,15,128
1023.73,0,0,0,31,112
1024.24,0,0,0,23,120
1028.16,0,0,0,39,104
1029.06,0,0,0,31,112
1029.57,0,0,0,39,104
1033.87,0,0,0,31,112
1037.04,0,0,0,47,96
1037.58,0,0,0,39,104
1039.87,0,0,0,47,96
1040.02,0,0,0,79,64
1041.68,0,0,0,71,72
1044.9,0,0,0,79,64
1045.36,0,0,0,71,72
1049.92,0,0,0,63,80
1054.87,0,0,0,55,88
1059.97,0,0,0,47,96
1060.4,0,0,0,55,88
1064.2,0,0,0,47,96
1068.36,0,0,0,31,112
1070.75,0,0,0,39,104
1072.64,0,0,0,31,112
1078.02,0,0,0,23,120
1078.57,0,0,0,31,112
1082.86,0,0,0,23,120
1084.3,0,0,0,31,112
1087.63,0,0,0,23,120
1087.88,0,0,0,31,112
1092.6,0,0,0,23,120
1092.7,0,0,0,31,112
1096.4,0,0,0,39,104
1097.8,0,0,0,31,112
1100.5,0,0,0,39,104
1100.72,0,0,0,55,88
1104.18,0,0,0,63,80
1107.26,0,0,0,47,96
1108.74,0,0,0,55,88
1112.53,0,0,0,39,104
1113.69,0,0,0,47,96
1117.56,0,0,0,31,112
1118.79,0,0,0,39,104
1123.02,0,0,0,47,96
1123.09,0,0,0,31,112
1127.48,0,0,0,23,120
1131.22,0,0,0,7,136
1131.47,0,0,0,15,128
1136.84,0,0,0,23,120
1138.86,0,0,0,39,104
1141.47,0,0,0,31,112
1141.69,0,0,0,39,104
1144.13,0,0,0,55,88
1146.86,0,0,0,47,96
1147.69,0,0,0,55,88
1149.92,0,0,0,71,72
1151.42,0,0,0,79,64
1151.42,0,0,0,47,96
1152.19,0,0,0,39,104
1154.69,0,0,0,55,88
1154.69,0,0,0,23,120
1156.62,0,0,0,31,112
1156.75,0,0,0,23,120
1162.82,0,0,0,39,104
1162.82,0,0,0,7,136
1172.77,0,0,0,39,104
1172.77,0,0,0,31,112
1172.77,0,0,0,23,120
1175.24,0,0,0,55,88
1175.24,0,0,0,23,120
1178.7,0,0,0,7,136
1179.38,0,0,0,39,104
1183.78,0,0,0,31,112
1186.31,0,0,0,39,104
1191.87,0,0,0,71,72
1191.87,0,0,0,39,104
1192.43,0,0,0,31,112
1196.64,0,0,0,23,120
1200.3,0,0,0,31,112
1205.68,0,0,0,39,104
1206.6,0,0,0,31,112
1210.3,0,0,0,47,96
1211.01,0,0,0,55,88
1211.37,0,0,0,87,56
1211.37,0,0,0,55,88
1211.65,0,0,0,47,96
1215.58,0,0,0,55,88
1217.43,0,0,0,47,96
1222.63,0,0,0,39,104
1227.38,0,0,0,31,112
1227.93,0,0,0,63,80
1231.59,0,0,0,71,72
1232.45,0,0,0,39,104
1235.38,0,0,0,47,96
1236.51,0,0,0,31,112
1242.6,0,0,0,39,104
1246.93,0,0,0,23,120
1249.01,0,0,0,55,88
1249.01,0,0,0,23,120
1251.82,0,0,0,31,112
1251.9,0,0,0,23,120
1255.46,0,0,0,31,112
1256.31,0,0,0,23,120
1260.45,0,0,0,15,128
1265.42,0,0,0,23,120
1265.58,0,0,0,55,88
1265.58,0,0,0,39,104
1268.44,0,0,0,55,88
1268.63,0,0,0,47,96
1270.47,0,0,0,55,88
1276.26,0,0,0,63,80
1278.53,0,0,0,79,64
1279.19,0,0,0,63,80
1281.46,0,0,0,71,72
1283.61,0,0,0,63,80
1286.2,0,0,0,71,72
1286.2,0,0,0,39,104
1287.34,0,0,0,31,112
1296.46,0,0,0,15,128
1297.18,0,0,0,31,112
1301.35,0,0,0,15,128
1308.7,0,0,0,47,96
1308.7,0,0,0,15,128
1310.73,0,0,0,23,120
1310.79,0,0,0,39,104
1310.79,0,0,0,23,120
1317.71,0,0,0,31,112
1317.71,0,0,0,15,128
1319.27,0,0,0,23,120
1319.62,0,0,0,15,128
1324.48,0,0,0,7,136
1327.45,0,0,0,15,128
1327.6,0,0,0,7,136
1328.06,0,0,0,23,120
1331.21,0,0,0,55,88
1331.21,0,0,0,23,120
1332.64,0,0,0,15,128
1332.95,0,0,0,31,112
1337.51,0,0,0,23,120
1342.38,0,0,0,39,104
1342.38,0,0,0,23,120
1342.43,0,0,0,31,112
1350.07,0,0,0,23,120
1351.7,0,0,0,39,104
1351.7,0,0,0,23,120
1353.77,0,0,0,55,88
1355.17,0,0,0,47,96
1360.59,0,0,0,39,104
1363.57,0,0,0,47,96
1365.05,0,0,0,31,112
1368.35,0,0,0,23,120
1373.98,0,0,0,39,104
1378.44,0,0,0,47,96
1378.49,0,0,0,39,104
1382.23,0,0,0,31,112
1383.3,0,0,0,39,104
1383.55,0,0,0,55,88
1383.55,0,0,0,23,120
1386.43,0,0,0,31,112
1390.48,0,0,0,23,120
1391.46,0,0,0,31,112
1395.67,0,0,0,15,128
1396.33,0,0,0,23,120
1402.72,0,0,0,39,104
1403.16,0,0,0,31,112
1405.73,0,0,0,63,80
1405.73,0,0,0,31,112
1406.38,0,0,0,23,120
1408.89,0,0,0,31,112
1413.99,0,0,0,39,104
1415.76,0,0,0,31,112
1419.41,0,0,0,39,104
1419.41,0,0,0,23,120
1425.26,0,0,0,55,88
1425.26,0,0,0,23,120
1425.31,0,0,0,15,128
1427.27,0,0,0,31,112
1427.27,0,0,0,15,128
1432.05,0,0,0,23,120
1435.65,0,0,0,15,128
1437.31,0,0,0,23,120
1440.93,0,0,0,15,128
1441.05,0,0,0,23,120
1444.62,0,0,0,55,88
1444.62,0,0,0,39,104
1445.06,0,0,0,23,120
1449.3,0,0,0,31,112
1449.95,0,0,0,23,120
1451.01,0,0,0,39,104
1453.98,0,0,0,23,120
1458.87,0,0,0,39,104
1459.63,0,0,0,31,112
1461.98,0,0,0,39,104
1464.37,0,0,0,31,112
1466.64,0,0,0,39,104
1470.36,0,0,0,31,112
1474.42,0,0,0,23,120
1474.59,0,0,0,31,112
1476.66,0,0,0,47,96
1477.43,0,0,0,63,80
1478.96,0,0,0,55,88
1484.14,0,0,0,63,80
1484.47,0,0,0,47,96
1485.58,0,0,0,63,80
1489.04,0,0,0,47,96
1497.57,0,0,0,55,88
1498.8,0,0,0,47,96
1499.75,0,0,0,55,88
1503.11,0,0,0,47,96
1507.41,0,0,0,31,112
1508.77,0,0,0,39,104
1511.47,0,0,0,31,112
1516.42,0,0,0,15,128
1517.28,0,0,0,31,112
1518.45,0,0,0,39,104
1520.64,0,0,0,55,88
1520.64,0,0,0,23,120
1521.43,0,0,0,15,128
1523.19,0,0,0,23,120
1529.19,0,0,0,31,112
1529.19,0,0,0,15,128
1531.64,0,0,0,7,136
1533.24,0,0,0,15,128
1536.71,0,0,0,7,136
1537.78,0,0,0,15,128
1539.01,0,0,0,31,112
1540.06,0,0,0,63,80
1541.95,0,0,0,55,88
1546.84,0,0,0,23,120
1548.02,0,0,0,39,104
1551.59,0,0,0,23,120
1556.94,0,0,0,7,136
1559.67,0,0,0,15,128
1561.94,0,0,0,23,120
1562.16,0,0,0,15,128
1566.71,0,0,0,7,136
1567.74,0,0,0,23,120
1567.98,0,0,0,55,88
1570.3,0,0,0,63,80
1572.3,0,0,0,55,88
1576.42,0,0,0,47,96
1580.25,0,0,0,55,88
1582.28,0,0,0,39,104
1583.19,0,0,0,55,88
1586.7,0,0,0,39,104
1588.54,0,0,0,55,88
1590.46,0,0,0,63,80
1595.53,0,0,0,71,72
1595.53,0,0,0,39,104
1595.59,0,0,0,23,120
1600.77,0,0,0,31,112
1610.79,0,0,0,23,120
1613.88,0,0,0,39,104
1613.88,0,0,0,23,120
1616.01,0,0,0,15,128
1617.25,0,0,0,47,96
1617.25,0,0,0,31,112
1620.68,0,0,0,15,128
1620.98,0,0,0,23,120
1623.33,0,0,0,39,104
1625.53,0,0,0,31,112
1626.79,0,0,0,39,104
1627.19,0,0,0,55,88
1630.8,0,0,0,47,96
1631.12,0,0,0,55,88
1635.25,0,0,0,63,80
1635.81,0,0,0,47,96
1640.78,0,0,0,39,104
1644.92,0,0,0,31,112
1645.48,0,0,0,47,96
1648.86,0,0,0,63,80
1649.33,0,0,0,47,96
1652.28,0,0,0,63,80
1654.54,0,0,0,47,96
1659.71,0,0,0,39,104
1664.71,0,0,0,31,112
1667.41,0,0,0,47,96
1669.61,0,0,0,55,88
1669.9,0,0,0,39,104
1674.61,0,0,0,31,112
1674.83,0,0,0,39,104
1679.14,0,0,0,31,112
1680.93,0,0,0,47,96
1684.01,0,0,0,39,104
1684.35,0,0,0,47,96
1686.14,0,0,0,63,80
1688.08,0,0,0,55,88
1690.86,0,0,0,63,80
1696.99,0,0,0,47,96
1699.61,0,0,0,55,88
1701.5,0,0,0,71,72
1702.18,0,0,0,55,88
1703.75,0,0,0,63,80
1707,0,0,0,47,96
1711.62,0,0,0,39,104
1716.78,0,0,0,31,112
1718.53,0,0,0,39,104
1723.54,0,0,0,47,96
1723.54,0,0,0,15,128
1728.58,0,0,0,31,112
1728.59,0,0,0,15,128
1731.69,0,0,0,7,136
1733.43,0,0,0,15,128
1736.83,0,0,0,7,136
1737.51,0,0,0,23,120
1737.96,0,0,0,31,112
1739.85,0,0,0,23,120
1742.83,0,0,0,31,112
1744.64,0,0,0,63,80
1744.64,0,0,0,31,112
1745.27,0,0,0,23,120
1746.07,0,0,0,39,104
1746.9,0,0,0,47,96
1750.04,0,0,0,39,104
1759.91,0,0,0,31,112
1760.18,0,0,0,47,96
1760.18,0,0,0,15,128
1762.93,0,0,0,47,96
1764.08,0,0,0,39,104
1768.05,0,0,0,7,136
1770.45,0,0,0,15,128
1775.6,0,0,0,23,120
1787.98,0,0,0,55,88
1787.98,0,0,0,39,104
1787.98,0,0,0,23,120
1790.51,0,0,0,31,112
1794.86,0,0,0,63,80
1794.86,0,0,0,47,96
1794.86,0,0,0,31,112
1795.65,0,0,0,39,104
1797.04,0,0,0,31,112
1798.67,0,0,0,39,104
1806.69,0,0,0,47,96
1806.69,0,0,0,31,112
1808.86,0,0,0,39,104
1808.86,0,0,0,23,120
1811.7,0,0,0,15,128
1817.39,0,0,0,7,136
1818.73,0,0,0,15,128
1819.58,0,0,0,31,112
1822.65,0,0,0,15,128
1822.9,0,0,0,23,120
1825.82,0,0,0,39,104
1826.46,0,0,0,55,88
1827.52,0,0,0,47,96
1831.31,0,0,0,63,80
1831.31,0,0,0,31,112
1833.01,0,0,0,15,128
1838.62,0,0,0,31,112
1838.62,0,0,0,15,128
1840.46,0,0,0,31,112
1842.49,0,0,0,23,120
1846.85,0,0,0,15,128
1851.99,0,0,0,7,136
1854.25,0,0,0,23,120
1855.87,0,0,0,31,112
1856.25,0,0,0,15,128
1857.08,0,0,0,47,96
1861.79,0,0,0,31,112
1866.87,0,0,0,23,120
1870.52,0,0,0,31,112
1870.85,0,0,0,47,96
1872.01,0,0,0,39,104
1874.09,0,0,0,55,88
1876.01,0,0,0,47,96
1876.21,0,0,0,55,88
1880.76,0,0,0,39,104
1885.64,0,0,0,23,120
1886.35,0,0,0,31,112
1887.85,0,0,0,47,96
1890.74,0,0,0,39,104
1893.4,0,0,0,55,88
1894.74,0,0,0,47,96
1901.32,0,0,0,55,88
1904.5,0,0,0,47,96
1905.67,0,0,0,55,88
1908.82,0,0,0,47,96
1910.81,0,0,0,55,88
1913.55,0,0,0,71,72
1913.55,0,0,0,39,104
1913.6,0,0,0,31,112
1917.24,0,0,0,47,96
1917.86,0,0,0,31,112
1925.69,0,0,0,39,104
1926.44,0,0,0,31,112
1930.83,0,0,0,39,104
1931.34,0,0,0,23,120
1938.52,0,0,0,31,112
1939.22,0,0,0,63,80
1939.22,0,0,0,31,112
1940.2,0,0,0,15,128
1949.57,0,0,0,23,120
1953.56,0,0,0,31,112
1953.56,0,0,0,15,128
1955.07,0,0,0,7,136
1962.94,0,0,0,23,120
1962.94,0,0,0,7,136
1963.32,0,0,0,15,128
1965.58,0,0,0,47,96
1965.58,0,0,0,15,128
1967.1,0,0,0,31,112
1967.1,0,0,0,15,128
1967.64,0,0,0,23,120
1968.18,0,0,0,15,128
1972.42,0,0,0,23,120
1974.26,0,0,0,39,104
1974.26,0,0,0,23,120
1985.16,0,0,0,39,104
1985.16,0,0,0,23,120
1985.27,0,0,0,31,112
1988.1,0,0,0,23,120
1991.97,0,0,0,55,88
1991.97,0,0,0,23,120
1992.39,0,0,0,15,128
1994.54,0,0,0,31,112
1997.45,0,0,0,23,120
2001.66,0,0,0,15,128
2005.37,0,0,0,7,136
2005.86,0,0,0,23,120
2010.16,0,0,0,7,136
2011.38,0,0,0,23,120
2013.89,0,0,0,31,112
2014.76,0,0,0,63,80
2014.76,0,0,0,31,112
2015.27,0,0,0,15,128
2020.6,0,0,0,7,136
2024.63,0,0,0,23,120
2025.67,0,0,0,15,128
2027,0,0,0,23,120
2036.88,0,0,0,55,88
2036.88,0,0,0,39,104
2037.51,0,0,0,23,120
2041.76,0,0,0,39,104
2042.76,0,0,0,31,112
2046.92,0,0,0,39,104
2051.21,0,0,0,47,96
2051.6,0,0,0,63,80
2056.28,0,0,0,71,72
2056.28,0,0,0,39,104
2057.33,0,0,0,31,112
2060.48,0,0,0,39,104
2062.17,0,0,0,31,112
2064.2,0,0,0,39,104
2066.94,0,0,0,23,120
2068.48,0,0,0,39,104
2069.11,0,0,0,55,88
2069.11,0,0,0,23,120
2072.9,0,0,0,55,88
2072.9,0,0,0,23,120
2079.43,0,0,0,31,112
2081.38,0,0,0,23,120
2085.67,0,0,0,55,88
2085.67,0,0,0,23,120
2085.84,0,0,0,31,112
2089.52,0,0,0,63,80
2089.52,0,0,0,31,112
2091.17,0,0,0,23,120
2096.17,0,0,0,7,136
2098.54,0,0,0,23,120
2101.16,0,0,0,7,136
2101.58,0,0,0,15,128
2102.24,0,0,0,47,96
2102.24,0,0,0,15,128
2106.15,0,0,0,47,96
2106.15,0,0,0,31,112
2110.5,0,0,0,23,120
2116.16,0,0,0,31,112
2118.8,0,0,0,63,80
2118.8,0,0,0,31,112
2120.06,0,0,0,15,128
2120.99,0,0,0,23,120
2127.77,0,0,0,39,104
2127.77,0,0,0,23,120
2129.8,0,0,0,15,128
2132.76,0,0,0,31,112
2134.31,0,0,0,23,120
2135.36,0,0,0,55,88
2137.76,0,0,0,71,72
2139.3,0,0,0,55,88
2140.21,0,0,0,63,80
2144.14,0,0,0,47,96
2148.95,0,0,0,39,104
2151.23,0,0,0,47,96
2151.67,0,0,0,63,80
2153.56,0,0,0,47,96
2158.13,0,0,0,31,112
2159.37,0,0,0,47,96
2163.34,0,0,0,39,104
2168.05,0,0,0,23,120
2169.32,0,0,0,31,112
2170.9,0,0,0,47,96
2175.74,0,0,0,63,80
2175.74,0,0,0,31,112
2176.73,0,0,0,23,120
2180.74,0,0,0,15,128
2185.17,0,0,0,31,112
2188.62,0,0,0,39,104
2189.74,0,0,0,55,88
2189.74,0,0,0,23,120
2192.3,0,0,0,55,88
2192.3,0,0,0,23,120
2193.13,0,0,0,31,112
2195.43,0,0,0,23,120
2199.65,0,0,0,39,104
2199.65,0,0,0,23,120
2204.43,0,0,0,15,128
2206.36,0,0,0,47,96
2207.77,0,0,0,55,88
2208.3,0,0,0,47,96
2208.86,0,0,0,79,64
2212.02,0,0,0,71,72
2217.18,0,0,0,63,80
2221.79,0,0,0,55,88
2223.4,0,0,0,63,80
2226.91,0,0,0,55,88
2231.25,0,0,0,71,72
2231.72,0,0,0,63,80
2235.55,0,0,0,71,72
2236.84,0,0,0,55,88
2239.56,0,0,0,63,80
2241.6,0,0,0,47,96
2244.5,0,0,0,39,104
2249.81,0,0,0,23,120
2254.25,0,0,0,31,112
2254.89,0,0,0,23,120
2259.6,0,0,0,15,128
2263.25,0,0,0,23,120
2267.12,0,0,0,31,112
2267.12,0,0,0,15,128
2268.45,0,0,0,31,112
2269.02,0,0,0,23,120
2270.84,0,0,0,31,112
2273.21,0,0,0,47,96
2276,0,0,0,55,88
2279.24,0,0,0,47,96
2280.62,0,0,0,55,88
2281.41,0,0,0,71,72
2281.41,0,0,0,39,104
2286.97,0,0,0,47,96
2290.54,0,0,0,55,88
2294.9,0,0,0,47,96
2298.72,0,0,0,63,80
2299.98,0,0,0,55,88
2300.08,0,0,0,87,56
2300.08,0,0,0,55,88
2303.32,0,0,0,63,80
2304.82,0,0,0,47,96
2309.47,0,0,0,39,104
2313.71,0,0,0,47,96
2318.42,0,0,0,55,88
2318.42,0,0,0,39,104
2318.75,0,0,0,71,72
2318.76,0,0,0,39,104
2330.45,0,0,0,31,112
2333.26,0,0,0,39,104
2333.43,0,0,0,31,112
2336.42,0,0,0,47,96
2336.42,0,0,0,15,128
2337.59,0,0,0,47,96
2337.59,0,0,0,15,128
2338.06,0,0,0,23,120
2343.09,0,0,0,15,128
2350.02,0,0,0,31,112
2350.02,0,0,0,15,128
2354.98,0,0,0,23,120
2358.81,0,0,0,31,112
2360.38,0,0,0,23,120
2362.82,0,0,0,55,88
2362.82,0,0,0,39,104
2362.82,0,0,0,23,120
2363.81,0,0,0,55,88
2363.81,0,0,0,23,120
2368.3,0,0,0,31,112
2370.01,0,0,0,23,120
2379.88,0,0,0,15,128
2381.62,0,0,0,31,112
2381.62,0,0,0,15,128
2386.93,0,0,0,47,96
2386.93,0,0,0,15,128
2389.27,0,0,0,23,120
2392.25,0,0,0,31,112
2394.42,0,0,0,47,96
2394.42,0,0,0,31,112
2394.77,0,0,0,23,120
2401.91,0,0,0,31,112
2403.29,0,0,0,23,120
2406.92,0,0,0,39,104
2406.92,0,0,0,23,120
2407.71,0,0,0,15,128
2410.08,0,0,0,47,96
2410.08,0,0,0,31,112
2413.22,0,0,0,47,96
2413.22,0,0,0,15,128
2416.61,0,0,0,7,136
2419.2,0,0,0,15,128
2421.83,0,0,0,7,136
2426.02,0,0,0,23,120
2428.83,0,0,0,31,112
2434.2,0,0,0,63,80
2434.2,0,0,0,31,112
2440.06,0,0,0,39,104
2441.68,0,0,0,55,88
2446.7,0,0,0,71,72
2453.59,0,0,0,79,64
2453.63,0,0,0,111,32
2462.11,0,0,0,119,24
2466.53,0,0,0,127,16
2475.43,0,0,0,135,8
2480.65,0,0,0,143,0
