Coucou c'est moi
Coucou c'est moi
Coucou c'est moi
Coucou c'est moi
Coucou c'est moi
Coucou c'est moi
Coucou c'est moi
Coucou c'est moi
Coucou c'est moi
Coucou c'est moi
Coucou c'est moi
Coucou c'est moi
Coucou c'est moi
Coucou c'est moi
Coucou c'est moi
Coucou c'est moi
Coucou c'est moi
Coucou c'est moi
Coucou c'est moi
Coucou c'est moi
Coucou c'est moi
Coucou c'est moi
Coucou c'est moi
Coucou c'est moi
Coucou c'est moi
Coucou c'est moi
Coucou c'est moi
Coucou c'est moi
Coucou c'est moi
Coucou c'est moi
Coucou c'est moi
Coucou c'est moi
Coucou c'est moi
Coucou c'est moi
Coucou c'est moi
Coucou c'est moi
Coucou c'est moi
Coucou c'est moi
Coucou c'est moi
Coucou c'est moi
Coucou c'est moi
Coucou c'est moi
Coucou c'est moi
Coucou c'est moi
Coucou c'est moi
Coucou c'est moi
Coucou c'est moi
Coucou c'est moi
Coucou c'est moi
Coucou c'est moi
Coucou c'est moi
Coucou c'est moi
Coucou c'est moi
Coucou c'est moi
Coucou c'est moi
Coucou c'est moi
Coucou c'est moi
Coucou c'est moi
Coucou c'est moi
Coucou c'est moi
Coucou c'est moi
Coucou c'est moi
Coucou c'est moi
Coucou c'est moi
Coucou c'est moi
Coucou c'est moi
Coucou c'est moi
Coucou c'est moi
Coucou c'est moi
Coucou c'est moi
Coucou c'est moi
Coucou c'est moi
Coucou c'est moi
Coucou c'est moi
Coucou c'est moi
Coucou c'est moi
Coucou c'est moi
Coucou c'est moi
Coucou c'est moi
Coucou c'est moi
Coucou c'est moi
Coucou c'est moi
Coucou c'est moi
Coucou c'est moi
Coucou c'est moi
Coucou c'est moi
Coucou c'est moi
Coucou c'est moi
Coucou c'est moi
Coucou c'est moi
Coucou c'est moi
Coucou c'est moi
Coucou c'est moi
Coucou c'est moi
Coucou c'est moi
Coucou c'est moi
Coucou c'est moi
Coucou c'est moi
Coucou c'est moi
Coucou c'est moi
Coucou c'est moi
Coucou c'est moi
Coucou c'est moi
Coucou c'est moi
Coucou c'est moi
Coucou c'est moi
Coucou c'est moi
Coucou c'est moi
Coucou c'est moi
Coucou c'est moi
Coucou c'est moi
Coucou c'est moi
Coucou c'est moi
Coucou c'est moi
Coucou c'est moi
Coucou c'est moi
Coucou c'est moi
Coucou c'est moi
Coucou c'est moi
Coucou c'est moi
Coucou c'est moi
Coucou c'est moi
Coucou c'est moi
Coucou c'est moi
Coucou c'est moi
Coucou c'est moi
Coucou c'est moi
Coucou c'est moi
Coucou c'est moi
Coucou c'est moi
Coucou c'est moi
Coucou c'est moi
Coucou c'est moi
Coucou c'est moi
Coucou c'est moi
Coucou c'est moi
Coucou c'est moi
Coucou c'est moi
Coucou c'est moi
Coucou c'est moi
Coucou c'est moi
Coucou c'est moi
Coucou c'est moi
Coucou c'est moi
Coucou c'est moi
Coucou c'est moi
Coucou c'est moi
Coucou c'est moi
Coucou c'est moi
Coucou c'est moi
Coucou c'est moi
Coucou c'est moi
Coucou c'est moi
Coucou c'est moi
Coucou c'est moi
Coucou c'est moi
Coucou c'est moi
Coucou c'est moi
Coucou c'est moi
Coucou c'est moi
Coucou c'est moi
Coucou c'est moi
Coucou c'est moi
Coucou c'est moi
Coucou c'est moi
Coucou c'est moi
Coucou c'est moi
Coucou c'est moi
Coucou c'est moi
Coucou c'est moi
Coucou c'est moi
Coucou c'est moi
Coucou c'est moi
Coucou c'est moi
Coucou c'est moi
Coucou c'est moi
Coucou c'est moi
Coucou c'est moi
Coucou c'est moi
Coucou c'est moi
Coucou c'est moi
Coucou c'est moi
Coucou c'est moi
Coucou c'est moi
Coucou c'est moi
Coucou c'est moi
Coucou c'est moi
Coucou c'est moi
Coucou c'est moi
Coucou c'est moi
Coucou c'est moi
Coucou c'est moi
Coucou c'est moi
Coucou c'est moi
Coucou c'est moi
Coucou c'est moi
Coucou c'est moi
Coucou c'est moi
Coucou c'est moi
Coucou c'est moi
Coucou c'est moi
Coucou c'est moi
Coucou c'est moi
Coucou c'est moi
Coucou c'est moi
Coucou c'est moi
Coucou c'est moi
Coucou c'est moi
Coucou c'est moi
Coucou c'est moi
Coucou c'est moi
Coucou c'est moi
Coucou c'est moi
Coucou c'est moi
Coucou c'est moi
Coucou c'est moi
Coucou c'est moi
Coucou c'est moi
Coucou c'est moi
Coucou c'est moi
Coucou c'est moi
Coucou c'est moi
Coucou c'est moi
Coucou c'est moi
Coucou c'est moi
Coucou c'est moi
Coucou c'est moi
Coucou c'est moi
Coucou c'est moi
Coucou c'est moi
Coucou c'est moi
Coucou c'est moi
Coucou c'est moi
Coucou c'est moi
Coucou c'est moi
Coucou c'est moi
Coucou c'est moi
Coucou c'est moi
Coucou c'est moi
Coucou c'est moi
Coucou c'est moi
Coucou c'est moi
Coucou c'est moi
Coucou c'est moi
Coucou c'est moi
Coucou c'est moi
Coucou c'est moi
Coucou c'est moi
Coucou c'est moi
Coucou c'est moi
Coucou c'est moi
Coucou c'est moi
Coucou c'est moi
Coucou c'est moi
Coucou c'est moi
Coucou c'est moi
Coucou c'est moi
Coucou c'est moi
Coucou c'est moi
Coucou c'est moi
Coucou c'est moi
Coucou c'est moi
Coucou c'est moi
Coucou c'est moi
Coucou c'est moi
Coucou c'est moi
Coucou c'est moi
Coucou c'est moi
Coucou c'est moi
Coucou c'est moi
Coucou c'est moi
Coucou c'est moi
Coucou c'est moi
Coucou c'est moi
Coucou c'est moi
Coucou c'est moi
Coucou c'est moi
Coucou c'est moi
Coucou c'est moi
Coucou c'est moi
Coucou c'est moi
Coucou c'est moi
Coucou c'est moi
Coucou c'est moi
Coucou c'est moi
Coucou c'est moi
Coucou c'est moi
Coucou c'est moi
Coucou c'est moi
Coucou c'est moi
Coucou c'est moi
Coucou c'est moi
Coucou c'est moi
Coucou c'est moi
Coucou c'est moi
Coucou c'est moi
Coucou c'est moi
Coucou c'est moi
Coucou c'est moi
Coucou c'est moi
Coucou c'est moi
Coucou c'est moi
Coucou c'est moi
Coucou c'est moi
Coucou c'est moi
Coucou c'est moi
Coucou c'est moi
Coucou c'est moi
Coucou c'est moi
Coucou c'est moi
Coucou c'est moi
Coucou c'est moi
Coucou c'est moi
Coucou c'est moi
Coucou c'est moi
Coucou c'est moi
Coucou c'est moi
Coucou c'est moi
Coucou c'est moi
Coucou c'est moi
Coucou c'est moi
Coucou c'est moi
Coucou c'est moi
Coucou c'est moi
Coucou c'est moi
Coucou c'est moi
Coucou c'est moi
Coucou c'est moi
Coucou c'est moi
Coucou c'est moi
Coucou c'est moi
Coucou c'est moi
Coucou c'est moi
Coucou c'est moi
Coucou c'est moi
Coucou c'est moi
Coucou c'est moi
Coucou c'est moi
Coucou c'est moi
Coucou c'est moi
Coucou c'est moi
Coucou c'est moi
Coucou c'est moi
Coucou c'est moi
Coucou c'est moi
Coucou c'est moi
Coucou c'est moi
Coucou c'est moi
Coucou c'est moi
Coucou c'est moi
Coucou c'est moi
Coucou c'est moi
Coucou c'est moi
Coucou c'est moi
Coucou c'est moi
Coucou c'est moi
Coucou c'est moi
Coucou c'est moi
Coucou c'est moi
Coucou c'est moi
Coucou c'est moi
Coucou c'est moi
Coucou c'est moi
Coucou c'est moi
Coucou c'est moi
Coucou c'est moi
Coucou c'est moi
Coucou c'est moi
Coucou c'est moi
Coucou c'est moi
Coucou c'est moi
Coucou c'est moi
Coucou c'est moi
Coucou c'est moi
Coucou c'est moi
Coucou c'est moi
Coucou c'est moi
Coucou c'est moi
Coucou c'est moi
Coucou c'est moi
Coucou c'est moi
Coucou c'est moi
Coucou c'est moi
Coucou c'est moi
Coucou c'est moi
Coucou c'est moi
Coucou c'est moi
Coucou c'est moi
Coucou c'est moi
Coucou c'est moi
Coucou c'est moi
Coucou c'est moi
Coucou c'est moi
Coucou c'est moi
Coucou c'est moi
Coucou c'est moi
Coucou c'est moi
Coucou c'est moi
Coucou c'est moi
Coucou c'est moi
Coucou c'est moi
Coucou c'est moi
Coucou c'est moi
Coucou c'est moi
Coucou c'est moi
Coucou c'est moi
Coucou c'est moi
Coucou c'est moi
Coucou c'est moi
Coucou c'est moi
Coucou c'est moi
Coucou c'est moi
Coucou c'est moi
Coucou c'est moi
Coucou c'est moi
Coucou c'est moi
Coucou c'est moi
Coucou c'est moi
Coucou c'est moi
Coucou c'est moi
Coucou c'est moi
Coucou c'est moi
Coucou c'est moi
Coucou c'est moi
Coucou c'est moi
Coucou c'est moi
Coucou c'est moi
Coucou c'est moi
Coucou c'est moi
Coucou c'est moi
Coucou c'est moi
Coucou c'est moi
Coucou c'est moi
Coucou c'est moi
Coucou c'est moi
Coucou c'est moi
Coucou c'est moi
Coucou c'est moi
Coucou c'est moi
Coucou c'est moi
Coucou c'est moi
Coucou c'est moi
Coucou c'est moi
Coucou c'est moi
Coucou c'est moi
Coucou c'est moi
Coucou c'est moi
Coucou c'est moi
Coucou c'est moi
Coucou c'est moi
Coucou c'est moi
Coucou c'est moi
Coucou c'est moi
Coucou c'est moi
Coucou c'est moi
Coucou c'est moi
Coucou c'est moi
Coucou c'est moi
Coucou c'est moi
Coucou c'est moi
Coucou c'est moi
Coucou c'est moi
Coucou c'est moi
Coucou c'est moi
Coucou c'est moi
Coucou c'est moi
Coucou c'est moi
Coucou c'est moi
Coucou c'est moi
Coucou c'est moi
Coucou c'est moi
Coucou c'est moi
Coucou c'est moi
Coucou c'est moi
Coucou c'est moi
Coucou c'est moi
Coucou c'est moi
Coucou c'est moi
Coucou c'est moi
Coucou c'est moi
Coucou c'est moi
Coucou c'est moi
Coucou c'est moi
Coucou c'est moi
Coucou c'est moi
Coucou c'est moi
Coucou c'est moi
Coucou c'est moi
Coucou c'est moi
Coucou c'est moi
Coucou c'est moi
Coucou c'est moi
Coucou c'est moi
Coucou c'est moi
Coucou c'est moi
Coucou c'est moi
Coucou c'est moi
Coucou c'est moi
Coucou c'est moi
Coucou c'est moi
Coucou c'est moi
Coucou c'est moi
Coucou c'est moi
Coucou c'est moi
Coucou c'est moi
Coucou c'est moi
Coucou c'est moi
Coucou c'est moi
Coucou c'est moi
Coucou c'est moi
Coucou c'est moi
Coucou c'est moi
Coucou c'est moi
Coucou c'est moi
Coucou c'est moi
Coucou c'est moi
Coucou c'est moi
Coucou c'est moi
Coucou c'est moi
Coucou c'est moi
Coucou c'est moi
Coucou c'est moi
Coucou c'est moi
Coucou c'est moi
Coucou c'est moi
Coucou c'est moi
Coucou c'est moi
Coucou c'est moi
Coucou c'est moi
Coucou c'est moi
Coucou c'est moi
Coucou c'est moi
Coucou c'est moi
Coucou c'est moi
Coucou c'est moi
Coucou c'est moi
Coucou c'est moi
Coucou c'est moi
Coucou c'est moi
Coucou c'est moi
Coucou c'est moi
Coucou c'est moi
Coucou c'est moi
Coucou c'est moi
Coucou c'est moi
Coucou c'est moi
Coucou c'est moi
Coucou c'est moi
Coucou c'est moi
Coucou c'est moi
Coucou c'est moi
Coucou c'est moi
Coucou c'est moi
Coucou c'est moi
Coucou c'est moi
Coucou c'est moi
Coucou c'est moi
Coucou c'est moi
Coucou c'est moi
Coucou c'est moi
Coucou c'est moi
Coucou c'est moi
Coucou c'est moi
Coucou c'est moi
Coucou c'est moi
Coucou c'est moi
Coucou c'est moi
Coucou c'est moi
Coucou c'est moi
Coucou c'est moi
Coucou c'est moi
Coucou c'est moi
Coucou c'est moi
Coucou c'est moi
Coucou c'est moi
Coucou c'est moi
Coucou c'est moi
Coucou c'est moi
Coucou c'est moi
Coucou c'est moi
Coucou c'est moi
Coucou c'est moi
Coucou c'est moi
Coucou c'est moi
Coucou c'est moi
Coucou c'est moi
Coucou c'est moi
Coucou c'est moi
Coucou c'est moi
Coucou c'est moi
Coucou c'est moi
Coucou c'est moi
Coucou c'est moi
Coucou c'est moi
Coucou c'est moi
Coucou c'est moi
Coucou c'est moi
Coucou c'est moi
Coucou c'est moi
Coucou c'est moi
Coucou c'est moi
Coucou c'est moi
Coucou c'est moi
Coucou c'est moi
Coucou c'est moi
Coucou c'est moi
Coucou c'est moi
Coucou c'est moi
Coucou c'est moi
Coucou c'est moi
Coucou c'est moi
Coucou c'est moi
Coucou c'est moi
Coucou c'est moi
Coucou c'est moi
Coucou c'est moi
Coucou c'est moi
Coucou c'est moi
Coucou c'est moi
Coucou c'est moi
Coucou c'est moi
Coucou c'est moi
Coucou c'est moi
Coucou c'est moi
Coucou c'est moi
Coucou c'est moi
Coucou c'est moi
Coucou c'est moi
Coucou c'est moi
Coucou c'est moi
Coucou c'est moi
Coucou c'est moi
Coucou c'est moi
Coucou c'est moi
Coucou c'est moi
Coucou c'est moi
Coucou c'est moi
Coucou c'est moi
Coucou c'est moi
Coucou c'est moi
Coucou c'est moi
Coucou c'est moi
Coucou c'est moi
Coucou c'est moi
Coucou c'est moi
Coucou c'est moi
Coucou c'est moi
Coucou c'est moi
Coucou c'est moi
Coucou c'est moi
Coucou c'est moi
Coucou c'est moi
Coucou c'est moi
Coucou c'est moi
Coucou c'est moi
Coucou c'est moi
Coucou c'est moi
Coucou c'est moi
Coucou c'est moi
Coucou c'est moi
Coucou c'est moi
Coucou c'est moi
Coucou c'est moi
Coucou c'est moi
Coucou c'est moi
Coucou c'est moi
Coucou c'est moi
Coucou c'est moi
Coucou c'est moi
Coucou c'est moi
Coucou c'est moi
Coucou c'est moi
Coucou c'est moi
Coucou c'est moi
Coucou c'est moi
Coucou c'est moi
Coucou c'est moi
Coucou c'est moi
Coucou c'est moi
Coucou c'est moi
Coucou c'est moi
Coucou c'est moi
Coucou c'est moi
Coucou c'est moi
Coucou c'est moi
Coucou c'est moi
Coucou c'est moi
Coucou c'est moi
Coucou c'est moi
Coucou c'est moi
Coucou c'est moi
Coucou c'est moi
Coucou c'est moi
Coucou c'est moi
Coucou c'est moi
Coucou c'est moi
Coucou c'est moi
Coucou c'est moi
Coucou c'est moi
Coucou c'est moi
Coucou c'est moi
Coucou c'est moi
Coucou c'est moi
Coucou c'est moi
Coucou c'est moi
Coucou c'est moi
Coucou c'est moi
Coucou c'est moi
Coucou c'est moi
Coucou c'est moi
Coucou c'est moi
Coucou c'est moi
Coucou c'est moi
Coucou c'est moi
Coucou c'est moi
Coucou c'est moi
Coucou c'est moi
Coucou c'est moi
Coucou c'est moi
Coucou c'est moi
Coucou c'est moi
Coucou c'est moi
Coucou c'est moi
Coucou c'est moi
Coucou c'est moi
Coucou c'est moi
Coucou c'est moi
Coucou c'est moi
Coucou c'est moi
Coucou c'est moi
Coucou c'est moi
Coucou c'est moi
Coucou c'est moi
Coucou c'est moi
Coucou c'est moi
Coucou c'est moi
Coucou c'est moi
Coucou c'est moi
Coucou c'est moi
Coucou c'est moi
Coucou c'est moi
Coucou c'est moi
Coucou c'est moi
Coucou c'est moi
Coucou c'est moi
Coucou c'est moi
Coucou c'est moi
Coucou c'est moi
Coucou c'est moi
Coucou c'est moi
Coucou c'est moi
Coucou c'est moi
Coucou c'est moi
Coucou c'est moi
Coucou c'est moi
Coucou c'est moi
Coucou c'est moi
Coucou c'est moi
Coucou c'est moi
Coucou c'est moi
Coucou c'est moi
Coucou c'est moi
Coucou c'est moi
Coucou c'est moi
Coucou c'est moi
Coucou c'est moi
Coucou c'est moi
Coucou c'est moi
Coucou c'est moi
Coucou c'est moi
Coucou c'est moi
Coucou c'est moi
Coucou c'est moi
Coucou c'est moi
Coucou c'est moi
Coucou c'est moi
Coucou c'est moi
Coucou c'est moi
Coucou c'est moi
Coucou c'est moi
Coucou c'est moi
Coucou c'est moi
Coucou c'est moi
Coucou c'est moi
Coucou c'est moi
Coucou c'est moi
Coucou c'est moi
Coucou c'est moi
Coucou c'est moi
Coucou c'est moi
Coucou c'est moi
Coucou c'est moi
Coucou c'est moi
Coucou c'est moi
Coucou c'est moi
Coucou c'est moi
Coucou c'est moi
Coucou c'est moi
Coucou c'est moi
Coucou c'est moi
Coucou c'est moi
Coucou c'est moi
Coucou c'est moi
Coucou c'est moi
Coucou c'est moi
Coucou c'est moi
Coucou c'est moi
Coucou c'est moi
Coucou c'est moi
Coucou c'est moi
Coucou c'est moi
Coucou c'est moi
Coucou c'est moi
Coucou c'est moi
Coucou c'est moi
Coucou c'est moi
Coucou c'est moi
Coucou c'est moi
Coucou c'est moi
Coucou c'est moi
Coucou c'est moi
Coucou c'est moi
Coucou c'est moi
Coucou c'est moi
Coucou c'est moi
Coucou c'est moi
Coucou c'est moi
Coucou c'est moi
Coucou c'est moi
Coucou c'est moi
Coucou c'est moi
Coucou c'est moi
Coucou c'est moi
Coucou c'est moi
Coucou c'est moi
Coucou c'est moi
Coucou c'est moi
Coucou c'est moi
Coucou c'est moi
Coucou c'est moi
Coucou c'est moi
Coucou c'est moi
Coucou c'est moi
Coucou c'est moi
Coucou c'est moi
Coucou c'est moi
Coucou c'est moi
Coucou c'est moi
Coucou c'est moi
Coucou c'est moi
Coucou c'est moi
Coucou c'est moi
Coucou c'est moi
Coucou c'est moi
Coucou c'est moi
Coucou c'est moi
Coucou c'est moi
Coucou c'est moi
Coucou c'est moi
Coucou c'est moi
Coucou c'est moi
Coucou c'est moi
Coucou c'est moi
Coucou c'est moi
Coucou c'est moi
Coucou c'est moi
Coucou c'est moi
Coucou c'est moi
Coucou c'est moi
Coucou c'est moi
Coucou c'est moi
Coucou c'est moi
Coucou c'est moi
Coucou c'est moi
Coucou c'est moi
Coucou c'est moi
Coucou c'est moi
Coucou c'est moi
Coucou c'est moi
Coucou c'est moi
Coucou c'est moi
Coucou c'est moi
Coucou c'est moi
Coucou c'est moi
Coucou c'est moi
Coucou c'est moi
Coucou c'est moi
Coucou c'est moi
Coucou c'est moi
Coucou c'est moi
Coucou c'est moi
Coucou c'est moi
Coucou c'est moi
Coucou c'est moi
Coucou c'est moi
Coucou c'est moi
Coucou c'est moi
Coucou c'est moi
Coucou c'est moi
Coucou c'est moi
Coucou c'est moi
Coucou c'est moi
Coucou c'est moi
Coucou c'est moi
Coucou c'est moi
Coucou c'est moi
Coucou c'est moi
Coucou c'est moi
Coucou c'est moi
Coucou c'est moi
Coucou c'est moi
Coucou c'est moi
Coucou c'est moi
Coucou c'est moi
Coucou c'est moi
Coucou c'est moi
Coucou c'est moi
Coucou c'est moi
Coucou c'est moi
Coucou c'est moi
Coucou c'est moi
Coucou c'est moi
Coucou c'est moi
Coucou c'est moi
Coucou c'est moi
Coucou c'est moi
Coucou c'est moi
Coucou c'est moi
Coucou c'est moi
Coucou c'est moi
Coucou c'est moi
Coucou c'est moi
Coucou c'est moi
Coucou c'est moi
Coucou c'est moi
Coucou c'est moi
Coucou c'est moi
Coucou c'est moi
Coucou c'est moi
Coucou c'est moi
Coucou c'est moi
Coucou c'est moi
Coucou c'est moi
Coucou c'est moi
Coucou c'est moi
Coucou c'est moi
Coucou c'est moi
Coucou c'est moi
Coucou c'est moi
Coucou c'est moi
Coucou c'est moi
Coucou c'est moi
Coucou c'est moi
Coucou c'est moi
Coucou c'est moi
Coucou c'est moi
Coucou c'est moi
Coucou c'est moi
Coucou c'est moi
Coucou c'est moi
Coucou c'est moi
Coucou c'est moi
Coucou c'est moi
Coucou c'est moi
Coucou c'est moi
Coucou c'est moi
Coucou c'est moi
Coucou c'est moi
Coucou c'est moi
Coucou c'est moi
Coucou c'est moi
Coucou c'est moi
Coucou c'est moi
Coucou c'est moi
Coucou c'est moi
Coucou c'est moi
Coucou c'est moi
Coucou c'est moi
Coucou c'est moi
Coucou c'est moi
Coucou c'est moi
Coucou c'est moi
Coucou c'est moi
Coucou c'est moi
Coucou c'est moi
Coucou c'est moi
Coucou c'est moi
Coucou c'est moi
Coucou c'est moi
Coucou c'est moi
Coucou c'est moi
Coucou c'est moi
Coucou c'est moi
Coucou c'est moi
Coucou c'est moi
Coucou c'est moi
Coucou c'est moi
Coucou c'est moi
Coucou c'est moi
Coucou c'est moi
Coucou c'est moi
Coucou c'est moi
Coucou c'est moi
Coucou c'est moi
Coucou c'est moi
Coucou c'est moi
Coucou c'est moi
Coucou c'est moi
Coucou c'est moi
Coucou c'est moi
Coucou c'est moi
Coucou c'est moi
Coucou c'est moi
Coucou c'est moi
Coucou c'est moi
Coucou c'est moi
Coucou c'est moi
Coucou c'est moi
Coucou c'est moi
Coucou c'est moi
Coucou c'est moi
Coucou c'est moi
Coucou c'est moi
Coucou c'est moi
Coucou c'est moi
Coucou c'est moi
Coucou c'est moi
Coucou c'est moi
Coucou c'est moi
Coucou c'est moi
Coucou c'est moi
Coucou c'est moi
Coucou c'est moi
Coucou c'est moi
Coucou c'est moi
Coucou c'est moi
Coucou c'est moi
Coucou c'est moi
Coucou c'est moi
Coucou c'est moi
Coucou c'est moi
Coucou c'est moi
Coucou c'est moi
Coucou c'est moi
Coucou c'est moi
Coucou c'est moi
Coucou c'est moi
Coucou c'est moi
Coucou c'est moi
Coucou c'est moi
Coucou c'est moi
Coucou c'est moi
Coucou c'est moi
Coucou c'est moi
Coucou c'est moi
Coucou c'est moi
Coucou c'est moi
Coucou c'est moi
Coucou c'est moi
Coucou c'est moi
Coucou c'est moi
Coucou c'est moi
Coucou c'est moi
Coucou c'est moi
Coucou c'est moi
Coucou c'est moi
Coucou c'est moi
Coucou c'est moi
Coucou c'est moi
Coucou c'est moi
Coucou c'est moi
Coucou c'est moi
Coucou c'est moi
Coucou c'est moi
Coucou c'est moi
Coucou c'est moi
Coucou c'est moi
Coucou c'est moi
Coucou c'est moi
Coucou c'est moi
Coucou c'est moi
Coucou c'est moi
Coucou c'est moi
Coucou c'est moi
Coucou c'est moi
Coucou c'est moi
Coucou c'est moi
Coucou c'est moi
Coucou c'est moi
Coucou c'est moi
Coucou c'est moi
Coucou c'est moi
Coucou c'est moi
Coucou c'est moi
Coucou c'est moi
Coucou c'est moi
Coucou c'est moi
Coucou c'est moi
Coucou c'est moi
Coucou c'est moi
Coucou c'est moi
Coucou c'est moi
Coucou c'est moi
Coucou c'est moi
Coucou c'est moi
Coucou c'est moi
Coucou c'est moi
Coucou c'est moi
Coucou c'est moi
Coucou c'est moi
Coucou c'est moi
Coucou c'est moi
Coucou c'est moi
Coucou c'est moi
Coucou c'est moi
Coucou c'est moi
Coucou c'est moi
Coucou c'est moi
Coucou c'est moi
Coucou c'est moi
Coucou c'est moi
Coucou c'est moi
Coucou c'est moi
Coucou c'est moi
Coucou c'est moi
Coucou c'est moi
Coucou c'est moi
Coucou c'est moi
Coucou c'est moi
Coucou c'est moi
Coucou c'est moi
Coucou c'est moi
Coucou c'est moi
Coucou c'est moi
Coucou c'est moi
Coucou c'est moi
Coucou c'est moi
Coucou c'est moi
Coucou c'est moi
Coucou c'est moi
Coucou c'est moi
Coucou c'est moi
Coucou c'est moi
Coucou c'est moi
Coucou c'est moi
Coucou c'est moi
Coucou c'est moi
Coucou c'est moi
Coucou c'est moi
Coucou c'est moi
Coucou c'est moi
Coucou c'est moi
Coucou c'est moi
Coucou c'est moi
Coucou c'est moi
Coucou c'est moi
Coucou c'est moi
Coucou c'est moi
Coucou c'est moi
Coucou c'est moi
Coucou c'est moi
Coucou c'est moi
Coucou c'est moi
Coucou c'est moi
Coucou c'est moi
Coucou c'est moi
Coucou c'est moi
Coucou c'est moi
Coucou c'est moi
Coucou c'est moi
Coucou c'est moi
Coucou c'est moi
Coucou c'est moi
Coucou c'est moi
Coucou c'est moi
Coucou c'est moi
Coucou c'est moi
Coucou c'est moi
Coucou c'est moi
Coucou c'est moi
Coucou c'est moi
Coucou c'est moi
Coucou c'est moi
Coucou c'est moi
Coucou c'est moi
Coucou c'est moi
Coucou c'est moi
Coucou c'est moi
Coucou c'est moi
Coucou c'est moi
Coucou c'est moi
Coucou c'est moi
Coucou c'est moi
Coucou c'est moi
Coucou c'est moi
Coucou c'est moi
Coucou c'est moi
Coucou c'est moi
Coucou c'est moi
Coucou c'est moi
Coucou c'est moi
Coucou c'est moi
Coucou c'est moi
Coucou c'est moi
Coucou c'est moi
Coucou c'est moi
Coucou c'est moi
Coucou c'est moi
Coucou c'est moi
Coucou c'est moi
Coucou c'est moi
Coucou c'est moi
Coucou c'est moi
Coucou c'est moi
Coucou c'est moi
Coucou c'est moi
Coucou c'est moi
Coucou c'est moi
Coucou c'est moi
Coucou c'est moi
Coucou c'est moi
Coucou c'est moi
Coucou c'est moi
Coucou c'est moi
Coucou c'est moi
Coucou c'est moi
Coucou c'est moi
Coucou c'est moi
Coucou c'est moi
Coucou c'est moi
Coucou c'est moi
Coucou c'est moi
Coucou c'est moi
Coucou c'est moi
Coucou c'est moi
Coucou c'est moi
Coucou c'est moi
Coucou c'est moi
Coucou c'est moi
Coucou c'est moi
Coucou c'est moi
Coucou c'est moi
Coucou c'est moi
Coucou c'est moi
Coucou c'est moi
Coucou c'est moi
Coucou c'est moi
Coucou c'est moi
Coucou c'est moi
Coucou c'est moi
Coucou c'est moi
Coucou c'est moi
Coucou c'est moi
Coucou c'est moi
Coucou c'est moi
Coucou c'est moi
Coucou c'est moi
Coucou c'est moi
Coucou c'est moi
Coucou c'est moi
Coucou c'est moi
Coucou c'est moi
Coucou c'est moi
Coucou c'est moi
Coucou c'est moi
Coucou c'est moi
Coucou c'est moi
Coucou c'est moi
Coucou c'est moi
Coucou c'est moi
Coucou c'est moi
Coucou c'est moi
Coucou c'est moi
Coucou c'est moi
Coucou c'est moi
Coucou c'est moi
Coucou c'est moi
Coucou c'est moi
Coucou c'est moi
Coucou c'est moi
Coucou c'est moi
Coucou c'est moi
Coucou c'est moi
Coucou c'est moi
Coucou c'est moi
Coucou c'est moi
Coucou c'est moi
Coucou c'est moi
Coucou c'est moi
Coucou c'est moi
Coucou c'est moi
Coucou c'est moi
Coucou c'est moi
Coucou c'est moi
Coucou c'est moi
Coucou c'est moi
Coucou c'est moi
Coucou c'est moi
Coucou c'est moi
Coucou c'est moi
Coucou c'est moi
Coucou c'est moi
Coucou c'est moi
Coucou c'est moi
Coucou c'est moi
Coucou c'est moi
Coucou c'est moi
Coucou c'est moi
Coucou c'est moi
Coucou c'est moi
Coucou c'est moi
Coucou c'est moi
Coucou c'est moi
Coucou c'est moi
Coucou c'est moi
Coucou c'est moi
Coucou c'est moi
Coucou c'est moi
Coucou c'est moi
Coucou c'est moi
Coucou c'est moi
Coucou c'est moi
Coucou c'est moi
Coucou c'est moi
Coucou c'est moi
Coucou c'est moi
Coucou c'est moi
Coucou c'est moi
Coucou c'est moi
Coucou c'est moi
Coucou c'est moi
Coucou c'est moi
Coucou c'est moi
Coucou c'est moi
Coucou c'est moi
Coucou c'est moi
Coucou c'est moi
Coucou c'est moi
Coucou c'est moi
Coucou c'est moi
Coucou c'est moi
Coucou c'est moi
Coucou c'est moi
Coucou c'est moi
Coucou c'est moi
Coucou c'est moi
Coucou c'est moi
Coucou c'est moi
Coucou c'est moi
Coucou c'est moi
Coucou c'est moi
Coucou c'est moi
Coucou c'est moi
Coucou c'est moi
Coucou c'est moi
Coucou c'est moi
Coucou c'est moi
Coucou c'est moi
Coucou c'est moi
Coucou c'est moi
Coucou c'est moi
Coucou c'est moi
Coucou c'est moi
Coucou c'est moi
Coucou c'est moi
Coucou c'est moi
Coucou c'est moi
Coucou c'est moi
Coucou c'est moi
Coucou c'est moi
Coucou c'est moi
Coucou c'est moi
Coucou c'est moi
Coucou c'est moi
Coucou c'est moi
Coucou c'est moi
Coucou c'est moi
Coucou c'est moi
Coucou c'est moi
Coucou c'est moi
Coucou c'est moi
Coucou c'est moi
Coucou c'est moi
Coucou c'est moi
Coucou c'est moi
Coucou c'est moi
Coucou c'est moi
Coucou c'est moi
Coucou c'est moi
Coucou c'est moi
Coucou c'est moi
Coucou c'est moi
Coucou c'est moi
Coucou c'est moi
Coucou c'est moi
Coucou c'est moi
Coucou c'est moi
Coucou c'est moi
Coucou c'est moi
Coucou c'est moi
Coucou c'est moi
Coucou c'est moi
Coucou c'est moi
Coucou c'est moi
Coucou c'est moi
Coucou c'est moi
Coucou c'est moi
Coucou c'est moi
Coucou c'est moi
Coucou c'est moi
Coucou c'est moi
Coucou c'est moi
Coucou c'est moi
Coucou c'est moi
Coucou c'est moi
Coucou c'est moi
Coucou c'est moi
Coucou c'est moi
Coucou c'est moi
Coucou c'est moi
Coucou c'est moi
Coucou c'est moi
Coucou c'est moi
Coucou c'est moi
Coucou c'est moi
Coucou c'est moi
Coucou c'est moi
Coucou c'est moi
Coucou c'est moi
Coucou c'est moi
Coucou c'est moi
Coucou c'est moi
Coucou c'est moi
Coucou c'est moi
Coucou c'est moi
Coucou c'est moi
Coucou c'est moi
Coucou c'est moi
Coucou c'est moi
Coucou c'est moi
Coucou c'est moi
Coucou c'est moi
Coucou c'est moi
Coucou c'est moi
Coucou c'est moi
Coucou c'est moi
Coucou c'est moi
Coucou c'est moi
Coucou c'est moi
Coucou c'est moi
Coucou c'est moi
Coucou c'est moi
Coucou c'est moi
Coucou c'est moi
Coucou c'est moi
Coucou c'est moi
Coucou c'est moi
Coucou c'est moi
Coucou c'est moi
Coucou c'est moi
Coucou c'est moi
Coucou c'est moi
Coucou c'est moi
Coucou c'est moi
Coucou c'est moi
Coucou c'est moi
Coucou c'est moi
Coucou c'est moi
Coucou c'est moi
Coucou c'est moi
Coucou c'est moi
Coucou c'est moi
Coucou c'est moi
Coucou c'est moi
Coucou c'est moi
Coucou c'est moi
Coucou c'est moi
Coucou c'est moi
Coucou c'est moi
Coucou c'est moi
Coucou c'est moi
Coucou c'est moi
Coucou c'est moi
Coucou c'est moi
Coucou c'est moi
Coucou c'est moi
Coucou c'est moi
Coucou c'est moi
Coucou c'est moi
Coucou c'est moi
Coucou c'est moi
Coucou c'est moi
Coucou c'est moi
Coucou c'est moi
Coucou c'est moi
Coucou c'est moi
Coucou c'est moi
Coucou c'est moi
Coucou c'est moi
Coucou c'est moi
Coucou c'est moi
Coucou c'est moi
Coucou c'est moi
Coucou c'est moi
Coucou c'est moi
Coucou c'est moi
Coucou c'est moi
Coucou c'est moi
Coucou c'est moi
Coucou c'est moi
Coucou c'est moi
Coucou c'est moi
Coucou c'est moi
Coucou c'est moi
Coucou c'est moi
Coucou c'est moi
Coucou c'est moi
Coucou c'est moi
Coucou c'est moi
Coucou c'est moi
Coucou c'est moi
Coucou c'est moi
Coucou c'est moi
Coucou c'est moi
Coucou c'est moi
Coucou c'est moi
Coucou c'est moi
Coucou c'est moi
Coucou c'est moi
Coucou c'est moi
Coucou c'est moi
Coucou c'est moi
Coucou c'est moi
Coucou c'est moi
Coucou c'est moi
Coucou c'est moi
Coucou c'est moi
Coucou c'est moi
Coucou c'est moi
Coucou c'est moi
Coucou c'est moi
Coucou c'est moi
Coucou c'est moi
Coucou c'est moi
Coucou c'est moi
Coucou c'est moi
Coucou c'est moi
Coucou c'est moi
Coucou c'est moi
Coucou c'est moi
Coucou c'est moi
Coucou c'est moi
Coucou c'est moi
Coucou c'est moi
Coucou c'est moi
Coucou c'est moi
Coucou c'est moi
Coucou c'est moi
Coucou c'est moi
Coucou c'est moi
Coucou c'est moi
Coucou c'est moi
Coucou c'est moi
Coucou c'est moi
Coucou c'est moi
Coucou c'est moi
Coucou c'est moi
Coucou c'est moi
Coucou c'est moi
Coucou c'est moi
Coucou c'est moi
Coucou c'est moi
Coucou c'est moi
Coucou c'est moi
Coucou c'est moi
Coucou c'est moi
Coucou c'est moi
Coucou c'est moi
Coucou c'est moi
Coucou c'est moi
Coucou c'est moi
Coucou c'est moi
Coucou c'est moi
Coucou c'est moi
Coucou c'est moi
Coucou c'est moi
Coucou c'est moi
Coucou c'est moi
Coucou c'est moi
Coucou c'est moi
Coucou c'est moi
Coucou c'est moi
Coucou c'est moi
Coucou c'est moi
Coucou c'est moi
Coucou c'est moi
Coucou c'est moi
Coucou c'est moi
Coucou c'est moi
Coucou c'est moi
Coucou c'est moi
Coucou c'est moi
Coucou c'est moi
Coucou c'est moi
Coucou c'est moi
Coucou c'est moi
Coucou c'est moi
Coucou c'est moi
Coucou c'est moi
Coucou c'est moi
Coucou c'est moi
Coucou c'est moi
Coucou c'est moi
Coucou c'est moi
Coucou c'est moi
Coucou c'est moi
Coucou c'est moi
Coucou c'est moi
Coucou c'est moi
Coucou c'est moi
Coucou c'est moi
Coucou c'est moi
Coucou c'est moi
Coucou c'est moi
Coucou c'est moi
Coucou c'est moi
Coucou c'est moi
Coucou c'est moi
Coucou c'est moi
Coucou c'est moi
Coucou c'est moi
Coucou c'est moi
Coucou c'est moi
Coucou c'est moi
Coucou c'est moi
Coucou c'est moi
Coucou c'est moi
Coucou c'est moi
Coucou c'est moi
Coucou c'est moi
Coucou c'est moi
Coucou c'est moi
Coucou c'est moi
Coucou c'est moi
Coucou c'est moi
Coucou c'est moi
Coucou c'est moi
Coucou c'est moi
Coucou c'est moi
Coucou c'est moi
Coucou c'est moi
Coucou c'est moi
Coucou c'est moi
Coucou c'est moi
Coucou c'est moi
Coucou c'est moi
Coucou c'est moi
Coucou c'est moi
Coucou c'est moi
Coucou c'est moi
Coucou c'est moi
Coucou c'est moi
Coucou c'est moi
Coucou c'est moi
Coucou c'est moi
Coucou c'est moi
Coucou c'est moi
Coucou c'est moi
Coucou c'est moi
Coucou c'est moi
Coucou c'est moi
Coucou c'est moi
Coucou c'est moi
Coucou c'est moi
Coucou c'est moi
Coucou c'est moi
Coucou c'est moi
Coucou c'est moi
Coucou c'est moi
Coucou c'est moi
Coucou c'est moi
Coucou c'est moi
Coucou c'est moi
Coucou c'est moi
Coucou c'est moi
Coucou c'est moi
Coucou c'est moi
Coucou c'est moi
Coucou c'est moi
Coucou c'est moi
Coucou c'est moi
Coucou c'est moi
Coucou c'est moi
Coucou c'est moi
Coucou c'est moi
Coucou c'est moi
Coucou c'est moi
Coucou c'est moi
Coucou c'est moi
Coucou c'est moi
Coucou c'est moi
Coucou c'est moi
Coucou c'est moi
Coucou c'est moi
Coucou c'est moi
Coucou c'est moi
Coucou c'est moi
Coucou c'est moi
Coucou c'est moi
Coucou c'est moi
Coucou c'est moi
Coucou c'est moi
Coucou c'est moi
Coucou c'est moi
Coucou c'est moi
Coucou c'est moi
Coucou c'est moi
Coucou c'est moi
Coucou c'est moi
Coucou c'est moi
Coucou c'est moi
Coucou c'est moi
Coucou c'est moi
Coucou c'est moi
Coucou c'est moi
Coucou c'est moi
Coucou c'est moi
Coucou c'est moi
Coucou c'est moi
Coucou c'est moi
Coucou c'est moi
Coucou c'est moi
Coucou c'est moi
Coucou c'est moi
Coucou c'est moi
Coucou c'est moi
Coucou c'est moi
Coucou c'est moi
Coucou c'est moi
Coucou c'est moi
Coucou c'est moi
Coucou c'est moi
Coucou c'est moi
Coucou c'est moi
Coucou c'est moi
Coucou c'est moi
Coucou c'est moi
Coucou c'est moi
Coucou c'est moi
Coucou c'est moi
Coucou c'est moi
Coucou c'est moi
Coucou c'est moi
Coucou c'est moi
Coucou c'est moi
Coucou c'est moi
Coucou c'est moi
Coucou c'est moi
Coucou c'est moi
Coucou c'est moi
Coucou c'est moi
Coucou c'est moi
Coucou c'est moi
Coucou c'est moi
Coucou c'est moi
Coucou c'est moi
Coucou c'est moi
Coucou c'est moi
Coucou c'est moi
Coucou c'est moi
Coucou c'est moi
Coucou c'est moi
Coucou c'est moi
Coucou c'est moi
Coucou c'est moi
Coucou c'est moi
Coucou c'est moi
Coucou c'est moi
Coucou c'est moi
Coucou c'est moi
Coucou c'est moi
Coucou c'est moi
Coucou c'est moi
Coucou c'est moi
Coucou c'est moi
Coucou c'est moi
Coucou c'est moi
Coucou c'est moi
Coucou c'est moi
Coucou c'est moi
Coucou c'est moi
Coucou c'est moi
Coucou c'est moi
Coucou c'est moi
Coucou c'est moi
Coucou c'est moi
Coucou c'est moi
Coucou c'est moi
Coucou c'est moi
Coucou c'est moi
Coucou c'est moi
Coucou c'est moi
Coucou c'est moi
Coucou c'est moi
Coucou c'est moi
Coucou c'est moi
Coucou c'est moi
Coucou c'est moi
Coucou c'est moi
Coucou c'est moi
Coucou c'est moi
Coucou c'est moi
Coucou c'est moi
Coucou c'est moi
Coucou c'est moi
Coucou c'est moi
Coucou c'est moi
Coucou c'est moi
Coucou c'est moi
Coucou c'est moi
Coucou c'est moi
Coucou c'est moi
Coucou c'est moi
Coucou c'est moi
Coucou c'est moi
Coucou c'est moi
Coucou c'est moi
Coucou c'est moi
Coucou c'est moi
Coucou c'est moi
Coucou c'est moi
Coucou c'est moi
Coucou c'est moi
Coucou c'est moi
Coucou c'est moi
Coucou c'est moi
Coucou c'est moi
Coucou c'est moi
Coucou c'est moi
Coucou c'est moi
Coucou c'est moi
Coucou c'est moi
Coucou c'est moi
Coucou c'est moi
Coucou c'est moi
Coucou c'est moi
Coucou c'est moi
Coucou c'est moi
Coucou c'est moi
Coucou c'est moi
Coucou c'est moi
Coucou c'est moi
Coucou c'est moi
Coucou c'est moi
Coucou c'est moi
Coucou c'est moi
Coucou c'est moi
Coucou c'est moi
Coucou c'est moi
Coucou c'est moi
Coucou c'est moi
Coucou c'est moi
Coucou c'est moi
Coucou c'est moi
Coucou c'est moi
Coucou c'est moi
Coucou c'est moi
Coucou c'est moi
Coucou c'est moi
Coucou c'est moi
Coucou c'est moi
Coucou c'est moi
Coucou c'est moi
Coucou c'est moi
Coucou c'est moi
Coucou c'est moi
Coucou c'est moi
Coucou c'est moi
Coucou c'est moi
Coucou c'est moi
Coucou c'est moi
Coucou c'est moi
Coucou c'est moi
Coucou c'est moi
Coucou c'est moi
Coucou c'est moi
Coucou c'est moi
Coucou c'est moi
Coucou c'est moi
Coucou c'est moi
Coucou c'est moi
Coucou c'est moi
Coucou c'est moi
Coucou c'est moi
Coucou c'est moi
Coucou c'est moi
Coucou c'est moi
Coucou c'est moi
Coucou c'est moi
Coucou c'est moi
Coucou c'est moi
Coucou c'est moi
Coucou c'est moi
Coucou c'est moi
Coucou c'est moi
Coucou c'est moi
Coucou c'est moi
Coucou c'est moi
Coucou c'est moi
Coucou c'est moi
Coucou c'est moi
Coucou c'est moi
Coucou c'est moi
Coucou c'est moi
Coucou c'est moi
Coucou c'est moi
Coucou c'est moi
Coucou c'est moi
Coucou c'est moi
Coucou c'est moi
Coucou c'est moi
Coucou c'est moi
Coucou c'est moi
Coucou c'est moi
Coucou c'est moi
Coucou c'est moi
Coucou c'est moi
Coucou c'est moi
Coucou c'est moi
Coucou c'est moi
Coucou c'est moi
Coucou c'est moi
Coucou c'est moi
Coucou c'est moi
Coucou c'est moi
Coucou c'est moi
